﻿Count,Time,S_Sensor_Scale,Accel X,Accel Y,Accel Z,Gyro X,Gyro Y,Gyro Z,Accel X(Org),Accel Y(Org),Accel Z(Org),Gyro X(Org),Gyro Y(Org),Gyro Z(Org),Data,書く,集中,楽しさ
0,2021/7/25 23:05:16,0,-65.88,38.003,89.304,-2073.75,4904.375,2178.75,,,,,,,,0,0,0
1,2021/7/25 23:05:16,0,-67.466,67.771,117.181,-9891.875,-107520,-35962.5,,,,,,,,0,0,0
2,2021/7/25 23:05:16,0,-64.66,92.781,146.4,69457.5,-126192.5,-13164.375,,,,,,,,0,0,0
3,2021/7/25 23:05:17,0,-16.104,141.276,214.537,48501.25,-80583.125,-71190,,,,,,,,0,0,0
4,2021/7/25 23:05:17,0,48.434,163.663,272.975,-24176.25,-134531.25,-22658.125,,,,,,,,0,0,0
5,2021/7/25 23:05:17,0,121.451,185.135,310.429,75674.375,-143342.5,-21966.875,,,,,,,,0,0,0
6,2021/7/25 23:05:17,0,174.033,261.324,173.911,65314.375,-140402.5,-7761.25,,,,,,,,0,0,0
7,2021/7/25 23:05:17,0,211.853,280.661,167.628,-4112.5,-64089.375,12118.75,,,,,,,,0,0,0
8,2021/7/25 23:05:17,0,266.509,294.691,162.687,11340,-76300,-21118.125,,,,,,,,0,0,0
9,2021/7/25 23:05:17,0,311.283,309.026,157.685,20046.25,-60606.875,-74112.5,,,,,,,,0,0,0
10,2021/7/25 23:05:17,0,359.595,363.255,128.527,-12446.875,-49796.25,-65366.875,,,,,,,,0,0,0
11,2021/7/25 23:05:17,0,382.409,387.716,121.024,-41488.125,81799.375,-7498.75,,,,,,,,0,0,0
0,2021/7/25 23:05:17,0,404.125,408.578,118.645,-743.75,139518.75,-16848.125,,,,,,,,0,0,0
1,2021/7/25 23:05:18,0,430.355,446.886,135.664,28993.125,143342.5,-49271.25,,,,,,,,0,0,0
2,2021/7/25 23:05:18,0,407.114,472.933,150.426,71483.125,143342.5,-20466.25,,,,,,,,0,0,0
3,2021/7/25 23:05:18,0,361.425,504.104,141.886,68565,37401.875,-56910,,,,,,,,0,0,0
4,2021/7/25 23:05:18,0,318.908,527.467,138.043,51800,13562.5,-21975.625,,,,,,,,0,0,0
5,2021/7/25 23:05:18,0,231.251,567.422,150.304,-24867.5,69641.25,-104396.25,,,,,,,,0,0,0
6,2021/7/25 23:05:18,0,197.396,551.745,170.739,102620,142677.5,-141601.25,,,,,,,,0,0,0
7,2021/7/25 23:05:18,0,90.036,524.905,102.053,114463.125,51957.5,45250.625,,,,,,,,0,0,0
8,2021/7/25 23:05:18,0,-52.033,503.25,-28.121,12341.875,-97785.625,-55085.625,,,,,,,,0,0,0
9,2021/7/25 23:05:18,0,-97.905,495.93,-49.471,-4265.625,-44366.875,4865,,,,,,,,0,0,0
10,2021/7/25 23:05:18,0,-144.57,488.183,-65.148,-15168.125,-4418.75,-10543.75,,,,,,,,0,0,0
11,2021/7/25 23:05:19,0,-196.176,483.852,-78.629,-50185.625,66561.25,-67033.75,,,,,,,,0,0,0
0,2021/7/25 23:05:19,0,-248.453,467.26,-141.886,-4108.125,143342.5,3001.25,,,,,,,,0,0,0
1,2021/7/25 23:05:19,0,-251.015,463.661,-200.873,3670.625,52228.75,-11948.125,,,,,,,,0,0,0
2,2021/7/25 23:05:19,0,-262.544,454.938,-256.383,-15032.5,-102055.625,-48103.125,,,,,,,,0,0,0
3,2021/7/25 23:05:19,0,-332.511,429.013,-313.296,-122010,-83063.75,77035,,,,,,,,0,0,0
4,2021/7/25 23:05:19,0,-357.399,432.49,-313.418,-127312.5,-123261.25,114887.5,,,,,,,,0,0,0
5,2021/7/25 23:05:19,0,-357.887,447.801,-297.558,-40919.375,-143342.5,136644.375,,,,,,,,0,0,0
6,2021/7/25 23:05:19,0,-275.476,506.666,-329.339,85850.625,-12110,81746.875,,,,,,,,0,0,0
7,2021/7/25 23:05:19,0,-196.603,571.448,-292.434,-41545,-143342.5,-68346.25,,,,,,,,0,0,0
8,2021/7/25 23:05:19,0,-191.723,606.035,-226.249,-6173.125,64448.125,-38745,,,,,,,,0,0,0
9,2021/7/25 23:05:20,0,-174.948,631.96,-178.181,108933.125,-18200,-86047.5,,,,,,,,0,0,0
10,2021/7/25 23:05:20,0,-150.975,673.806,-116.815,18055.625,-64303.75,7980,,,,,,,,0,0,0
11,2021/7/25 23:05:20,0,-140.3,693.143,-93.33,15229.375,-61818.75,1176.875,,,,,,,,0,0,0
0,2021/7/25 23:05:20,0,-124.867,710.955,-76.189,9821.875,-71645,-25038.125,,,,,,,,0,0,0
1,2021/7/25 23:05:20,0,-109.8,725.473,-62.952,13868.75,-62943.125,-5928.125,,,,,,,,0,0,0
2,2021/7/25 23:05:20,0,-86.071,743.895,-30.622,2244.375,-19670,18803.75,,,,,,,,0,0,0
3,2021/7/25 23:05:20,0,-74.176,756.766,-18.239,-11865,57343.125,-6873.125,,,,,,,,0,0,0
4,2021/7/25 23:05:20,0,-62.098,763.842,-0.061,4987.5,71951.25,-111435.625,,,,,,,,0,0,0
5,2021/7/25 23:05:20,0,-129.381,754.143,27.511,-143342.5,-125798.75,-25151.875,,,,,,,,0,0,0
6,2021/7/25 23:05:20,0,-99.552,722.057,87.291,-121126.25,-116948.125,49861.875,,,,,,,,0,0,0
7,2021/7/25 23:05:21,0,-68.137,686.86,150.975,-30401.875,-54175.625,53510.625,,,,,,,,0,0,0
8,2021/7/25 23:05:21,0,-34.038,679.906,211.487,13623.75,-21761.25,42310.625,,,,,,,,0,0,0
9,2021/7/25 23:05:21,0,-5.429,662.582,286.334,-28441.875,-29557.5,11611.25,,,,,,,,0,0,0
10,2021/7/25 23:05:21,0,9.882,642.757,325.923,-10902.5,-14686.875,2266.25,,,,,,,,0,0,0
11,2021/7/25 23:05:21,0,23.546,623.176,364.597,10985.625,-105,-4641.875,,,,,,,,0,0,0
0,2021/7/25 23:05:21,0,42.7,600.972,424.743,8920.625,-1986.25,-879.375,,,,,,,,0,0,0
1,2021/7/25 23:05:21,0,53.924,590.358,455.121,3018.75,-11060,-1360.625,,,,,,,,0,0,0
2,2021/7/25 23:05:21,0,64.721,579.866,483.364,634.375,-7511.875,-1693.125,,,,,,,,0,0,0
3,2021/7/25 23:05:21,0,74.725,570.716,508.557,-5053.125,-6212.5,975.625,,,,,,,,0,0,0
4,2021/7/25 23:05:21,0,92.964,550.891,556.747,-791.875,-11908.75,-1920.625,,,,,,,,0,0,0
5,2021/7/25 23:05:22,0,100.833,540.094,579.134,3648.75,-8041.25,-603.75,,,,,,,,0,0,0
6,2021/7/25 23:05:22,0,107.97,530.212,599.874,5490.625,-6138.125,105,,,,,,,,0,0,0
7,2021/7/25 23:05:22,0,120.475,513.986,636.108,2135,-5446.875,1308.125,,,,,,,,0,0,0
8,2021/7/25 23:05:22,0,126.209,506.727,652.09,2345,-5215,2804.375,,,,,,,,0,0,0
9,2021/7/25 23:05:22,0,133.346,498.309,668.682,6387.5,6081.25,153.125,,,,,,,,0,0,0
10,2021/7/25 23:05:22,0,148.901,490.989,680.821,-31101.875,3784.375,-43631.875,,,,,,,,0,0,0
11,2021/7/25 23:05:22,0,139.69,459.818,690.215,-818.125,143342.5,-104374.375,,,,,,,,0,0,0
0,2021/7/25 23:05:22,0,90.219,440.298,666.852,-1658.125,-71680,-18073.125,,,,,,,,0,0,0
1,2021/7/25 23:05:22,0,43.737,422.974,646.173,-29522.5,-29426.25,16738.75,,,,,,,,0,0,0
2,2021/7/25 23:05:22,0,-30.439,404.552,644.038,29968.75,-77761.25,42214.375,,,,,,,,0,0,0
3,2021/7/25 23:05:23,0,-60.878,399.367,660.874,49310.625,-35476.875,36684.375,,,,,,,,0,0,0
4,2021/7/25 23:05:23,0,-102.358,398.513,672.586,27076.875,100349.375,2555,,,,,,,,0,0,0
5,2021/7/25 23:05:23,0,-144.021,386.557,672.098,1723.75,143342.5,4799.375,,,,,,,,0,0,0
6,2021/7/25 23:05:23,0,-231.617,368.44,608.17,-41400.625,64063.125,34278.125,,,,,,,,0,0,0
7,2021/7/25 23:05:23,0,-268.888,373.137,566.141,-54827.5,-98109.375,52215.625,,,,,,,,0,0,0
8,2021/7/25 23:05:23,0,-294.508,385.581,551.013,-21113.75,-143342.5,81029.375,,,,,,,,0,0,0
9,2021/7/25 23:05:23,0,-281.271,434.747,541.436,33757.5,-138661.25,90663.125,,,,,,,,0,0,0
10,2021/7/25 23:05:23,0,-235.765,467.443,536.678,10097.5,-62720,64023.75,,,,,,,,0,0,0
11,2021/7/25 23:05:23,0,-186.599,499.468,538.691,1054.375,49901.25,-68967.5,,,,,,,,0,0,0
0,2021/7/25 23:05:23,0,-183.549,515.938,543.388,262.5,-42945,-81401.25,,,,,,,,0,0,0
1,2021/7/25 23:05:24,0,-194.773,509.472,559.431,-61320,-83689.375,105844.375,,,,,,,,0,0,0
2,2021/7/25 23:05:24,0,-180.011,510.936,565.226,-63223.125,-51345,83934.375,,,,,,,,0,0,0
3,2021/7/25 23:05:24,0,-146.4,511.302,579.195,23174.375,-26092.5,53042.5,,,,,,,,0,0,0
4,2021/7/25 23:05:24,0,-91.317,520.757,609.817,47880,3434.375,-19451.25,,,,,,,,0,0,0
5,2021/7/25 23:05:24,0,-79.3,528.626,616.039,25777.5,-18851.875,-12105.625,,,,,,,,0,0,0
6,2021/7/25 23:05:24,0,-64.233,534.055,624.884,35669.375,-778.75,-22391.25,,,,,,,,0,0,0
7,2021/7/25 23:05:24,0,-52.094,541.192,634.583,56091.875,27601.875,-43015,,,,,,,,0,0,0
8,2021/7/25 23:05:24,0,-61.061,562.176,637.45,53287.5,70043.75,-38876.25,,,,,,,,0,0,0
9,2021/7/25 23:05:24,0,-76.311,581.635,625.372,42100.625,-3250.625,-20435.625,,,,,,,,0,0,0
10,2021/7/25 23:05:24,0,-92.171,601.765,612.562,-30506.875,1610,-1990.625,,,,,,,,0,0,0
11,2021/7/25 23:05:25,0,-99.735,629.154,605.852,-115246.25,34059.375,5096.875,,,,,,,,0,0,0
0,2021/7/25 23:05:25,0,-99.552,618.784,625.799,-39073.125,113513.75,-32497.5,,,,,,,,0,0,0
1,2021/7/25 23:05:25,0,-122.305,611.952,638.731,33621.875,141264.375,-15505,,,,,,,,0,0,0
2,2021/7/25 23:05:25,0,-160.308,616.344,631.899,-12271.875,133122.5,-34282.5,,,,,,,,0,0,0
3,2021/7/25 23:05:25,0,-228.872,604.815,631.655,-29614.375,95935,-5486.25,,,,,,,,0,0,0
4,2021/7/25 23:05:25,0,-262.3,615.185,613.111,-25418.75,43137.5,-12092.5,,,,,,,,0,0,0
5,2021/7/25 23:05:25,0,-299.754,633.302,579.134,-22518.125,114196.25,-437.5,,,,,,,,0,0,0
6,2021/7/25 23:05:25,0,-369.843,612.684,535.275,46558.75,-21000,-18983.125,,,,,,,,0,0,0
7,2021/7/25 23:05:25,0,-405.711,603.534,494.222,46261.25,-118269.375,-47105.625,,,,,,,,0,0,0
8,2021/7/25 23:05:25,0,-446.276,589.138,472.079,7301.875,-143342.5,-26573.75,,,,,,,,0,0,0
9,2021/7/25 23:05:26,0,-462.197,566.934,478.972,-23870,-143342.5,-27746.25,,,,,,,,0,0,0
10,2021/7/25 23:05:26,0,-442.677,515.694,520.208,-45486.875,-143342.5,33915,,,,,,,,0,0,0
11,2021/7/25 23:05:26,0,-373.93,489.647,537.715,11392.5,-104431.25,10570,,,,,,,,0,0,0
0,2021/7/25 23:05:26,0,-317.139,470.981,570.289,-28118.125,-60510.625,-29645,,,,,,,,0,0,0
1,2021/7/25 23:05:26,0,-218.868,459.391,593.408,-11379.375,63901.25,-45609.375,,,,,,,,0,0,0
2,2021/7/25 23:05:26,0,-159.088,442.616,605.974,4571.875,-5490.625,-22098.125,,,,,,,,0,0,0
3,2021/7/25 23:05:26,0,-107.299,432.124,621.956,2660,-8461.25,-3403.75,,,,,,,,0,0,0
4,2021/7/25 23:05:27,0,182.756,384.483,668.316,10285.625,-4248.125,-586.25,,,,,,,,0,0,0
5,2021/7/25 23:05:27,0,-67.466,67.771,117.181,-9891.875,-107520,-35962.5,,,,,,,,0,0,0
6,2021/7/25 23:05:27,0,-64.66,92.781,146.4,69457.5,-126192.5,-13164.375,,,,,,,,0,0,0
7,2021/7/25 23:05:27,0,-16.104,141.276,214.537,48501.25,-80583.125,-71190,,,,,,,,0,0,0
8,2021/7/25 23:05:27,0,48.434,163.663,272.975,-24176.25,-134531.25,-22658.125,,,,,,,,0,0,0
9,2021/7/25 23:05:28,0,268.522,346.785,782.691,6702.5,-8242.5,-835.625,,,,,,,,0,0,0
10,2021/7/25 23:05:29,0,116.632,347.7,806.786,26040,132055,-52403.75,,,,,,,,0,0,0
11,2021/7/25 23:05:30,0,-448.96,284.077,598.654,20807.5,12840.625,-21463.75,,,,,,,,1,0,0
0,2021/7/25 23:05:31,0,-693.753,236.375,509.167,14533.75,-92592.5,139838.125,,,,,,,,1,0,0
1,2021/7/25 23:05:32,0,-289.323,559.126,426.512,5919.375,-11720.625,5433.75,,,,,,,,1,0,0
2,2021/7/25 23:05:33,0,-205.936,769.759,407.663,-498.75,-38255,3806.25,,,,,,,,1,0,0
3,2021/7/25 23:05:34,0,-165.066,860.649,368.501,-8575,-13090,-6155.625,,,,,,,,1,0,0
4,2021/7/25 23:05:35,0,-106.811,905.423,308.294,21778.75,-774.375,-8172.5,,,,,,,,1,0,0
5,2021/7/25 23:05:36,0,-38.247,893.467,358.497,-19018.125,70166.25,28210,,,,,,,,1,0,0
6,2021/7/25 23:05:37,0,-59.78,792.207,462.136,42485.625,-2843.75,-19311.25,,,,,,,,1,0,0
7,2021/7/25 23:05:38,0,-194.224,850.584,408.151,-5670,-9231.25,-1964.375,,,,,,,,1,0,0
8,2021/7/25 23:05:39,0,-188.612,720.593,589.992,3115,33919.375,-44839.375,,,,,,,,1,0,0
9,2021/7/25 23:05:40,0,-464.515,366.854,653.188,72848.125,55195,-8491.875,,,,,,,,1,0,0
10,2021/7/25 23:05:41,0,-518.805,473.726,356.423,20234.375,-8841.875,8190,,,,,,,,1,0,0
11,2021/7/25 23:05:42,0,-415.349,714.31,273.036,22741.25,3683.75,20737.5,,,,,,,,1,0,0
0,2021/7/25 23:05:43,0,-335.256,844.545,237.29,19241.25,-22811.25,-6965,,,,,,,,1,0,0
1,2021/7/25 23:05:44,0,-347.944,855.891,234.85,-38150,26180,90230,,,,,,,,1,0,0
2,2021/7/25 23:05:45,0,-413.763,872.239,121.573,188.125,-20265,-14875,,,,,,,,1,0,0
3,2021/7/25 23:05:46,0,-375.699,885.659,130.418,11488.75,-4751.25,16380,,,,,,,,1,0,0
4,2021/7/25 23:05:47,0,-472.323,870.836,68.747,4353.125,-15636.25,2091.25,,,,,,,,1,0,0
5,2021/7/25 23:05:48,0,-482.51,838.323,63.257,-682.5,-18060,7529.375,,,,,,,,1,0,0
6,2021/7/25 23:05:49,0,-448.594,857.233,93.269,-2961.875,-16979.375,-5621.875,,,,,,,,1,0,0
7,2021/7/25 23:05:50,0,-389.241,881.267,108.214,17456.25,7735,2520,,,,,,,,1,0,0
8,2021/7/25 23:05:51,0,-334.036,909.205,105.042,7402.5,-14468.125,9712.5,,,,,,,,1,0,0
9,2021/7/25 23:05:52,0,-279.502,932.446,110.776,13435.625,-16695,38171.875,,,,,,,,1,0,0
10,2021/7/25 23:05:53,0,-342.21,930.738,61.366,-1776.25,-6120.625,-5398.75,,,,,,,,1,0,0
11,2021/7/25 23:05:54,0,-479.399,859.673,96.99,1631.875,-11361.875,-23699.375,,,,,,,,1,0,0
0,2021/7/25 23:05:55,0,-645.014,634.888,306.769,12613.125,-16891.875,-17766.875,,,,,,,,1,0,0
1,2021/7/25 23:05:56,0,-606.584,493.002,311.649,16476.25,-7857.5,-18173.75,,,,,,,,1,0,0
2,2021/7/25 23:05:57,0,-555.344,310.551,624.457,4663.75,-4974.375,-3753.75,,,,,,,,1,0,0
3,2021/7/25 23:05:58,0,-557.052,206.241,737.551,4606.875,2016.875,-14787.5,,,,,,,,1,0,0
4,2021/7/25 23:05:59,0,-595.482,166.957,773.846,6947.5,-35665,-37751.875,,,,,,,,1,0,0
5,2021/7/25 23:06:00,0,-560.529,112.118,800.564,102226.25,136613.75,-70148.75,,,,,,,,1,0,0
6,2021/7/25 23:06:01,0,-150.67,340.197,537.105,50820,12687.5,-66294.375,,,,,,,,1,0,0
7,2021/7/25 23:06:02,0,-26.291,652.822,485.987,17233.125,-1076.25,-21805,,,,,,,,1,0,0
8,2021/7/25 23:06:03,0,-5.429,849.181,370.392,16703.75,-643.125,8570.625,,,,,,,,1,0,0
9,2021/7/25 23:06:04,0,35.197,890.051,333.487,-32003.125,-34426.875,3696.875,,,,,,,,1,0,0
10,2021/7/25 23:06:05,0,100.833,893.223,384.544,29540,15150.625,-39873.75,,,,,,,,1,0,0
11,2021/7/25 23:06:06,0,40.199,852.109,462.441,11593.75,-12464.375,-15452.5,,,,,,,,1,0,0
0,2021/7/25 23:06:07,0,19.215,912.255,381.86,695.625,-22098.125,-4851.875,,,,,,,,1,0,0
1,2021/7/25 23:06:08,0,207.339,816.79,415.532,15907.5,-9607.5,-5818.75,,,,,,,,1,0,0
2,2021/7/25 23:06:09,0,337.879,786.9,425.231,12713.75,-14380.625,651.875,,,,,,,,1,0,0
3,2021/7/25 23:06:10,0,365.939,784.948,455.67,-20790,8732.5,8798.125,,,,,,,,1,0,0
4,2021/7/25 23:06:11,0,350.628,772.138,439.81,20636.875,-73469.375,134986.25,,,,,,,,1,0,0
5,2021/7/25 23:06:12,0,528.321,701.5,409.432,13947.5,37458.75,-72642.5,,,,,,,,1,0,0
6,2021/7/25 23:06:13,0,281.82,807.884,438.285,19451.25,-12858.125,6370,,,,,,,,1,0,0
7,2021/7/25 23:06:14,0,176.473,832.101,432.49,14030.625,-9108.75,-21306.25,,,,,,,,1,0,0
8,2021/7/25 23:06:15,0,124.501,877.058,432.307,26149.375,-993.125,-12105.625,,,,,,,,1,0,0
9,2021/7/25 23:06:16,0,103.639,893.955,368.806,27794.375,6501.25,9830.625,,,,,,,,1,0,0
10,2021/7/25 23:06:17,0,76.128,876.021,363.56,25606.875,411.25,-2445.625,,,,,,,,1,0,0
11,2021/7/25 23:06:18,0,36.783,873.093,382.958,-2458.75,-27978.125,-1680,,,,,,,,1,0,0
0,2021/7/25 23:06:19,0,-42.029,927.993,325.74,-678.125,-5998.125,-6072.5,,,,,,,,1,0,0
1,2021/7/25 23:06:20,0,73.505,877.668,399.306,-3320.625,3001.25,-258.125,,,,,,,,1,0,0
2,2021/7/25 23:06:21,0,67.344,854.305,466.833,7450.625,-22509.375,-16511.25,,,,,,,,1,0,0
3,2021/7/25 23:06:22,0,58.865,849.181,487.024,6212.5,-9209.375,-2065,,,,,,,,1,0,0
4,2021/7/25 23:06:23,0,86.803,880.901,455.853,14888.125,-12875.625,6759.375,,,,,,,,1,0,0
5,2021/7/25 23:06:24,0,106.018,911.279,434.503,17963.75,-10163.125,10040.625,,,,,,,,1,0,0
6,2021/7/25 23:06:25,0,45.75,1026.02,322.812,17990,-9668.75,6553.75,,,,,,,,1,0,0
7,2021/7/25 23:06:26,0,15.189,1020.652,279.197,26105.625,-6090,8662.5,,,,,,,,1,0,0
8,2021/7/25 23:06:27,0,-41.602,932.202,355.935,-27015.625,95103.75,-5118.75,,,,,,,,1,0,0
9,2021/7/25 23:06:28,0,-81.557,895.175,522.648,33893.125,-71264.375,14805,,,,,,,,1,0,0
10,2021/7/25 23:06:29,0,-476.349,515.511,231.251,14013.125,-143342.5,44349.375,,,,,,,,1,0,0
11,2021/7/25 23:06:30,0,-48.129,453.169,599.63,6396.25,1281.875,-3727.5,,,,,,,,1,0,0
0,2021/7/25 23:06:31,0,117.852,426.817,768.478,5236.875,-7455,-3823.75,,,,,,,,1,0,0
1,2021/7/25 23:06:32,0,153.72,421.571,826.733,-20234.375,143342.5,-143342.5,,,,,,,,1,0,0
2,2021/7/25 23:06:33,0,61.854,407.846,282.43,-4965.625,-7192.5,-45771.25,,,,,,,,1,0,0
3,2021/7/25 23:06:34,0,382.653,558.821,194.163,-24933.125,-1421.875,-54346.25,,,,,,,,1,0,0
4,2021/7/25 23:06:35,0,307.379,733.098,294.996,-8793.75,-31876.25,4921.875,,,,,,,,1,0,0
5,2021/7/25 23:06:36,0,254.187,826.367,321.897,717.5,27969.375,-25589.375,,,,,,,,1,0,0
6,2021/7/25 23:06:37,0,213.927,881.328,326.106,26871.25,-6138.125,19770.625,,,,,,,,1,0,0
7,2021/7/25 23:06:38,0,238.876,896.334,281.637,-3163.125,-8106.875,1627.5,,,,,,,,1,0,0
8,2021/7/25 23:06:39,0,192.211,979.111,199.836,44187.5,-26630.625,13418.125,,,,,,,,1,0,0
9,2021/7/25 23:06:40,0,163.358,953.857,256.017,15417.5,9073.75,-1627.5,,,,,,,,1,0,0
10,2021/7/25 23:06:41,0,196.237,969.595,203.374,-7761.25,700,-6728.75,,,,,,,,1,0,0
11,2021/7/25 23:06:42,0,158.417,962.58,231.434,45163.125,1487.5,20737.5,,,,,,,,1,0,0
0,2021/7/25 23:06:43,0,137.433,956.48,215.208,11348.75,-6335,4580.625,,,,,,,,1,0,0
1,2021/7/25 23:06:44,0,314.577,836.005,230.702,60090.625,-10574.375,16756.25,,,,,,,,1,0,0
2,2021/7/25 23:06:45,0,579.073,584.807,368.318,-835.625,4681.25,8146.25,,,,,,,,1,0,0
3,2021/7/25 23:06:46,0,588.467,592.615,411.384,58813.125,143342.5,-70752.5,,,,,,,,1,0,0
4,2021/7/25 23:06:47,0,342.332,731.268,500.078,-9380,6238.75,-10066.875,,,,,,,,1,0,0
5,2021/7/25 23:06:48,0,248.209,783.545,522.465,32865,-21376.25,11668.125,,,,,,,,1,0,0
6,2021/7/25 23:06:49,0,234.667,804.59,489.647,13461.875,-1181.25,-3101.875,,,,,,,,1,0,0
7,2021/7/25 23:06:50,0,173.789,829.478,460.611,14708.75,-10001.25,6986.875,,,,,,,,1,0,0
8,2021/7/25 23:06:51,0,165.798,858.27,389.058,13864.375,-11690,-13186.25,,,,,,,,1,0,0
9,2021/7/25 23:06:52,0,123.037,890.234,339.16,-28577.5,-59084.375,121340.625,,,,,,,,1,0,0
10,2021/7/25 23:06:53,0,190.503,862.235,332.145,4558.75,11571.875,-21476.875,,,,,,,,1,0,0
11,2021/7/25 23:06:54,0,164.822,982.954,284.199,17071.25,-6374.375,-15439.375,,,,,,,,1,0,0
0,2021/7/25 23:06:55,0,271.999,896.151,241.987,8750,-8636.25,6965,,,,,,,,1,0,0
1,2021/7/25 23:06:56,0,515.999,743.285,267.18,4952.5,-6177.5,-770,,,,,,,,1,0,0
2,2021/7/25 23:06:57,0,470.981,735.233,330.986,7507.5,5884.375,-14726.25,,,,,,,,1,0,0
3,2021/7/25 23:06:58,0,303.902,849.547,388.265,26560.625,-20991.25,19075,,,,,,,,1,0,0
4,2021/7/25 23:06:59,0,399.794,702.598,443.897,-78181.25,-65371.25,-36273.125,,,,,,,,1,0,0
5,2021/7/25 23:07:00,0,701.988,332.694,412.482,22207.5,-23165.625,3539.375,,,,,,,,1,0,0
6,2021/7/25 23:07:01,0,825.086,175.436,405.65,8596.875,-13308.75,459.375,,,,,,,,1,0,0
7,2021/7/25 23:07:02,0,887.672,97.6,358.07,6860,-7459.375,-914.375,,,,,,,,1,0,0
8,2021/7/25 23:07:03,0,938.302,60.085,323.91,39458.125,111238.75,-89897.5,,,,,,,,1,0,0
9,2021/7/25 23:07:04,0,613.05,418.216,446.215,24653.125,-8671.25,-37677.5,,,,,,,,1,0,0
10,2021/7/25 23:07:05,0,298.412,683.871,439.505,3071.25,-36837.5,-13698.125,,,,,,,,1,0,0
11,2021/7/25 23:07:06,0,207.705,808.738,404.735,25965.625,6339.375,-32405.625,,,,,,,,1,0,0
0,2021/7/25 23:07:07,0,142.496,819.596,410.225,8946.875,15120,-16310,,,,,,,,1,0,0
1,2021/7/25 23:07:08,0,82.838,842.959,390.644,14210,-22347.5,-9625,,,,,,,,1,0,0
2,2021/7/25 23:07:09,0,57.706,880.474,406.687,-6243.125,-19718.125,10618.125,,,,,,,,1,0,0
3,2021/7/25 23:07:10,0,22.814,962.763,354.349,24583.125,-12026.875,-6041.875,,,,,,,,1,0,0
4,2021/7/25 23:07:11,0,-17.385,932.69,294.874,5543.125,-1535.625,-19180,,,,,,,,1,0,0
5,2021/7/25 23:07:12,0,42.212,926.468,272.792,5503.75,29067.5,-69689.375,,,,,,,,1,0,0
6,2021/7/25 23:07:13,0,57.889,966.484,332.267,-4768.75,-19963.125,24097.5,,,,,,,,1,0,0
7,2021/7/25 23:07:14,0,52.399,910.303,366.427,17898.125,6199.375,-7017.5,,,,,,,,1,0,0
8,2021/7/25 23:07:15,0,19.642,805.2,483.486,-12285,143342.5,36338.75,,,,,,,,1,0,0
9,2021/7/25 23:07:16,0,-162.321,769.149,537.837,9918.125,17880.625,-6689.375,,,,,,,,1,0,0
10,2021/7/25 23:07:17,0,-230.641,872.117,457.622,5166.875,-16485,4558.75,,,,,,,,1,0,0
11,2021/7/25 23:07:18,0,-207.827,851.621,468.724,-11650.625,-15474.375,10478.125,,,,,,,,1,0,0
0,2021/7/25 23:07:19,0,-249.856,815.143,499.773,26376.875,-57041.25,7393.75,,,,,,,,1,0,0
1,2021/7/25 23:07:20,0,-227.042,795.867,531.554,-15360.625,-10500,-4781.875,,,,,,,,1,0,0
2,2021/7/25 23:07:21,0,-192.028,864.126,477.081,-8211.875,-6588.75,-18571.875,,,,,,,,1,0,0
3,2021/7/25 23:07:22,0,-175.436,850.889,493.002,-17740.625,-33433.75,-49048.125,,,,,,,,1,0,0
4,2021/7/25 23:07:23,0,-151.219,877.79,471.408,46900,6212.5,4803.75,,,,,,,,1,0,0
5,2021/7/25 23:07:24,0,-124.745,844.85,462.563,23480.625,-13050.625,-2388.75,,,,,,,,1,0,0
6,2021/7/25 23:07:25,0,-149.816,890.844,420.412,-41667.5,-40635,-787.5,,,,,,,,1,0,0
7,2021/7/25 23:07:26,0,-68.259,872.971,441.884,12158.125,-22618.75,3587.5,,,,,,,,1,0,0
8,2021/7/25 23:07:27,0,-86.742,888.709,407.053,20698.125,-148.75,-6737.5,,,,,,,,1,0,0
9,2021/7/25 23:07:28,0,-4.636,874.801,431.331,-11816.875,-11112.5,11379.375,,,,,,,,1,0,0
10,2021/7/25 23:07:29,0,97.417,801.479,557.113,4563.125,-8684.375,96.25,,,,,,,,1,0,0
11,2021/7/25 23:07:30,0,145.18,772.199,605.791,5105.625,-9165.625,-258.125,,,,,,,,1,0,0
0,2021/7/25 23:07:31,0,163.114,752.496,637.572,5705,-5709.375,-1312.5,,,,,,,,1,0,0
1,2021/7/25 23:07:32,0,159.21,748.714,647.088,6168.75,-6615,-1045.625,,,,,,,,1,0,0
2,2021/7/25 23:07:33,0,154.635,748.47,651.358,3793.125,-3998.75,-1575,,,,,,,,1,0,0
3,2021/7/25 23:07:34,0,150.182,762.012,657.763,-79773.75,-117009.375,-69409.375,,,,,,,,1,0,0
4,2021/7/25 23:07:35,0,209.291,776.774,525.515,-1911.875,-43811.25,4270,,,,,,,,1,0,0
5,2021/7/25 23:07:36,0,103.273,851.682,524.905,-41794.375,-2629.375,-20168.75,,,,,,,,1,0,0
6,2021/7/25 23:07:37,0,105.591,828.502,527.65,1942.5,5066.25,2511.25,,,,,,,,1,0,0
7,2021/7/25 23:07:38,0,117.913,851.56,491.233,-79126.25,-100506.875,98450.625,,,,,,,,1,0,0
8,2021/7/25 23:07:39,0,410.408,767.624,320.006,36688.75,-7853.125,6667.5,,,,,,,,1,0,0
9,2021/7/25 23:07:40,0,544.669,734.501,90.158,3793.125,-1798.125,-100.625,,,,,,,,1,0,0
10,2021/7/25 23:07:41,0,622.017,716.567,35.746,7056.875,-7424.375,-743.75,,,,,,,,1,0,0
11,2021/7/25 23:07:42,0,657.458,706.258,11.712,3736.25,-5998.125,520.625,,,,,,,,1,0,0
