﻿Count,Time,S_Sensor_Scale,Accel X,Accel Y,Accel Z,Gyro X,Gyro Y,Gyro Z,Accel X(Org),Accel Y(Org),Accel Z(Org),Gyro X(Org),Gyro Y(Org),Gyro Z(Org),Data,書く,集中,楽しさ
1,2021/7/25 17:54:03,0,72.224,100.162,77.409,2983.75,-1776.25,-5311.25,,,,,,,,0,0,0
2,2021/7/25 17:54:03,0,100.406,128.71,113.033,7822.5,-8820,-3710,,,,,,,,0,0,0
3,2021/7/25 17:54:03,0,171.41,183.244,192.089,28354.375,-33446.875,-11064.375,,,,,,,,0,0,0
4,2021/7/25 17:54:03,0,226.066,211.731,230.153,-16651.25,4869.375,-82871.25,,,,,,,,0,0,0
5,2021/7/25 17:54:03,0,242.78,235.582,260.897,18108.125,-12665.625,-12604.375,,,,,,,,0,0,0
6,2021/7/25 17:54:04,0,212.951,283.772,307.44,-12206.25,-2170,45255,,,,,,,,0,0,0
7,2021/7/25 17:54:04,0,241.743,283.223,332.206,-20615,-41440,66294.375,,,,,,,,0,0,0
8,2021/7/25 17:54:04,0,314.638,327.936,272.67,29876.875,201.25,39116.875,,,,,,,,0,0,0
9,2021/7/25 17:54:04,0,342.088,391.437,221.125,34514.375,111588.75,27588.75,,,,,,,,0,0,0
10,2021/7/25 17:54:04,0,294.325,416.752,290.238,-14385,-137519.375,-7459.375,,,,,,,,0,0,0
11,2021/7/25 17:54:04,0,317.81,421.693,312.991,-44550.625,-143342.5,41768.125,,,,,,,,0,0,0
0,2021/7/25 17:54:04,0,357.338,422.425,311.283,-1268.75,-143342.5,53707.5,,,,,,,,0,0,0
1,2021/7/25 17:54:04,0,438.773,413.397,224.785,4965.625,-63148.75,18453.75,,,,,,,,0,0,0
2,2021/7/25 17:54:04,0,461.953,418.094,164.578,-39213.125,29859.375,5210.625,,,,,,,,0,0,0
3,2021/7/25 17:54:04,0,504.165,422.425,107.726,-100625,91065.625,-19302.5,,,,,,,,0,0,0
4,2021/7/25 17:54:05,0,534.299,424.804,74.176,27448.75,133542.5,10850,,,,,,,,0,0,0
5,2021/7/25 17:54:05,0,571.936,420.29,115.717,-11243.75,143342.5,22544.375,,,,,,,,0,0,0
6,2021/7/25 17:54:05,0,550.098,413.885,166.164,27641.25,143342.5,33595.625,,,,,,,,0,0,0
7,2021/7/25 17:54:05,0,495.503,412.97,198.25,64093.75,143342.5,77140,,,,,,,,0,0,0
8,2021/7/25 17:54:05,0,335.622,418.643,225.7,-4900,-71588.125,-51655.625,,,,,,,,0,0,0
9,2021/7/25 17:54:05,0,260.348,417.545,243.268,9769.375,-127876.875,25952.5,,,,,,,,0,0,0
10,2021/7/25 17:54:05,0,211.609,416.142,269.315,15570.625,-143342.5,-94128.125,,,,,,,,0,0,0
11,2021/7/25 17:54:05,0,199.104,415.837,292.007,-58909.375,-143342.5,-19796.875,,,,,,,,0,0,0
0,2021/7/25 17:54:05,0,279.685,403.637,262.117,-11138.75,-76492.5,-14603.75,,,,,,,,0,0,0
1,2021/7/25 17:54:05,0,309.514,393.023,218.502,-39431.875,-94416.875,15439.375,,,,,,,,0,0,0
2,2021/7/25 17:54:06,0,335.927,382.836,183.854,-84848.75,-29872.5,4287.5,,,,,,,,0,0,0
3,2021/7/25 17:54:06,0,390.827,385.215,118.401,-128800,82040,-113032.5,,,,,,,,0,0,0
4,2021/7/25 17:54:06,0,419.497,393.145,120.475,-143342.5,131018.125,81781.875,,,,,,,,0,0,0
5,2021/7/25 17:54:06,0,422.364,407.358,106.689,-104628.125,62803.125,28105,,,,,,,,0,0,0
6,2021/7/25 17:54:06,0,422.303,422.791,97.417,-46497.5,116501.875,-46497.5,,,,,,,,0,0,0
7,2021/7/25 17:54:06,0,426.268,423.767,194.163,-68232.5,51485,6768.125,,,,,,,,0,0,0
8,2021/7/25 17:54:06,0,418.216,413.885,249.002,-76055,-22518.125,-23970.625,,,,,,,,0,0,0
9,2021/7/25 17:54:06,0,407.724,401.563,292.983,-33228.125,-44467.5,-26573.75,,,,,,,,0,0,0
10,2021/7/25 17:54:06,0,383.507,386.74,343.369,40368.125,-10801.875,-12306.875,,,,,,,,0,0,0
11,2021/7/25 17:54:06,0,378.2,383.263,377.529,4020.625,43312.5,-2506.875,,,,,,,,0,0,0
0,2021/7/25 17:54:07,0,363.621,379.542,422.059,9244.375,10237.5,1789.375,,,,,,,,0,0,0
1,2021/7/25 17:54:07,0,354.044,375.272,446.703,25116.875,-3101.875,424.375,,,,,,,,0,0,0
2,2021/7/25 17:54:07,0,329.339,372.588,500.261,15102.5,-1500.625,-4764.375,,,,,,,,0,0,0
3,2021/7/25 17:54:07,0,316.102,371.673,526.43,8964.375,-6028.75,-2585.625,,,,,,,,0,0,0
4,2021/7/25 17:54:07,0,303.719,369.538,555.466,-227.5,-2646.875,-1583.75,,,,,,,,0,0,0
5,2021/7/25 17:54:07,0,281.21,365.451,603.778,4138.75,-10185,-450.625,,,,,,,,0,0,0
6,2021/7/25 17:54:07,0,272.304,362.889,625.494,4169.375,-6562.5,761.25,,,,,,,,0,0,0
7,2021/7/25 17:54:07,0,264.374,360.998,643.916,4318.125,-5411.875,630,,,,,,,,0,0,0
8,2021/7/25 17:54:07,0,256.383,358.253,661.362,170.625,-11025,-1680,,,,,,,,0,0,0
9,2021/7/25 17:54:07,0,241.987,351.36,698.145,5936.875,-13982.5,-4366.25,,,,,,,,0,0,0
10,2021/7/25 17:54:08,0,236.375,348.493,713.334,12726.875,-10850,-2060.625,,,,,,,,0,0,0
11,2021/7/25 17:54:08,0,230.275,346.358,727.974,11900,-11786.25,-1662.5,,,,,,,,0,0,0
0,2021/7/25 17:54:08,0,217.343,343.247,754.509,5818.75,-6300,-3561.25,,,,,,,,0,0,0
1,2021/7/25 17:54:08,0,211.487,341.905,766.587,8128.75,-8308.125,-1859.375,,,,,,,,0,0,0
2,2021/7/25 17:54:08,0,205.57,340.319,779.763,7310.625,-6278.125,-2226.875,,,,,,,,0,0,0
3,2021/7/25 17:54:08,0,199.348,338.245,792.878,7761.25,-10482.5,-2135,,,,,,,,0,0,0
4,2021/7/25 17:54:08,0,191.906,336.354,808.189,5950,-9270.625,-1649.375,,,,,,,,0,0,0
5,2021/7/25 17:54:08,0,188.856,335.622,816.424,7612.5,-11738.125,-2174.375,,,,,,,,0,0,0
6,2021/7/25 17:54:08,0,185.806,334.402,824.293,6068.125,-7118.125,-2253.125,,,,,,,,0,0,0
7,2021/7/25 17:54:08,0,178.73,331.413,842.105,9244.375,-9795.625,-2117.5,,,,,,,,0,0,0
8,2021/7/25 17:54:09,0,175.497,330.254,848.876,11580.625,-13387.5,-1671.25,,,,,,,,0,0,0
9,2021/7/25 17:54:09,0,172.386,329.766,858.941,15684.375,-17045,2445.625,,,,,,,,0,0,0
10,2021/7/25 17:54:09,0,169.824,330.193,870.043,25283.125,-36732.5,9843.75,,,,,,,,0,0,0
11,2021/7/25 17:54:09,0,178.852,337.025,867.969,18296.25,-66972.5,15041.25,,,,,,,,0,0,0
0,2021/7/25 17:54:09,0,182.085,334.585,867.42,20925.625,-57671.25,14411.25,,,,,,,,0,0,0
1,2021/7/25 17:54:09,0,190.076,333.914,873.276,12910.625,-58896.25,27405,,,,,,,,0,0,0
2,2021/7/25 17:54:09,0,218.136,327.875,868.274,555.625,-33578.125,29006.25,,,,,,,,0,0,0
3,2021/7/25 17:54:09,0,250.832,323.727,863.577,-201.25,-43277.5,32974.375,,,,,,,,0,0,0
4,2021/7/25 17:54:09,0,281.271,318.725,858.88,13566.875,-27676.25,5341.875,,,,,,,,0,0,0
5,2021/7/25 17:54:09,0,300.303,312.93,854.732,12394.375,-19565,-5989.375,,,,,,,,0,0,0
6,2021/7/25 17:54:10,0,329.705,299.388,854.183,22198.75,69768.125,52434.375,,,,,,,,0,0,0
7,2021/7/25 17:54:10,0,343.552,291.641,866.444,57452.5,40858.125,22058.75,,,,,,,,0,0,0
8,2021/7/25 17:54:10,0,352.397,292.068,877.607,124433.75,-31959.375,-29513.75,,,,,,,,0,0,0
9,2021/7/25 17:54:10,0,373.137,308.904,855.647,43400,45180.625,-86301.25,,,,,,,,0,0,0
10,2021/7/25 17:54:10,0,388.204,329.827,822.158,59998.75,-36378.125,-128458.75,,,,,,,,0,0,0
11,2021/7/25 17:54:10,0,400.038,344.65,790.804,-88558.75,-5591.25,-55545,,,,,,,,0,0,0
0,2021/7/25 17:54:10,0,387.899,322.629,827.038,71745.625,-104588.75,100638.125,,,,,,,,0,0,0
1,2021/7/25 17:54:10,0,462.685,353.922,802.211,-107108.75,-80946.25,44310,,,,,,,,0,0,0
2,2021/7/25 17:54:10,0,497.211,347.761,794.098,-75385.625,-117626.25,25283.125,,,,,,,,0,0,0
3,2021/7/25 17:54:10,0,558.089,344.406,770.186,-52552.5,76181.875,30730,,,,,,,,0,0,0
4,2021/7/25 17:54:11,0,498.126,393.999,776.591,-13286.875,143342.5,-72708.125,,,,,,,,0,0,0
5,2021/7/25 17:54:11,0,439.017,389.79,772.382,-29701.875,40127.5,-50111.25,,,,,,,,0,0,0
6,2021/7/25 17:54:11,0,376.309,370.697,778.177,80771.25,108946.25,-102445,,,,,,,,0,0,0
7,2021/7/25 17:54:11,0,314.028,361.486,781.044,53803.75,-71680,-21494.375,,,,,,,,0,0,0
8,2021/7/25 17:54:11,0,225.151,365.695,774.822,114292.5,-143342.5,-6903.75,,,,,,,,0,0,0
9,2021/7/25 17:54:11,0,233.203,389.668,748.165,46418.75,71675.625,-75801.25,,,,,,,,0,0,0
10,2021/7/25 17:54:11,0,156.77,409.615,719.861,-12805.625,5796.875,5823.125,,,,,,,,0,0,0
11,2021/7/25 17:54:11,0,23.546,442.738,673.44,44187.5,18440.625,-15128.75,,,,,,,,0,0,0
0,2021/7/25 17:54:11,0,-17.263,467.748,649.223,15981.875,26617.5,-58559.375,,,,,,,,0,0,0
1,2021/7/25 17:54:11,0,-50.63,488.305,628.3,8465.625,50334.375,-71194.375,,,,,,,,0,0,0
2,2021/7/25 17:54:12,0,-82.167,494.71,624.274,-26429.375,-55387.5,-35310.625,,,,,,,,0,0,0
3,2021/7/25 17:54:12,0,-175.07,482.327,615.124,20413.75,-4602.5,48212.5,,,,,,,,0,0,0
4,2021/7/25 17:54:12,0,-226.371,478.606,606.95,45972.5,-13846.875,75127.5,,,,,,,,0,0,0
5,2021/7/25 17:54:12,0,-256.078,475.556,598.532,17364.375,7280,78684.375,,,,,,,,0,0,0
6,2021/7/25 17:54:12,0,-263.581,518.622,563.701,16410.625,31867.5,62860,,,,,,,,0,0,0
7,2021/7/25 17:54:12,0,-260.531,540.643,537.288,65524.375,218.75,30200.625,,,,,,,,0,0,0
8,2021/7/25 17:54:12,0,-260.165,545.279,508.069,14525,-11576.25,-9633.75,,,,,,,,0,0,0
9,2021/7/25 17:54:12,0,-270.962,550.403,483.791,-4038.125,23874.375,-14201.25,,,,,,,,0,0,0
10,2021/7/25 17:54:12,0,-305.122,586.149,428.464,15456.875,-20155.625,4637.5,,,,,,,,0,0,0
11,2021/7/25 17:54:12,0,-323.483,606.096,408.09,-6177.5,-5945.625,-4834.375,,,,,,,,0,0,0
0,2021/7/25 17:54:13,0,-342.088,624.335,393.816,56.875,-16187.5,4720.625,,,,,,,,0,0,0
1,2021/7/25 17:54:13,0,-362.096,654.896,358.802,29404.375,-21297.5,14542.5,,,,,,,,0,0,0
2,2021/7/25 17:54:13,0,-376.309,665.327,341.173,3661.875,-6466.25,4340,,,,,,,,0,0,0
3,2021/7/25 17:54:13,0,-390.461,682.346,318.054,-6549.375,-5582.5,8168.125,,,,,,,,0,0,0
4,2021/7/25 17:54:13,0,-445.117,745.481,234.728,1911.875,-9235.625,-2187.5,,,,,,,,0,0,0
5,2021/7/25 17:54:13,0,72.224,100.162,77.409,2983.75,-1776.25,-5311.25,,,,,,,,0,0,0
6,2021/7/25 17:54:13,0,100.406,128.71,113.033,7822.5,-8820,-3710,,,,,,,,0,0,0
7,2021/7/25 17:54:13,0,171.41,183.244,192.089,28354.375,-33446.875,-11064.375,,,,,,,,0,0,0
8,2021/7/25 17:54:13,0,226.066,211.731,230.153,-16651.25,4869.375,-82871.25,,,,,,,,0,0,0
9,2021/7/25 17:54:14,0,-449.204,816.18,195.2,21538.125,-20811.875,15907.5,,,,,,,,1,0,0
10,2021/7/25 17:54:15,0,-342.82,850.218,167.75,-46821.25,-44730,-104838.125,,,,,,,,1,0,0
11,2021/7/25 17:54:16,0,-450.79,849.669,129.442,-28630,-28581.875,-8723.75,,,,,,,,1,0,0
0,2021/7/25 17:54:17,0,-505.324,850.279,121.268,4983.125,-11921.875,-1579.375,,,,,,,,1,0,0
1,2021/7/25 17:54:18,0,-506.605,847.351,127.978,18668.125,2988.125,-2664.375,,,,,,,,1,0,0
2,2021/7/25 17:54:19,0,-472.018,811.91,201.727,36649.375,34623.75,53357.5,,,,,,,,1,0,0
3,2021/7/25 17:54:20,0,-541.009,832.711,126.758,11567.5,-14625.625,2738.75,,,,,,,,1,0,0
4,2021/7/25 17:54:21,0,-558.028,800.564,102.175,25331.25,-7271.25,14118.125,,,,,,,,1,0,0
5,2021/7/25 17:54:22,0,-553.697,820.023,123.281,21485.625,6492.5,-22063.125,,,,,,,,1,0,0
6,2021/7/25 17:54:23,0,-545.462,840.214,119.377,12600,-7153.125,9305.625,,,,,,,,1,0,0
7,2021/7/25 17:54:24,0,-549.183,829.661,168.238,22697.5,-38377.5,-36391.25,,,,,,,,1,0,0
8,2021/7/25 17:54:25,0,-533.201,792.695,87.84,22863.75,-126822.5,73736.25,,,,,,,,1,0,0
9,2021/7/25 17:54:26,0,-349.835,780.007,322.995,9139.375,-4650.625,-14402.5,,,,,,,,1,0,0
10,2021/7/25 17:54:27,0,-206.485,815.143,428.281,9870,-23896.25,-818.125,,,,,,,,1,0,0
11,2021/7/25 17:54:28,0,-137.738,851.438,466.162,9183.125,-10425.625,-4375,,,,,,,,1,0,0
0,2021/7/25 17:54:29,0,-145.912,860.344,478.423,2318.75,-14945,7966.875,,,,,,,,1,0,0
1,2021/7/25 17:54:30,0,-114.985,864.553,505.934,2222.5,-14914.375,-4510.625,,,,,,,,1,0,0
2,2021/7/25 17:54:31,0,-136.579,846.741,503.25,8513.75,-21503.125,-1522.5,,,,,,,,1,0,0
3,2021/7/25 17:54:32,0,-80.398,860.1,482.571,5731.25,-13986.875,-11388.125,,,,,,,,1,0,0
4,2021/7/25 17:54:33,0,-68.991,840.641,508.862,3828.125,-10084.375,-2170,,,,,,,,1,0,0
5,2021/7/25 17:54:34,0,-86.559,834.785,506.666,-5700.625,-33757.5,-9905,,,,,,,,1,0,0
6,2021/7/25 17:54:35,0,-98.576,826.55,527.772,-23428.125,-17255,28826.875,,,,,,,,1,0,0
7,2021/7/25 17:54:36,0,-63.013,873.093,417.24,3640,-22216.25,4401.25,,,,,,,,1,0,0
8,2021/7/25 17:54:37,0,-101.138,906.887,380.945,577.5,-19993.75,2213.75,,,,,,,,1,0,0
9,2021/7/25 17:54:38,0,-65.026,886.086,435.845,26245.625,-2380,-16953.125,,,,,,,,1,0,0
10,2021/7/25 17:54:39,0,-118.95,858.331,503.555,11121.25,-13326.25,-2126.25,,,,,,,,1,0,0
11,2021/7/25 17:54:40,0,-127.307,925.553,450.607,-15929.375,-27593.125,-8159.375,,,,,,,,1,0,0
0,2021/7/25 17:54:41,0,-140.788,887.672,463.051,-765.625,-7293.125,15334.375,,,,,,,,1,0,0
1,2021/7/25 17:54:42,0,-79.971,924.028,441.213,14196.875,-3351.25,-7796.25,,,,,,,,1,0,0
2,2021/7/25 17:54:43,0,-94.062,908.473,447.801,6352.5,-9843.75,-1019.375,,,,,,,,1,0,0
3,2021/7/25 17:54:44,0,-59.536,870.958,479.643,-14030.625,-26446.875,-5547.5,,,,,,,,1,0,0
4,2021/7/25 17:54:45,0,79.361,779.885,521.855,9865.625,-896.875,-3766.875,,,,,,,,1,0,0
5,2021/7/25 17:54:46,0,253.699,652.822,657.519,7481.25,-5836.25,-5009.375,,,,,,,,1,0,0
6,2021/7/25 17:54:47,0,333.182,607.987,704.428,9528.75,-8089.375,-2979.375,,,,,,,,1,0,0
7,2021/7/25 17:54:48,0,363.926,572.424,754.448,27903.75,127334.375,-41724.375,,,,,,,,1,0,0
8,2021/7/25 17:54:49,0,155.794,750.483,729.011,33810,8478.75,-22903.125,,,,,,,,1,0,0
9,2021/7/25 17:54:50,0,11.285,815.021,577.304,-55873.125,-37038.75,45994.375,,,,,,,,1,0,0
10,2021/7/25 17:54:51,0,-12.2,827.099,540.521,16244.375,-4978.75,-16296.875,,,,,,,,1,0,0
11,2021/7/25 17:54:52,0,-146.705,741.76,432.307,71675.625,-115115,143342.5,,,,,,,,1,0,0
0,2021/7/25 17:54:53,0,204.533,615.734,482.449,-10902.5,-21122.5,2235.625,,,,,,,,1,0,0
1,2021/7/25 17:54:54,0,40.565,616.161,577.182,37721.25,72782.5,3898.125,,,,,,,,1,0,0
2,2021/7/25 17:54:55,0,-325.801,665.51,475.556,5823.125,-12341.875,-12223.75,,,,,,,,1,0,0
3,2021/7/25 17:54:56,0,-530.761,681.187,363.804,2148.125,-11353.125,-3928.75,,,,,,,,1,0,0
4,2021/7/25 17:54:57,0,-627.812,671.183,327.631,6807.5,-11186.875,-1881.25,,,,,,,,1,0,0
5,2021/7/25 17:54:58,0,-667.584,663.863,317.017,7161.875,-10228.75,-3106.25,,,,,,,,1,0,0
