﻿Count,Time,S_Sensor_Scale,Accel X,Accel Y,Accel Z,Gyro X,Gyro Y,Gyro Z,Accel X(Org),Accel Y(Org),Accel Z(Org),Gyro X(Org),Gyro Y(Org),Gyro Z(Org),Data,書く,集中,楽しさ
0,2021/7/26 23:01:56,0,-88.999,75.091,29.951,-2117.5,4948.125,2117.5,,,,,,,,0,0,0
1,2021/7/26 23:01:56,0,-120.841,113.277,58.865,-4930.625,-9935.625,7437.5,,,,,,,,0,0,0
2,2021/7/26 23:01:56,0,-150.304,150.609,84.546,-1373.75,-5761.875,-4580.625,,,,,,,,0,0,0
3,2021/7/26 23:01:56,0,-202.703,217.343,131.943,-958.125,682.5,-542.5,,,,,,,,0,0,0
4,2021/7/26 23:01:56,0,-230.153,251.747,155.916,-51756.25,1636.25,-9244.375,,,,,,,,0,0,0
5,2021/7/26 23:01:56,0,-255.773,287.005,169.153,10867.5,-51401.875,76081.25,,,,,,,,0,0,0
6,2021/7/26 23:01:56,0,-260.47,318.725,220.576,25606.875,-141050,78627.5,,,,,,,,0,0,0
7,2021/7/26 23:01:57,0,-252.784,337.696,253.272,-87473.75,-125658.75,-83693.75,,,,,,,,0,0,0
8,2021/7/26 23:01:57,0,-241.438,360.693,296.704,10928.75,-135646.875,-143342.5,,,,,,,,0,0,0
9,2021/7/26 23:01:57,0,-229.421,390.217,328.729,64080.625,-134592.5,7354.375,,,,,,,,0,0,0
10,2021/7/26 23:01:57,0,-124.074,427.305,370.026,77984.375,-143342.5,22701.875,,,,,,,,0,0,0
11,2021/7/26 23:01:57,0,-40.87,439.932,365.146,28918.75,-139868.75,-60414.375,,,,,,,,0,0,0
0,2021/7/26 23:01:57,0,5.49,449.265,366.976,51996.875,-70638.75,-36316.875,,,,,,,,0,0,0
1,2021/7/26 23:01:57,0,91.683,466.711,297.375,7301.875,-138805.625,-31276.875,,,,,,,,0,0,0
2,2021/7/26 23:01:57,0,125.416,498.553,248.941,-30883.125,29128.75,-36071.875,,,,,,,,0,0,0
3,2021/7/26 23:01:57,0,142.557,528.199,196.664,-54801.25,19831.875,-17815,,,,,,,,0,0,0
4,2021/7/26 23:01:57,0,159.759,552.233,157.258,-32825.625,106907.5,-41829.375,,,,,,,,0,0,0
5,2021/7/26 23:01:58,0,175.924,593.713,113.399,4326.875,143342.5,-10692.5,,,,,,,,0,0,0
6,2021/7/26 23:01:58,0,187.453,612.745,101.809,-9248.75,143342.5,-21358.75,,,,,,,,0,0,0
7,2021/7/26 23:01:58,0,189.466,630.435,102.114,-8500.625,143342.5,-24701.25,,,,,,,,0,0,0
8,2021/7/26 23:01:58,0,188.49,669.109,134.688,-1067.5,82958.75,-11116.875,,,,,,,,0,0,0
9,2021/7/26 23:01:58,0,183.061,688.385,144.57,-1478.75,128489.375,-16100,,,,,,,,0,0,0
10,2021/7/26 23:01:58,0,198.555,693.448,139.629,25939.375,101202.5,-107275,,,,,,,,0,0,0
11,2021/7/26 23:01:58,0,203.862,679.662,162.565,116151.875,39182.5,-39703.125,,,,,,,,0,0,0
0,2021/7/26 23:01:58,0,196.603,677.588,147.132,133577.5,-49122.5,-118912.5,,,,,,,,0,0,0
1,2021/7/26 23:01:58,0,138.592,689.361,97.661,-39081.875,-135839.375,-135209.375,,,,,,,,0,0,0
2,2021/7/26 23:01:58,0,82.96,684.603,89.975,-131407.5,-143342.5,-72056.25,,,,,,,,0,0,0
3,2021/7/26 23:01:59,0,-16.409,627.446,170.617,3276.875,67593.75,-18891.25,,,,,,,,0,0,0
4,2021/7/26 23:01:59,0,-58.865,609.756,193.614,93563.75,127085,43417.5,,,,,,,,0,0,0
5,2021/7/26 23:01:59,0,-96.563,611.037,201.727,54355,45508.75,68337.5,,,,,,,,0,0,0
6,2021/7/26 23:01:59,0,-130.418,620.492,195.078,38281.25,-140,51463.125,,,,,,,,0,0,0
7,2021/7/26 23:01:59,0,-198.128,632.265,178.486,-18795,-107174.375,-6798.75,,,,,,,,0,0,0
8,2021/7/26 23:01:59,0,-237.839,633.546,176.107,-3535,-35341.25,-6593.125,,,,,,,,0,0,0
9,2021/7/26 23:01:59,0,-274.622,627.324,180.865,-29955.625,-25423.125,-9786.875,,,,,,,,0,0,0
10,2021/7/26 23:01:59,0,-334.158,625.86,189.954,7013.125,-245,2384.375,,,,,,,,0,0,0
11,2021/7/26 23:01:59,0,-358.497,628.727,191.784,-323.75,-28196.875,-8316.875,,,,,,,,0,0,0
0,2021/7/26 23:01:59,0,-382.592,627.629,196.786,3574.375,-24718.75,-5416.25,,,,,,,,0,0,0
1,2021/7/26 23:02:00,0,-405.406,626.958,199.592,5092.5,-8526.875,-590.625,,,,,,,,0,0,0
2,2021/7/26 23:02:00,0,-448.899,625.982,200.507,-5311.25,59578.75,-1990.625,,,,,,,,0,0,0
3,2021/7/26 23:02:00,0,-478.118,627.202,196.725,459.375,69479.375,-21472.5,,,,,,,,0,0,0
4,2021/7/26 23:02:00,0,-507.52,627.69,182.695,30782.5,61438.125,-4851.875,,,,,,,,0,0,0
5,2021/7/26 23:02:00,0,-548.268,602.741,150.365,-43.75,-143342.5,21844.375,,,,,,,,0,0,0
6,2021/7/26 23:02:00,0,-548.329,588.711,160.674,-27085.625,-143342.5,49061.25,,,,,,,,0,0,0
7,2021/7/26 23:02:00,0,-536.068,587.796,193.187,71146.25,40626.25,61285,,,,,,,,0,0,0
8,2021/7/26 23:02:00,0,-526.125,604.754,221.613,34650,133004.375,108255,,,,,,,,0,0,0
9,2021/7/26 23:02:00,0,-514.047,640.5,230.946,38285.625,-28599.375,1640.625,,,,,,,,0,0,0
10,2021/7/26 23:02:00,0,-513.254,652.517,220.759,29076.25,-13798.75,-19232.5,,,,,,,,0,0,0
11,2021/7/26 23:02:01,0,-511.79,664.595,213.012,20103.125,848.75,-2730,,,,,,,,0,0,0
0,2021/7/26 23:02:01,0,-501.603,680.821,184.281,-4239.375,-3696.875,6886.25,,,,,,,,0,0,0
1,2021/7/26 23:02:01,0,-510.57,687.958,179.889,-26293.75,-12158.125,-5538.75,,,,,,,,0,0,0
2,2021/7/26 23:02:01,0,-504.531,701.805,171.471,-82936.875,-99951.25,-87066.875,,,,,,,,0,0,0
3,2021/7/26 23:02:01,0,-512.461,705.221,178.181,-103490.625,-139575.625,-95353.125,,,,,,,,0,0,0
4,2021/7/26 23:02:01,0,-509.228,695.034,243.268,-24609.375,-112402.5,-56735,,,,,,,,0,0,0
5,2021/7/26 23:02:01,0,-500.139,681.37,268.644,-7358.75,-143342.5,64938.125,,,,,,,,0,0,0
6,2021/7/26 23:02:01,0,-458.72,677.466,287.005,-37555,63109.375,29719.375,,,,,,,,0,0,0
7,2021/7/26 23:02:01,0,-370.148,686.982,322.69,18300.625,71675.625,21905.625,,,,,,,,0,0,0
8,2021/7/26 23:02:01,0,-320.921,683.139,329.766,5718.125,-54486.25,-4042.5,,,,,,,,0,0,0
9,2021/7/26 23:02:02,0,-265.96,679.052,354.959,-31263.75,-4108.125,-19516.875,,,,,,,,0,0,0
10,2021/7/26 23:02:02,0,-197.945,666.181,359.534,-33223.75,-26547.5,-13956.25,,,,,,,,0,0,0
11,2021/7/26 23:02:02,0,-76.738,650.992,348.005,-34195,-102519.375,20409.375,,,,,,,,0,0,0
0,2021/7/26 23:02:02,0,-13.908,639.646,335.683,-15977.5,-119266.875,50137.5,,,,,,,,0,0,0
1,2021/7/26 23:02:02,0,46.055,622.505,310.124,17451.875,-117923.75,52141.25,,,,,,,,0,0,0
2,2021/7/26 23:02:02,0,155.55,576.755,254.065,-24014.375,121625,117971.875,,,,,,,,0,0,0
3,2021/7/26 23:02:02,0,209.413,549.671,263.886,-10486.875,137265.625,24591.875,,,,,,,,0,0,0
4,2021/7/26 23:02:02,0,279.868,541.314,283.345,-64483.125,-13632.5,-110801.25,,,,,,,,0,0,0
5,2021/7/26 23:02:02,0,322.812,531.554,292.922,18900,7538.125,-79301.25,,,,,,,,0,0,0
6,2021/7/26 23:02:02,0,420.961,401.563,315.797,-22732.5,84223.125,-125133.75,,,,,,,,0,0,0
7,2021/7/26 23:02:03,0,432.185,382.348,347.456,23743.125,143276.875,-62960.625,,,,,,,,0,0,0
8,2021/7/26 23:02:03,0,390.888,407.358,385.642,112210,-71680,25598.125,,,,,,,,0,0,0
9,2021/7/26 23:02:03,0,370.27,433.466,391.254,95615.625,-29470,-5718.125,,,,,,,,0,0,0
10,2021/7/26 23:02:03,0,369.111,453.413,403.271,25598.125,13037.5,-23209.375,,,,,,,,0,0,0
11,2021/7/26 23:02:03,0,357.338,476.288,409.615,-17578.75,32453.75,-18038.125,,,,,,,,0,0,0
0,2021/7/26 23:02:03,0,351.177,497.699,415.044,-5131.875,15531.25,-26963.125,,,,,,,,0,0,0
1,2021/7/26 23:02:03,0,334.951,538.508,433.283,3106.25,-4147.5,2738.75,,,,,,,,0,0,0
2,2021/7/26 23:02:03,0,328.546,558.272,437.858,6435.625,-2646.875,3915.625,,,,,,,,0,0,0
3,2021/7/26 23:02:03,0,316.041,578.463,445.3,14875,-10430,-2388.75,,,,,,,,0,0,0
4,2021/7/26 23:02:03,0,308.904,606.157,448.106,4523.75,-10237.5,-5328.75,,,,,,,,0,0,0
5,2021/7/26 23:02:04,0,297.009,623.115,446.825,13693.75,-9817.5,8723.75,,,,,,,,0,0,0
6,2021/7/26 23:02:04,0,292.251,637.999,444.019,3031.875,-6492.5,-6168.75,,,,,,,,0,0,0
7,2021/7/26 23:02:04,0,287.859,655.384,439.932,-3381.875,-17836.875,11309.375,,,,,,,,0,0,0
8,2021/7/26 23:02:04,0,258.396,707.661,425.841,14284.375,-7214.375,-7013.125,,,,,,,,0,0,0
9,2021/7/26 23:02:04,0,249.734,718.824,428.525,7183.75,-6895,8106.875,,,,,,,,0,0,0
10,2021/7/26 23:02:04,0,248.392,728.767,431.026,5451.25,-2340.625,-2060.625,,,,,,,,0,0,0
11,2021/7/26 23:02:04,0,237.168,746.64,429.623,-6033.125,-24530.625,2493.75,,,,,,,,0,0,0
0,2021/7/26 23:02:04,0,244.793,747.799,439.688,2594.375,-5197.5,-18725,,,,,,,,0,0,0
1,2021/7/26 23:02:04,0,234.301,752.923,450.912,13562.5,-437.5,-2708.125,,,,,,,,0,0,0
2,2021/7/26 23:02:04,0,222.833,757.986,457.317,-24666.25,-39475.625,27103.125,,,,,,,,0,0,0
3,2021/7/26 23:02:05,0,225.151,755.912,469.151,9161.25,-7756.875,-31049.375,,,,,,,,0,0,0
4,2021/7/26 23:02:05,0,223.748,767.319,462.99,21774.375,18095,18729.375,,,,,,,,0,0,0
5,2021/7/26 23:02:05,0,228.506,782.386,447.801,9493.75,3775.625,30629.375,,,,,,,,0,0,0
6,2021/7/26 23:02:05,0,232.227,782.63,446.52,940.625,-7800.625,-20693.75,,,,,,,,0,0,0
7,2021/7/26 23:02:05,0,230.458,791.78,434.076,-11585,-12849.375,7140,,,,,,,,0,0,0
8,2021/7/26 23:02:05,0,236.07,799.71,426.085,-3548.125,-5280.625,-15369.375,,,,,,,,0,0,0
9,2021/7/26 23:02:05,0,230.946,806.115,425.292,7245,-9410.625,-13208.125,,,,,,,,0,0,0
10,2021/7/26 23:02:05,0,213.012,820.694,430.355,24263.75,9498.125,46116.875,,,,,,,,0,0,0
11,2021/7/26 23:02:05,0,213.256,824.049,420.046,-28560,23375.625,-16314.375,,,,,,,,0,0,0
0,2021/7/26 23:02:05,0,233.325,816.363,415.532,-26932.5,30375.625,-3762.5,,,,,,,,0,0,0
1,2021/7/26 23:02:06,0,243.878,817.034,421.754,13387.5,15640.625,-24500,,,,,,,,1,0,0
2,2021/7/26 23:02:06,0,254.431,815.692,427.854,21511.875,7446.25,12127.5,,,,,,,,1,0,0
3,2021/7/26 23:02:06,0,251.93,824.659,428.403,-5324.375,-11313.75,27571.25,,,,,,,,1,0,0
4,2021/7/26 23:02:06,0,256.322,846.375,414.617,7975.625,5123.125,1334.375,,,,,,,,1,0,0
5,2021/7/26 23:02:06,0,-120.841,113.277,58.865,-4930.625,-9935.625,7437.5,,,,,,,,1,0,0
6,2021/7/26 23:02:06,0,-150.304,150.609,84.546,-1373.75,-5761.875,-4580.625,,,,,,,,1,0,0
7,2021/7/26 23:02:06,0,-202.703,217.343,131.943,-958.125,682.5,-542.5,,,,,,,,1,0,0
8,2021/7/26 23:02:06,0,-230.153,251.747,155.916,-51756.25,1636.25,-9244.375,,,,,,,,1,0,0
9,2021/7/26 23:02:07,0,230.275,847.961,421.327,-3276.875,-10749.375,-11633.125,,,,,,,,1,0,0
10,2021/7/26 23:02:08,0,226.066,837.591,451.217,2730,-10850,-15211.875,,,,,,,,1,0,0
11,2021/7/26 23:02:09,0,242.353,833.565,454.572,6011.25,12871.25,-23380,,,,,,,,1,0,0
0,2021/7/26 23:02:10,0,238.876,844.301,444.141,8933.75,-6807.5,6256.25,,,,,,,,1,0,0
1,2021/7/26 23:02:11,0,298.473,774.7,492.941,3040.625,-8715,6094.375,,,,,,,,1,0,0
2,2021/7/26 23:02:12,0,219.905,795.501,514.535,-10998.75,-37537.5,14345.625,,,,,,,,1,0,0
3,2021/7/26 23:02:13,0,180.194,836.005,453.718,-3495.625,-10928.75,-7853.125,,,,,,,,1,0,0
4,2021/7/26 23:02:14,0,163.358,845.277,475.861,8085,-20733.125,-7135.625,,,,,,,,1,0,0
5,2021/7/26 23:02:15,0,185.867,863.943,423.279,-4786.25,3062.5,-36789.375,,,,,,,,1,0,0
6,2021/7/26 23:02:16,0,195.444,896.517,408.944,-3644.375,-8780.625,-21918.75,,,,,,,,1,0,0
7,2021/7/26 23:02:17,0,167.262,906.033,373.869,-31132.5,-30576.875,-2813.125,,,,,,,,1,0,0
8,2021/7/26 23:02:18,0,229.604,858.026,432.429,-6475,8645,-3023.125,,,,,,,,1,0,0
9,2021/7/26 23:02:19,0,228.506,830.576,482.815,3469.375,-8658.125,2292.5,,,,,,,,1,0,0
10,2021/7/26 23:02:20,0,238.632,824.415,495.32,-2021.25,-6728.75,481.25,,,,,,,,1,0,0
11,2021/7/26 23:02:21,0,220.393,828.99,507.642,3093.125,-7280,-1194.375,,,,,,,,1,0,0
0,2021/7/26 23:02:22,0,231.007,816.729,493.612,5486.25,9891.875,-6431.25,,,,,,,,1,0,0
1,2021/7/26 23:02:23,0,203.557,885.842,432.49,11077.5,-4803.75,6050.625,,,,,,,,1,0,0
2,2021/7/26 23:02:24,0,240.218,845.704,438.956,17263.75,1645,-10543.75,,,,,,,,1,0,0
3,2021/7/26 23:02:25,0,252.113,851.743,426.451,7035,-10241.875,26639.375,,,,,,,,1,0,0
4,2021/7/26 23:02:26,0,243.817,881.45,375.211,7573.125,-11650.625,-22111.25,,,,,,,,1,0,0
5,2021/7/26 23:02:27,0,200.812,872.91,382.409,20842.5,-13221.25,-10653.125,,,,,,,,1,0,0
6,2021/7/26 23:02:28,0,189.344,878.461,403.881,-16541.875,-9629.375,59154.375,,,,,,,,1,0,0
7,2021/7/26 23:02:29,0,415.654,777.994,375.15,-113277.5,-17548.125,4558.75,,,,,,,,1,0,0
8,2021/7/26 23:02:30,0,526.918,577.426,526.247,11221.875,-2318.75,2786.875,,,,,,,,1,0,0
9,2021/7/26 23:02:31,0,603.168,498.004,566.202,3084.375,-4414.375,975.625,,,,,,,,1,0,0
10,2021/7/26 23:02:32,0,635.925,465.674,584.197,2450,-3001.25,-70,,,,,,,,1,0,0
11,2021/7/26 23:02:33,0,642.391,452.437,603.473,3675,-2673.125,1505,,,,,,,,1,0,0
0,2021/7/26 23:02:34,0,636.657,450.363,617.686,3793.125,-2428.125,-91.875,,,,,,,,1,0,0
1,2021/7/26 23:02:35,0,687.897,381.982,541.131,3106.25,-104195,15614.375,,,,,,,,1,0,0
2,2021/7/26 23:02:36,0,834.785,300.73,205.875,-8194.375,143342.5,-20488.125,,,,,,,,1,0,0
3,2021/7/26 23:02:37,0,98.088,413.763,447.862,57973.125,-75215,15124.375,,,,,,,,1,0,0
4,2021/7/26 23:02:38,0,-152.195,616.405,501.115,5814.375,-31836.875,30616.25,,,,,,,,1,0,0
5,2021/7/26 23:02:39,0,-233.813,718.763,496.845,33853.75,4200,-8264.375,,,,,,,,1,0,0
6,2021/7/26 23:02:40,0,-238.51,752.13,487.573,13549.375,-13615,13190.625,,,,,,,,1,0,0
7,2021/7/26 23:02:41,0,-277.672,787.754,560.773,24421.25,14424.375,-2397.5,,,,,,,,1,0,0
8,2021/7/26 23:02:42,0,-255.102,845.033,493.368,20908.125,6685,6422.5,,,,,,,,1,0,0
9,2021/7/26 23:02:43,0,-143.716,820.633,513.864,14140,-21065.625,-24465,,,,,,,,1,0,0
10,2021/7/26 23:02:44,0,-130.113,840.458,496.723,31946.25,-9660,-9642.5,,,,,,,,1,0,0
11,2021/7/26 23:02:45,0,-168.726,564.067,-32.818,-15426.25,143342.5,19215,,,,,,,,1,0,0
0,2021/7/26 23:02:46,0,400.221,261.812,116.937,2393.125,-4020.625,30.625,,,,,,,,1,0,0
1,2021/7/26 23:02:47,0,704.306,123.769,235.399,2493.75,-4020.625,188.125,,,,,,,,1,0,0
2,2021/7/26 23:02:48,0,836.188,63.928,286.761,2467.5,-4191.25,87.5,,,,,,,,1,0,0
3,2021/7/26 23:02:49,0,893.406,37.698,308.843,2375.625,-4095,56.875,,,,,,,,1,0,0
4,2021/7/26 23:02:50,0,917.989,26.352,318.908,2436.875,-4090.625,100.625,,,,,,,,1,0,0
5,2021/7/26 23:02:51,0,928.237,20.984,323.3,2493.75,-4025,-30.625,,,,,,,,1,0,0
6,2021/7/26 23:02:52,0,930.189,19.337,325.191,3066.875,-4830,-1133.125,,,,,,,,1,0,0
7,2021/7/26 23:02:53,0,601.521,24.095,334.524,-936.25,53436.25,-40945.625,,,,,,,,1,0,0
8,2021/7/26 23:02:54,0,-54.29,446.276,179.035,-6186.25,-2773.75,4466.875,,,,,,,,1,0,0
9,2021/7/26 23:02:55,0,-354.349,541.131,133.895,49214.375,-143342.5,46003.125,,,,,,,,1,0,0
10,2021/7/26 23:02:56,0,227.591,507.52,309.209,15474.375,-2983.75,1575,,,,,,,,1,0,0
11,2021/7/26 23:02:57,0,504.287,467.992,438.956,1911.875,-8723.75,883.75,,,,,,,,1,0,0
0,2021/7/26 23:02:58,0,708.332,361.303,380.213,13448.75,13286.875,-12556.25,,,,,,,,1,0,0
1,2021/7/26 23:02:59,0,735.416,405.162,411.506,-18567.5,123366.25,2651.25,,,,,,,,1,0,0
2,2021/7/26 23:03:00,0,333.426,577.67,529.358,11633.125,9187.5,-15347.5,,,,,,,,1,0,0
3,2021/7/26 23:03:01,0,151.28,672.769,588.894,17653.125,-9301.25,-2730,,,,,,,,1,0,0
4,2021/7/26 23:03:02,0,79.727,750.117,559.919,32519.375,-14931.875,-36610,,,,,,,,1,0,0
5,2021/7/26 23:03:03,0,24.156,759.938,596.58,-6230,-12744.375,6400.625,,,,,,,,1,0,0
6,2021/7/26 23:03:04,0,6.039,799.832,584.624,12490.625,-14586.25,2502.5,,,,,,,,1,0,0
7,2021/7/26 23:03:05,0,9.394,771.345,611.891,-6173.125,-16533.125,-15500.625,,,,,,,,1,0,0
8,2021/7/26 23:03:06,0,58.316,762.561,598.227,12258.75,612.5,-19403.125,,,,,,,,1,0,0
9,2021/7/26 23:03:07,0,101.504,781.837,560.834,-840,-15968.75,166.25,,,,,,,,1,0,0
10,2021/7/26 23:03:08,0,129.503,814.167,511.302,-14691.25,6781.25,22334.375,,,,,,,,1,0,0
11,2021/7/26 23:03:09,0,105.835,808.738,526.308,21446.25,-245,10355.625,,,,,,,,1,0,0
0,2021/7/26 23:03:10,0,66.551,813.313,557.723,37156.875,-12048.75,25694.375,,,,,,,,1,0,0
1,2021/7/26 23:03:11,0,312.198,684.908,581.513,8058.75,3828.125,-12499.375,,,,,,,,1,0,0
2,2021/7/26 23:03:12,0,508.069,534.909,572.79,-26302.5,16100,-28546.875,,,,,,,,1,0,0
3,2021/7/26 23:03:13,0,702.964,403.576,490.074,3963.75,8.75,-1776.25,,,,,,,,1,0,0
4,2021/7/26 23:03:14,0,447.74,349.164,635.681,11602.5,-83050.625,-22977.5,,,,,,,,1,0,0
5,2021/7/26 23:03:15,0,379.359,339.526,730.658,63892.5,13479.375,122.5,,,,,,,,1,0,0
6,2021/7/26 23:03:16,0,210.267,581.025,697.901,-5311.25,468.125,1789.375,,,,,,,,1,0,0
7,2021/7/26 23:03:17,0,82.289,710.04,678.808,-20291.25,-33586.875,-18615.625,,,,,,,,1,0,0
8,2021/7/26 23:03:18,0,81.618,736.88,664.29,22430.625,-13448.75,-5521.25,,,,,,,,1,0,0
9,2021/7/26 23:03:19,0,79.178,755.851,635.376,-2117.5,-11401.25,10885,,,,,,,,1,0,0
10,2021/7/26 23:03:20,0,88.633,798.063,589.077,-6873.125,-774.375,-5390,,,,,,,,1,0,0
11,2021/7/26 23:03:21,0,62.22,857.172,545.462,16716.875,-5372.5,7140,,,,,,,,1,0,0
0,2021/7/26 23:03:22,0,95.892,849.12,496.967,-791.875,-15487.5,-6995.625,,,,,,,,1,0,0
1,2021/7/26 23:03:23,0,93.452,874.13,433.588,-1942.5,-29491.875,-17250.625,,,,,,,,1,0,0
2,2021/7/26 23:03:24,0,157.014,841.434,480.009,20260.625,8290.625,19670,,,,,,,,1,0,0
3,2021/7/26 23:03:25,0,144.753,804.163,560.285,3294.375,-8544.375,498.75,,,,,,,,1,0,0
4,2021/7/26 23:03:26,0,126.148,804.285,580.11,-9436.875,-23830.625,14135.625,,,,,,,,1,0,0
5,2021/7/26 23:03:27,0,114.375,802.028,573.766,14179.375,6864.375,-11125.625,,,,,,,,1,0,0
6,2021/7/26 23:03:28,0,114.619,827.892,550.83,40923.75,29203.125,-13593.125,,,,,,,,1,0,0
7,2021/7/26 23:03:29,0,81.74,819.535,574.254,13103.125,1190,6864.375,,,,,,,,1,0,0
8,2021/7/26 23:03:30,0,72.224,818.559,568.459,-20711.25,-20002.5,6160,,,,,,,,1,0,0
9,2021/7/26 23:03:31,0,71.736,828.685,525.637,7686.875,-13645.625,2415,,,,,,,,1,0,0
10,2021/7/26 23:03:32,0,118.218,863.211,457.988,-2056.25,11528.125,14700,,,,,,,,1,0,0
11,2021/7/26 23:03:33,0,49.471,717.36,278.221,-27658.75,18707.5,126542.5,,,,,,,,1,0,0
0,2021/7/26 23:03:34,0,-190.076,416.508,335.561,70498.75,109025,119415.625,,,,,,,,1,0,0
1,2021/7/26 23:03:35,0,-557.052,507.581,163.297,3491.25,-91962.5,49026.25,,,,,,,,1,0,0
2,2021/7/26 23:03:36,0,-627.324,612.562,116.51,8408.75,-9865.625,-28498.75,,,,,,,,1,0,0
3,2021/7/26 23:03:37,0,-720.41,606.706,142.252,253.75,-9550.625,-11886.875,,,,,,,,1,0,0
4,2021/7/26 23:03:38,0,-789.706,545.035,200.324,1785,-5967.5,-3237.5,,,,,,,,1,0,0
5,2021/7/26 23:03:39,0,-825.33,505.385,235.46,3333.75,-3780,293.125,,,,,,,,1,0,0
