,Time,Accel X,Accel Y,Accel Z,Gyro X,Gyro Y,Gyro Z,書く,集中,楽しさ
0,2021/7/28 23:34:09,-119.743,0.732,-88.938,-2205.0,5044.375,1981.875,0,0,0
1,2021/7/28 23:34:09,-213.012,-30.561,-116.266,13409.375,-107520.0,42708.75,0,0,0
2,2021/7/28 23:34:09,-256.993,-53.192,-83.936,-46361.875,-38075.625,-28634.375,0,0,0
3,2021/7/28 23:34:09,-307.684,-70.211,-16.47,11375.0,-39873.75,33188.75,0,0,0
4,2021/7/28 23:34:09,-328.851,-75.213,13.969,-9800.0,-31491.25,-33026.875,0,0,0
5,2021/7/28 23:34:09,-365.268,-82.167,37.454,12473.125,-14350.0,6650.0,0,0,0
6,2021/7/28 23:34:09,-413.946,-90.158,83.692,2747.5,-18720.625,-20466.25,0,0,0
7,2021/7/28 23:34:09,-443.592,-94.916,103.761,18676.875,-3972.5,13391.875,0,0,0
8,2021/7/28 23:34:09,-471.042,-98.271,122.732,2248.75,-3635.625,-16957.5,0,0,0
99,2021/7/28 23:34:19,-841.251,-158.783,439.017,8338.75,-8640.625,-4948.125,0,0,0
100,2021/7/28 23:34:19,-841.678,-158.173,438.59,8098.125,-8649.375,-5285.0,0,0,0
101,2021/7/28 23:34:19,-213.012,-30.561,-116.266,13409.375,-107520.0,42708.75,0,0,0
102,2021/7/28 23:34:19,-256.993,-53.192,-83.936,-46361.875,-38075.625,-28634.375,0,0,0
103,2021/7/28 23:34:19,-307.684,-70.211,-16.47,11375.0,-39873.75,33188.75,0,0,0
104,2021/7/28 23:34:19,-328.851,-75.213,13.969,-9800.0,-31491.25,-33026.875,0,0,0
404,2021/7/28 23:39:19,825.513,24.705,581.757,8636.25,-9226.875,-5110.0,0,0,0
405,2021/7/28 23:39:19,825.513,24.705,581.696,8531.25,-9292.5,-5206.25,0,0,0
406,2021/7/28 23:39:19,825.513,24.888,581.635,8684.375,-9380.0,-5171.25,0,0,0
407,2021/7/28 23:39:19,825.513,24.827,581.757,8833.125,-9773.75,-5180.0,0,0,0
498,2021/7/28 23:39:29,824.781,25.132,582.855,8719.375,-9611.875,-5188.75,0,0,0
499,2021/7/28 23:39:29,824.842,25.01,582.855,8601.25,-9095.625,-5101.25,0,0,0
500,2021/7/28 23:39:29,825.086,25.437,582.306,8653.75,-9559.375,-5166.875,0,0,0
501,2021/7/28 23:39:29,825.086,24.949,582.306,8710.625,-9594.375,-5149.375,0,0,0
502,2021/7/28 23:39:29,825.208,25.315,581.879,8706.25,-9380.0,-5197.5,0,0,0
503,2021/7/28 23:39:29,825.452,25.559,582.367,8719.375,-9905.0,-5153.75,0,0,0
504,2021/7/28 23:39:29,825.513,24.705,581.757,8636.25,-9226.875,-5110.0,0,0,0
505,2021/7/28 23:39:29,825.513,24.705,581.696,8531.25,-9292.5,-5206.25,0,0,0
506,2021/7/28 23:39:29,825.513,24.888,581.635,8684.375,-9380.0,-5171.25,0,0,0
