,Time,Accel X,Accel Y,Accel Z,Gyro X,Gyro Y,Gyro Z,書く,集中,楽しさ
0,2021/4/19 11:30:48,58.804,-35.136,-99.369,-4698.75,2406.25,3740.625,0,0,0
1,2021/4/19 11:30:48,84.973,-50.508,-144.692,-870.625,-2353.75,1023.75,0,0,0
2,2021/4/19 11:30:48,109.861,-63.013,-187.514,-2016.875,-3233.125,1680.0,0,0,0
3,2021/4/19 11:30:48,155.916,-86.071,-263.52,-1872.5,-2428.125,3745.0,0,0,0
4,2021/4/19 11:30:48,176.534,-96.929,-296.887,-1526.875,-3211.25,3578.75,0,0,0
5,2021/4/19 11:30:48,195.2,-106.567,-327.387,-853.125,-4081.875,3154.375,0,0,0
6,2021/4/19 11:30:48,211.975,-115.29,-355.996,-971.25,-4011.875,2305.625,0,0,0
7,2021/4/19 11:30:48,242.719,-131.516,-409.981,-875.0,-3727.5,2537.5,0,0,0
98,2021/4/19 11:30:58,501.603,-205.57,-799.466,-122.5,-3456.25,1618.75,0,0,0
99,2021/4/19 11:30:58,501.603,-206.058,-799.588,-266.875,-3727.5,1570.625,0,0,0
100,2021/4/19 11:30:58,500.749,-206.119,-798.551,-708.75,-3714.375,1203.125,0,0,0
101,2021/4/19 11:30:58,84.973,-50.508,-144.692,-870.625,-2353.75,1023.75,0,0,0
102,2021/4/19 11:30:58,109.861,-63.013,-187.514,-2016.875,-3233.125,1680.0,0,0,0
103,2021/4/19 11:30:58,155.916,-86.071,-263.52,-1872.5,-2428.125,3745.0,0,0,0
104,2021/4/19 11:30:58,176.534,-96.929,-296.887,-1526.875,-3211.25,3578.75,0,0,0
404,2021/4/19 11:35:58,506.971,-243.024,-788.73,-433.125,-3806.25,1155.0,0,0,0
405,2021/4/19 11:35:58,507.093,-243.024,-788.852,-577.5,-3775.625,1163.75,0,0,0
406,2021/4/19 11:35:58,507.398,-242.963,-788.73,-700.0,-3692.5,1268.75,0,0,0
