,Time,Accel X,Accel Y,Accel Z,Gyro X,Gyro Y,Gyro Z,書く,集中,楽しさ
0,2021/4/19 7:18:07,80.764,21.228,-108.58,-1312.5,476.875,1421.875,0,0,0
1,2021/4/19 7:18:07,120.414,56.547,-154.33,-56481.25,23673.125,-42958.125,0,0,0
2,2021/4/19 7:18:07,148.84,99.979,-197.091,-113575.0,29684.375,-70048.125,0,0,0
3,2021/4/19 7:18:07,154.818,188.49,-230.031,-129552.5,33101.25,-105131.25,0,0,0
4,2021/4/19 7:18:07,143.35,228.384,-232.837,-43570.625,9555.0,-71251.25,0,0,0
5,2021/4/19 7:18:07,127.856,265.411,-226.249,27221.25,14940.625,-74265.625,0,0,0
96,2021/4/19 7:18:17,79.788,887.245,-396.378,4908.75,-17500.0,7341.25,0,0,0
97,2021/4/19 7:18:17,85.278,894.199,-386.679,-5390.0,-23555.0,-3517.5,0,0,0
98,2021/4/19 7:18:17,88.694,893.955,-384.117,-6133.75,-19551.875,-7726.25,0,0,0
99,2021/4/19 7:18:17,93.574,893.162,-385.276,3447.5,-17250.625,-12145.0,0,0,0
100,2021/4/19 7:18:17,-11.773,897.249,-380.335,-24040.625,127732.5,-31963.75,0,0,0
101,2021/4/19 7:18:17,120.414,56.547,-154.33,-56481.25,23673.125,-42958.125,0,0,0
102,2021/4/19 7:18:17,148.84,99.979,-197.091,-113575.0,29684.375,-70048.125,0,0,0
103,2021/4/19 7:18:17,154.818,188.49,-230.031,-129552.5,33101.25,-105131.25,0,0,0
104,2021/4/19 7:18:17,143.35,228.384,-232.837,-43570.625,9555.0,-71251.25,0,0,0
495,2021/4/19 7:23:27,403.149,365.512,-803.614,1203.125,-1872.5,-1452.5,0,0,0
496,2021/4/19 7:23:27,404.064,365.207,-803.736,288.75,-5862.5,-5411.875,0,0,0
497,2021/4/19 7:23:27,404.247,366.366,-803.187,1951.25,-2415.0,-931.875,0,0,0
498,2021/4/19 7:23:27,403.149,364.597,-803.553,1951.25,-4637.5,-6510.0,0,0,0
499,2021/4/19 7:23:27,403.698,365.268,-804.346,1299.375,-2970.625,-2156.875,0,0,0
500,2021/4/19 7:23:28,404.125,364.658,-804.224,918.75,-2248.75,-1575.0,0,0,0
501,2021/4/19 7:23:28,422.791,340.685,-805.505,564.375,-3880.625,-3425.625,0,0,0
502,2021/4/19 7:23:28,420.168,342.698,-804.834,783.125,-3115.0,-3911.25,0,0,0
503,2021/4/19 7:23:28,415.654,353.556,-803.309,7153.125,-4558.75,-2226.875,0,0,0
504,2021/4/19 7:23:28,411.689,337.513,-812.337,74.375,-4370.625,-6973.75,0,0,0
505,2021/4/19 7:23:28,411.445,338.55,-812.642,-472.5,-4528.125,-6641.25,0,0,0
506,2021/4/19 7:23:28,411.201,339.465,-812.215,748.125,-3880.625,-4401.25,0,0,0
806,2021/4/19 7:28:28,520.147,183.061,-801.845,1128.75,-3443.125,-3342.5,0,0,0
807,2021/4/19 7:28:28,520.086,183.061,-801.906,1093.75,-3578.75,-3438.75,0,0,0
808,2021/4/19 7:28:28,520.269,182.878,-801.845,1312.5,-3565.625,-3346.875,0,0,0
809,2021/4/19 7:28:28,520.269,182.634,-801.845,1150.625,-3561.25,-3447.5,0,0,0
810,2021/4/19 7:28:28,520.269,182.573,-801.662,1115.625,-3517.5,-3316.25,0,0,0
811,2021/4/19 7:28:28,520.269,182.512,-801.601,1168.125,-3307.5,-3316.25,0,0,0
812,2021/4/19 7:28:28,520.635,182.268,-801.357,1076.25,-3570.0,-3508.75,0,0,0
813,2021/4/19 7:28:28,520.696,181.963,-801.235,953.75,-3653.125,-3565.625,0,0,0
814,2021/4/19 7:28:28,520.757,181.536,-801.052,1058.75,-3552.5,-3482.5,0,0,0
905,2021/4/19 7:28:38,519.171,181.78,-801.479,1216.25,-3368.75,-3259.375,0,0,0
906,2021/4/19 7:28:38,519.415,181.658,-801.54,1198.75,-3386.25,-3473.75,0,0,0
