,Time,Accel X,Accel Y,Accel Z,Gyro X,Gyro Y,Gyro Z,書く,集中,楽しさ
69,2021/4/28 19:07:09,807.518,91.5,581.574,1623.125,-6361.25,-3399.375,0,0,0
70,2021/4/28 19:07:09,807.518,91.439,581.574,1631.875,-6286.875,-3482.5,0,0,0
71,2021/4/28 19:07:09,807.579,91.5,581.635,1658.125,-6479.375,-3360.0,0,0,0
72,2021/4/28 19:07:09,807.762,91.5,581.757,1618.75,-6094.375,-3364.375,0,0,0
73,2021/4/28 19:07:09,807.945,91.561,581.818,1579.375,-5490.625,-3491.25,0,0,0
74,2021/4/28 19:07:09,808.006,91.622,581.757,1548.75,-7555.625,-3469.375,0,0,0
75,2021/4/28 19:07:09,807.396,91.683,581.696,1701.875,-6615.0,-3666.25,0,0,0
76,2021/4/28 19:07:09,806.725,91.744,581.513,1662.5,-4694.375,-3539.375,0,0,0
77,2021/4/28 19:07:09,807.152,91.744,581.513,1645.0,-9253.125,-3364.375,0,0,0
168,2021/4/28 19:07:19,807.579,90.951,580.903,1627.5,-6190.625,-3416.875,1,0,0
169,2021/4/28 19:07:19,807.762,91.073,580.842,1658.125,-6671.875,-3438.75,1,0,0
469,2021/4/28 19:12:19,-648.491,343.857,412.848,31815.0,99150.625,-46515.0,1,0,0
470,2021/4/28 19:12:19,-644.282,297.985,399.55,29618.75,73010.0,-44786.875,1,0,0
471,2021/4/28 19:12:19,-685.884,222.589,400.282,6396.25,30550.625,4895.625,1,0,0
472,2021/4/28 19:12:19,-682.407,182.878,423.279,-12998.125,-15373.75,-15645.0,1,0,0
473,2021/4/28 19:12:19,-645.99,116.937,421.937,-16826.25,-120019.375,105704.375,1,0,0
474,2021/4/28 19:12:19,-672.83,123.281,445.971,131407.5,-91704.375,143014.375,1,0,0
475,2021/4/28 19:12:19,-602.863,147.01,400.465,142358.125,-143342.5,45023.125,1,0,0
476,2021/4/28 19:12:19,-458.903,184.891,354.593,48453.125,71675.625,35249.375,1,0,0
477,2021/4/28 19:12:19,-368.928,244.61,362.706,22141.875,143342.5,-83448.75,1,0,0
568,2021/4/28 19:12:29,-80.398,748.226,621.285,29540.0,8080.625,-4716.25,1,0,0
569,2021/4/28 19:12:29,-98.698,742.187,627.507,41269.375,6006.875,-350.0,1,0,0
869,2021/4/28 19:17:29,129.015,597.19,785.68,-2686.25,-1570.625,1010.625,1,0,0
870,2021/4/28 19:17:29,137.921,597.617,791.841,-4165.0,16931.25,-12608.75,1,0,0
871,2021/4/28 19:17:29,147.376,585.661,799.039,11576.25,120067.5,12665.625,1,0,0
872,2021/4/28 19:17:29,83.57,583.282,772.748,72975.0,143342.5,-19853.75,1,0,0
873,2021/4/28 19:17:29,6.466,594.872,752.191,75866.875,-71680.0,63105.0,1,0,0
874,2021/4/28 19:17:29,-22.265,604.083,731.329,27855.625,-129141.25,41015.625,1,0,0
875,2021/4/28 19:17:29,-39.589,623.237,717.482,5438.125,-2896.25,-6107.5,1,0,0
876,2021/4/28 19:17:29,-46.726,633.546,711.443,529.375,-109.375,-4939.375,1,0,0
877,2021/4/28 19:17:29,-53.802,641.842,706.502,-1645.0,-2485.0,-8496.25,1,0,0
968,2021/4/28 19:17:39,-193.37,791.719,581.208,-105.0,-4143.125,-3145.625,1,0,0
969,2021/4/28 19:17:39,-193.004,795.196,579.439,-4585.0,345.625,-1268.75,1,0,0
1269,2021/4/28 19:22:39,-628.361,528.382,503.555,2738.75,-4926.25,-2931.25,1,1,0
1270,2021/4/28 19:22:39,-631.472,523.99,509.106,3272.5,-6733.125,-3561.25,1,1,0
1271,2021/4/28 19:22:39,-634.4,519.293,514.474,3513.125,-8277.5,-3797.5,1,1,0
1272,2021/4/28 19:22:39,-637.389,511.973,524.417,6903.75,-7056.875,-4808.125,1,1,0
1273,2021/4/28 19:22:39,-639.524,509.716,528.321,3163.125,-1470.0,-2025.625,1,1,0
1274,2021/4/28 19:22:39,-642.025,507.825,530.883,3543.75,-3460.625,-3902.5,1,1,0
1275,2021/4/28 19:22:39,-644.16,505.629,534.055,3688.125,-4458.125,-4781.875,1,1,0
1276,2021/4/28 19:22:39,-647.881,501.481,538.996,4151.875,-5219.375,-3788.75,1,1,0
1277,2021/4/28 19:22:39,-649.162,499.956,541.68,9100.0,-3745.0,-5670.0,1,1,0
1358,2021/4/28 19:22:48,-578.829,634.522,441.274,2025.625,-9953.125,-2301.25,1,1,0
1359,2021/4/28 19:22:48,-577.243,644.892,429.44,3045.0,-10416.875,-2231.25,1,1,0
1360,2021/4/28 19:22:48,-573.522,664.29,409.859,-1141.875,-8386.875,-1750.0,1,1,0
1361,2021/4/28 19:22:48,-571.326,673.806,400.892,-1518.125,-2996.875,-4357.5,1,1,0
1362,2021/4/28 19:22:48,-569.13,682.529,392.535,1614.375,-3408.125,-5543.125,1,1,0
1363,2021/4/28 19:22:49,-562.542,736.148,334.707,4431.875,-8360.625,2362.5,1,1,0
1364,2021/4/28 19:22:49,-537.654,673.44,-47.336,-3062.5,-25904.375,-10955.0,1,1,0
1365,2021/4/28 19:22:49,-597.007,550.342,240.035,14866.25,-1938.125,-1001.875,1,1,0
1366,2021/4/28 19:22:49,-631.106,489.769,289.628,-58703.75,-83006.875,84218.75,1,1,0
1367,2021/4/28 19:22:49,-607.194,643.611,243.939,8920.625,-7966.875,10688.125,1,1,0
1368,2021/4/28 19:22:49,-567.727,629.764,384.239,9708.125,4261.25,-3486.875,1,1,0
1369,2021/4/28 19:22:49,-628.361,528.382,503.555,2738.75,-4926.25,-2931.25,1,1,0
1669,2021/4/28 19:27:49,-354.105,466.955,760.426,2148.125,-6186.25,-3780.0,1,1,0
1670,2021/4/28 19:27:49,-360.937,468.236,763.415,2362.5,-4685.625,-3233.125,1,1,0
1671,2021/4/28 19:27:49,-364.231,468.724,764.879,2030.0,-6050.625,-4020.625,1,1,0
1672,2021/4/28 19:27:49,-366.854,469.151,766.587,1741.25,-8890.0,-4917.5,1,1,0
1673,2021/4/28 19:27:49,-370.697,469.883,768.844,2795.625,-9725.625,-3915.625,1,1,0
1674,2021/4/28 19:27:49,-371.856,470.31,770.491,1465.625,-9791.25,-4278.75,1,1,0
1675,2021/4/28 19:27:49,-372.954,470.127,772.443,2498.125,-8973.125,-3994.375,1,1,0
1676,2021/4/28 19:27:49,-374.174,469.944,774.395,2804.375,-10136.875,-4536.875,1,1,0
1677,2021/4/28 19:27:49,-374.662,470.554,777.75,1605.625,-10320.625,-4331.25,1,1,0
1768,2021/4/28 19:27:59,-343.064,862.662,448.96,5210.625,9555.0,-402.5,1,1,0
1769,2021/4/28 19:27:59,-346.968,860.771,448.655,-1356.25,-5998.125,-695.625,1,1,0
