,Time,Accel X,Accel Y,Accel Z,Gyro X,Gyro Y,Gyro Z,書く,集中,楽しさ
0,2021/7/25 17:54:03,72.224,100.162,77.409,2983.75,-1776.25,-5311.25,0,0,0
1,2021/7/25 17:54:03,100.406,128.71,113.033,7822.5,-8820.0,-3710.0,0,0,0
2,2021/7/25 17:54:03,171.41,183.244,192.089,28354.375,-33446.875,-11064.375,0,0,0
3,2021/7/25 17:54:03,226.066,211.731,230.153,-16651.25,4869.375,-82871.25,0,0,0
4,2021/7/25 17:54:03,242.78,235.582,260.897,18108.125,-12665.625,-12604.375,0,0,0
95,2021/7/25 17:54:13,-342.088,624.335,393.816,56.875,-16187.5,4720.625,0,0,0
96,2021/7/25 17:54:13,-362.096,654.896,358.802,29404.375,-21297.5,14542.5,0,0,0
97,2021/7/25 17:54:13,-376.309,665.327,341.173,3661.875,-6466.25,4340.0,0,0,0
98,2021/7/25 17:54:13,-390.461,682.346,318.054,-6549.375,-5582.5,8168.125,0,0,0
99,2021/7/25 17:54:13,-445.117,745.481,234.728,1911.875,-9235.625,-2187.5,0,0,0
100,2021/7/25 17:54:13,72.224,100.162,77.409,2983.75,-1776.25,-5311.25,0,0,0
101,2021/7/25 17:54:13,100.406,128.71,113.033,7822.5,-8820.0,-3710.0,0,0,0
102,2021/7/25 17:54:13,171.41,183.244,192.089,28354.375,-33446.875,-11064.375,0,0,0
103,2021/7/25 17:54:13,226.066,211.731,230.153,-16651.25,4869.375,-82871.25,0,0,0
