,Time,Accel X,Accel Y,Accel Z,Gyro X,Gyro Y,Gyro Z,書く,集中,楽しさ
0,2021/4/19 21:47:18,-15.433,68.442,75.518,-1995.0,1951.25,1964.375,0,0,0
1,2021/4/19 21:47:18,-18.666,111.203,103.883,81943.75,12888.75,-5219.375,0,0,0
2,2021/4/19 21:47:18,-25.62,157.807,120.536,75166.875,26118.75,-4151.875,0,0,0
3,2021/4/19 21:47:18,-50.203,255.468,138.165,-3408.125,-910.0,-6580.0,0,0,0
4,2021/4/19 21:47:18,-62.525,299.815,141.337,-16975.0,-44891.875,2568.125,0,0,0
5,2021/4/19 21:47:18,-71.431,343.857,149.511,-31692.5,-3167.5,14660.625,0,0,0
6,2021/4/19 21:47:18,-74.054,383.08,163.602,-21078.75,-6164.375,35091.875,0,0,0
97,2021/4/19 21:47:28,124.623,407.175,279.624,15741.25,5009.375,-16331.875,0,0,0
98,2021/4/19 21:47:28,188.734,357.277,336.232,1159.375,-3259.375,-3220.0,0,0,0
99,2021/4/19 21:47:28,216.489,335.744,364.353,1369.375,-22194.375,-2371.25,0,0,0
100,2021/4/19 21:47:28,353.129,218.258,523.563,1557.5,-5936.875,-3526.25,0,0,0
101,2021/4/19 21:47:28,-18.666,111.203,103.883,81943.75,12888.75,-5219.375,0,0,0
102,2021/4/19 21:47:28,-25.62,157.807,120.536,75166.875,26118.75,-4151.875,0,0,0
103,2021/4/19 21:47:28,-50.203,255.468,138.165,-3408.125,-910.0,-6580.0,0,0,0
104,2021/4/19 21:47:28,-62.525,299.815,141.337,-16975.0,-44891.875,2568.125,0,0,0
404,2021/4/19 21:52:28,-836.432,77.531,551.623,1566.25,-6501.25,-3578.75,0,0,0
405,2021/4/19 21:52:28,-836.371,77.531,551.684,1526.875,-6505.625,-3508.75,0,0,0
406,2021/4/19 21:52:28,-836.188,77.47,551.745,1640.625,-6335.0,-3500.0,0,0,0
