,Time,Accel X,Accel Y,Accel Z,Gyro X,Gyro Y,Gyro Z,書く,集中,楽しさ
183,2021/4/19 10:49:04,-114.924,-795.257,-409.432,89582.5,53904.375,35078.75,0,0,0
184,2021/4/19 10:49:04,-145.729,-798.551,-402.661,98476.875,39523.75,104549.375,0,0,0
185,2021/4/19 10:49:04,-160.247,-792.817,-402.417,129377.5,12963.125,134964.375,0,0,0
186,2021/4/19 10:49:04,-155.855,-787.571,-388.448,71636.25,39733.75,81834.375,0,0,0
187,2021/4/19 10:49:04,-148.779,-800.564,-383.08,26740.0,24570.0,65664.375,0,0,0
188,2021/4/19 10:49:04,-154.696,-835.029,-370.27,2611.875,-30668.75,-3688.125,0,0,0
189,2021/4/19 10:49:04,-167.506,-861.991,-375.638,-91735.0,26853.75,-113448.125,0,0,0
190,2021/4/19 10:49:04,-246.623,-896.883,-356.728,-124963.125,-37200.625,-124775.0,0,0,0
271,2021/4/19 10:49:13,-209.962,-909.449,-424.377,99435.0,28389.375,103298.125,0,0,0
272,2021/4/19 10:49:13,-214.72,-903.227,-416.325,43789.375,51301.25,29728.125,0,0,0
273,2021/4/19 10:49:13,-235.582,-935.069,-378.932,-555.625,-34615.0,-55435.625,0,0,0
274,2021/4/19 10:49:13,-254.98,-954.345,-380.884,-108605.0,96617.5,-85872.5,0,0,0
275,2021/4/19 10:49:13,-245.952,-970.571,-405.101,-142891.875,-48877.5,-129451.875,0,0,0
276,2021/4/19 10:49:13,-220.515,-965.081,-411.628,-129556.875,-40140.625,-99513.75,0,0,0
277,2021/4/19 10:49:14,-236.558,-876.692,-428.22,42678.125,32073.125,69903.75,0,0,0
278,2021/4/19 10:49:14,-155.184,-812.337,-369.172,54000.625,31255.0,88025.0,0,0,0
279,2021/4/19 10:49:14,-247.66,-885.842,-361.974,55374.375,1067.5,52749.375,0,0,0
280,2021/4/19 10:49:14,-196.115,-884.195,-372.344,124643.75,23191.875,140529.375,0,0,0
281,2021/4/19 10:49:14,-178.242,-885.232,-400.526,115093.125,10215.625,124486.25,0,0,0
282,2021/4/19 10:49:14,-141.154,-837.469,-419.985,36089.375,-45731.875,60121.25,0,0,0
283,2021/4/19 10:49:14,-114.924,-795.257,-409.432,89582.5,53904.375,35078.75,0,0,0
583,2021/4/19 10:54:14,13.42,-858.697,-236.497,35498.75,-44476.25,74904.375,0,0,0
584,2021/4/19 10:54:14,-6.771,-820.572,-249.246,-87451.875,-59565.625,-70752.5,0,0,0
585,2021/4/19 10:54:14,-42.151,-820.206,-284.626,-136631.25,-26079.375,-137956.875,0,0,0
586,2021/4/19 10:54:14,-51.179,-875.045,-317.2,-143342.5,-87740.625,-143342.5,0,0,0
587,2021/4/19 10:54:14,-61.427,-780.678,-303.963,87994.375,71675.625,96757.5,0,0,0
588,2021/4/19 10:54:14,-93.574,-769.088,-294.081,89880.0,65598.75,140367.5,0,0,0
589,2021/4/19 10:54:14,-125.782,-789.218,-269.803,125527.5,117433.75,142358.125,0,0,0
590,2021/4/19 10:54:14,-174.277,-774.761,-295.911,8347.5,62912.5,-22041.25,0,0,0
671,2021/4/19 10:54:23,-206.485,-911.95,-300.425,-32169.375,-63586.25,-41291.25,0,0,0
672,2021/4/19 10:54:23,-188.002,-899.018,-312.442,106010.625,-18711.875,57163.75,0,0,0
673,2021/4/19 10:54:23,-143.838,-895.419,-352.153,-10539.375,-103639.375,-86069.375,0,0,0
674,2021/4/19 10:54:23,-132.98,-896.395,-351.604,88073.125,32711.875,114161.25,0,0,0
675,2021/4/19 10:54:23,-127.612,-895.48,-356.667,85255.625,-26398.75,74305.0,0,0,0
676,2021/4/19 10:54:23,-118.706,-873.093,-355.996,77923.125,38609.375,26477.5,0,0,0
677,2021/4/19 10:54:24,-139.873,-907.436,-310.185,97050.625,8881.25,37073.75,0,0,0
678,2021/4/19 10:54:24,-266.143,-854.0,-437.675,-113741.25,143342.5,-124958.75,0,0,0
679,2021/4/19 10:54:24,-355.508,-818.132,-372.527,78575.0,2651.25,93240.0,0,0,0
680,2021/4/19 10:54:24,-242.109,-844.301,-501.237,-127203.125,-49459.375,-142327.5,0,0,0
681,2021/4/19 10:54:24,-286.639,-801.052,-344.528,95865.0,-26831.875,116405.625,0,0,0
682,2021/4/19 10:54:24,-336.11,-954.772,-316.529,-97868.75,-41702.5,-62365.625,0,0,0
683,2021/4/19 10:54:24,13.42,-858.697,-236.497,35498.75,-44476.25,74904.375,0,0,0
