,Time,Accel X,Accel Y,Accel Z,Gyro X,Gyro Y,Gyro Z,書く,集中,楽しさ
0,2021/7/24 21:51:13,7.015,71.004,104.92,-2113.125,4943.75,2121.875,0,0,0
1,2021/7/24 21:51:13,-5.978,126.514,130.723,101591.875,107515.625,-19810.0,0,0,0
2,2021/7/24 21:51:13,-30.073,176.9,136.518,67681.25,35157.5,8338.75,0,0,0
93,2021/7/24 21:51:23,-515.45,233.691,-390.949,71675.625,82836.25,125142.5,0,0,0
94,2021/7/24 21:51:23,-460.489,203.13,-411.994,143342.5,93248.75,120391.25,0,0,0
95,2021/7/24 21:51:23,-470.92,204.045,-488.549,-71680.0,-88383.75,-50408.75,0,0,0
96,2021/7/24 21:51:23,-503.067,227.652,-504.836,-143342.5,-143342.5,24968.125,0,0,0
97,2021/7/24 21:51:23,-577.182,323.056,-480.68,93537.5,-14385.0,-143342.5,0,0,0
98,2021/7/24 21:51:23,-582.794,312.625,-423.889,82643.75,108941.875,-143342.5,0,0,0
99,2021/7/24 21:51:23,-553.392,279.929,-404.247,128651.25,143342.5,-143342.5,0,0,0
100,2021/7/24 21:51:24,-129.259,28.365,-742.37,-143342.5,-143342.5,54652.5,0,0,0
101,2021/7/24 21:51:24,-5.978,126.514,130.723,101591.875,107515.625,-19810.0,0,0,0
102,2021/7/24 21:51:24,-30.073,176.9,136.518,67681.25,35157.5,8338.75,0,0,0
103,2021/7/24 21:51:24,-77.104,257.054,133.346,12512.5,1828.75,-4440.625,0,0,0
104,2021/7/24 21:51:24,-89.182,296.399,133.224,24311.875,-9800.0,15334.375,0,0,0
404,2021/7/24 21:56:24,-923.662,15.25,204.289,8736.875,-9830.625,-4068.75,0,0,0
405,2021/7/24 21:56:24,-923.601,15.128,204.411,8732.5,-9817.5,-4038.125,0,0,0
406,2021/7/24 21:56:24,-923.54,15.128,204.594,8741.25,-9905.0,-4103.75,0,0,0
407,2021/7/24 21:56:24,-923.418,15.25,204.533,8570.625,-9681.875,-4103.75,0,0,0
408,2021/7/24 21:56:24,-923.357,15.372,204.533,8719.375,-9721.25,-4068.75,0,0,0
409,2021/7/24 21:56:24,-923.54,15.433,204.472,8671.25,-9795.625,-4160.625,0,0,0
410,2021/7/24 21:56:24,-923.784,15.433,204.35,8566.25,-9563.75,-4134.375,0,0,0
411,2021/7/24 21:56:24,-923.967,15.433,204.35,8531.25,-9686.25,-4103.75,0,0,0
492,2021/7/24 21:56:33,-924.516,14.823,206.302,8636.25,-9765.0,-4151.875,0,0,0
493,2021/7/24 21:56:33,-924.455,14.762,206.18,8846.25,-9721.25,-4138.75,0,0,0
494,2021/7/24 21:56:33,-924.455,14.762,206.119,8719.375,-9935.625,-4038.125,0,0,0
495,2021/7/24 21:56:33,-924.272,14.762,206.18,8688.75,-9957.5,-4095.0,0,0,0
496,2021/7/24 21:56:33,-924.089,14.701,206.241,8614.375,-9918.125,-4011.875,0,0,0
497,2021/7/24 21:56:33,-924.028,14.64,206.241,8693.125,-9905.0,-4099.375,0,0,0
498,2021/7/24 21:56:33,-923.723,14.701,206.363,8601.25,-9813.125,-4112.5,0,0,0
499,2021/7/24 21:56:33,-923.601,14.701,206.485,8623.125,-9760.625,-3968.125,0,0,0
500,2021/7/24 21:56:34,-922.015,14.579,206.485,8671.25,-9660.0,-4081.875,0,0,0
501,2021/7/24 21:56:34,-912.682,18.117,199.104,8802.5,-9887.5,-4064.375,0,0,0
502,2021/7/24 21:56:34,-918.599,16.165,203.008,8662.5,-9730.0,-4151.875,0,0,0
503,2021/7/24 21:56:34,-923.601,15.982,203.496,8719.375,-9852.5,-3985.625,0,0,0
504,2021/7/24 21:56:34,-923.662,15.25,204.289,8736.875,-9830.625,-4068.75,0,0,0
505,2021/7/24 21:56:34,-923.601,15.128,204.411,8732.5,-9817.5,-4038.125,0,0,0
506,2021/7/24 21:56:34,-923.54,15.128,204.594,8741.25,-9905.0,-4103.75,0,0,0
806,2021/7/24 22:01:34,-923.601,15.738,207.827,8111.25,-9428.125,-3491.25,0,0,0
807,2021/7/24 22:01:34,-923.601,15.799,207.827,8076.25,-9301.25,-3456.25,0,0,0
808,2021/7/24 22:01:34,-923.601,15.738,207.827,8093.75,-9454.375,-3548.125,0,0,0
809,2021/7/24 22:01:34,-923.54,15.677,208.01,8023.75,-9419.375,-3482.5,0,0,0
810,2021/7/24 22:01:34,-923.296,15.616,208.254,8216.25,-9454.375,-3513.125,0,0,0
811,2021/7/24 22:01:34,-923.296,15.494,208.376,8360.625,-9467.5,-3513.125,0,0,0
892,2021/7/24 22:01:43,-921.283,16.287,209.718,8260.0,-9292.5,-3491.25,0,0,0
893,2021/7/24 22:01:43,-921.161,16.409,209.596,8155.0,-9292.5,-3438.75,0,0,0
894,2021/7/24 22:01:43,-921.222,16.47,209.474,8133.125,-9358.125,-3556.875,0,0,0
895,2021/7/24 22:01:43,-921.1,16.47,209.535,8141.875,-9428.125,-3478.125,0,0,0
896,2021/7/24 22:01:43,-920.978,16.531,209.413,8168.125,-9406.25,-3495.625,0,0,0
897,2021/7/24 22:01:43,-921.222,16.592,209.23,8080.625,-9288.125,-3443.125,0,0,0
898,2021/7/24 22:01:43,-921.405,16.47,208.986,8093.75,-9310.0,-3478.125,0,0,0
899,2021/7/24 22:01:43,-921.527,16.348,208.803,8220.625,-9511.25,-3570.0,0,0,0
900,2021/7/24 22:01:44,-922.015,16.226,208.559,8185.625,-9401.875,-3338.125,0,0,0
901,2021/7/24 22:01:44,-922.015,15.921,208.62,8141.875,-9327.5,-3491.25,0,0,0
902,2021/7/24 22:01:44,-921.893,15.616,208.376,8168.125,-9590.0,-3491.25,0,0,0
1003,2021/7/24 22:05:48,-921.832,16.47,206.851,8120.0,-9485.0,-3710.0,0,0,0
1004,2021/7/24 22:05:48,-162.565,2.684,36.539,6133.75,-7153.125,-2673.125,0,0,0
1005,2021/7/24 22:05:48,-209.901,3.416,47.336,8168.125,-9603.125,-3758.125,0,0,0
1006,2021/7/24 22:05:48,-296.216,4.819,66.673,8220.625,-9568.125,-3539.375,0,0,0
1007,2021/7/24 22:05:48,-335.195,5.49,75.579,8386.875,-9476.25,-3609.375,0,0,0
1307,2021/7/24 22:10:48,-921.527,16.287,208.437,7765.625,-9283.75,-3281.25,0,0,0
1308,2021/7/24 22:10:48,-921.527,16.287,208.437,7945.0,-9292.5,-3338.125,0,0,0
1309,2021/7/24 22:10:48,-921.466,16.348,208.498,8111.25,-9419.375,-3263.75,0,0,0
1310,2021/7/24 22:10:48,-921.527,16.409,208.498,7980.0,-9187.5,-3285.625,0,0,0
1311,2021/7/24 22:10:48,-921.527,16.348,208.437,8111.25,-9126.25,-3255.0,0,0,0
1312,2021/7/24 22:10:48,-921.527,16.165,208.437,8111.25,-9130.625,-3259.375,0,0,0
1383,2021/7/24 22:10:56,-921.161,16.348,207.949,8089.375,-9401.875,-3469.375,0,0,0
1384,2021/7/24 22:10:56,-921.1,16.409,208.071,7953.75,-9423.75,-3478.125,0,0,0
1385,2021/7/24 22:10:56,-921.039,16.409,208.193,7997.5,-9423.75,-3386.25,0,0,0
1386,2021/7/24 22:10:56,-921.039,16.226,208.132,7936.25,-9371.25,-3364.375,0,0,0
1487,2021/7/24 22:39:02,570.96,-38.247,816.912,9003.75,-9874.375,-4768.75,0,0,0
1488,2021/7/24 22:39:02,-170.739,-10.004,19.764,6518.75,-10145.625,-1500.625,0,0,0
1489,2021/7/24 22:39:02,-212.158,-14.152,32.086,6790.0,7695.625,-4567.5,0,0,0
1490,2021/7/24 22:39:02,-288.652,-14.701,54.839,9226.875,-8946.875,-4987.5,0,0,0
1491,2021/7/24 22:39:02,-329.644,-12.078,63.562,8951.25,-8435.0,-4716.25,0,0,0
1791,2021/7/24 22:44:02,574.681,-37.881,818.376,8933.75,-9778.125,-4698.75,0,0,0
1792,2021/7/24 22:44:02,574.681,-37.881,818.498,8806.875,-9721.25,-4812.5,0,0,0
1793,2021/7/24 22:44:02,574.62,-38.003,818.559,8942.5,-9830.625,-4768.75,0,0,0
1794,2021/7/24 22:44:02,574.437,-38.064,818.437,8964.375,-9721.25,-4860.625,0,0,0
1795,2021/7/24 22:44:02,574.376,-38.003,818.315,8933.75,-9813.125,-4816.875,0,0,0
1796,2021/7/24 22:44:02,574.315,-38.003,818.376,8942.5,-9598.75,-4576.25,0,0,0
1887,2021/7/24 22:44:12,575.047,-38.247,817.827,9047.5,-9786.875,-4663.75,0,0,0
1888,2021/7/24 22:44:12,574.681,-38.003,817.827,8986.25,-9979.375,-4825.625,0,0,0
1889,2021/7/24 22:44:12,574.254,-37.393,818.01,8999.375,-9791.25,-4663.75,0,0,0
1890,2021/7/24 22:44:12,574.62,-37.881,818.193,8990.625,-9848.125,-4786.25,0,0,0
1891,2021/7/24 22:44:12,574.681,-37.881,818.376,8933.75,-9778.125,-4698.75,0,0,0
1892,2021/7/24 22:44:12,574.681,-37.881,818.498,8806.875,-9721.25,-4812.5,0,0,0
1893,2021/7/24 22:44:12,574.62,-38.003,818.559,8942.5,-9830.625,-4768.75,0,0,0
1894,2021/7/24 22:55:14,69.845,-4.392,98.637,-2196.25,5031.25,1995.0,0,0,0
1895,2021/7/24 22:55:14,100.772,-6.527,143.716,6711.25,-7118.125,-3832.5,0,0,0
1896,2021/7/24 22:55:14,129.991,-8.601,185.867,8951.25,-9537.5,-5075.0,0,0,0
1897,2021/7/24 22:55:14,183.244,-12.383,262.666,9003.75,-9664.375,-5092.5,0,0,0
1898,2021/7/24 22:55:14,207.522,-13.969,297.314,8828.75,-9629.375,-5092.5,0,0,0
1899,2021/7/24 22:55:14,230.031,-15.555,329.888,8750.0,-9646.875,-5061.875,0,0,0
1900,2021/7/24 22:55:14,271.084,-18.422,389.546,8824.375,-9988.125,-5145.0,0,0,0
1901,2021/7/24 22:55:14,289.506,-19.825,416.386,8885.625,-9690.625,-5206.25,0,0,0
1902,2021/7/24 22:55:14,306.952,-21.106,441.579,8946.875,-9607.5,-5066.25,0,0,0
1993,2021/7/24 22:55:24,572.729,-38.857,817.156,8890.0,-9681.875,-5009.375,0,0,0
1994,2021/7/24 22:55:24,572.485,-39.04,816.973,8907.5,-9620.625,-4917.5,0,0,0
1995,2021/7/24 22:55:24,100.772,-6.527,143.716,6711.25,-7118.125,-3832.5,0,0,0
1996,2021/7/24 22:55:24,129.991,-8.601,185.867,8951.25,-9537.5,-5075.0,0,0,0
1997,2021/7/24 22:55:24,183.244,-12.383,262.666,9003.75,-9664.375,-5092.5,0,0,0
1998,2021/7/24 22:55:24,207.522,-13.969,297.314,8828.75,-9629.375,-5092.5,0,0,0
