,Time,Accel X,Accel Y,Accel Z,Gyro X,Gyro Y,Gyro Z,書く,集中,楽しさ
0,2021/7/26 11:32:51,-99.674,-41.724,-51.179,-2139.375,4970.0,2082.5,0,0,0
1,2021/7/26 11:32:51,-141.154,-72.895,-83.753,4781.875,34238.75,-35844.375,0,0,0
92,2021/7/26 11:33:01,793.0,276.391,492.636,-10648.75,-64233.75,1671.25,0,0,0
93,2021/7/26 11:33:01,799.71,276.757,489.525,-1041.25,-23555.0,-2174.375,0,0,0
94,2021/7/26 11:33:01,809.775,308.843,494.466,-91603.75,9174.375,18790.625,0,0,0
95,2021/7/26 11:33:01,821.182,302.438,491.66,-110372.5,-26670.0,-2034.375,0,0,0
96,2021/7/26 11:33:01,826.123,281.942,484.34,-91363.125,-6391.875,-45001.25,0,0,0
97,2021/7/26 11:33:01,823.195,241.987,468.724,-86397.5,60060.0,-42087.5,0,0,0
98,2021/7/26 11:33:01,823.805,222.528,470.554,-15898.75,7857.5,-5394.375,0,0,0
99,2021/7/26 11:33:01,825.818,210.633,478.057,26530.0,15470.0,-4585.0,0,0,0
100,2021/7/26 11:33:02,835.7,175.497,508.374,19788.125,16642.5,-11331.25,0,0,0
101,2021/7/26 11:33:02,-141.154,-72.895,-83.753,4781.875,34238.75,-35844.375,0,0,0
102,2021/7/26 11:33:02,-169.458,-103.639,-116.754,9178.75,30143.75,-28595.0,0,0,0
103,2021/7/26 11:33:02,-206.119,-152.561,-183.122,6383.125,-5315.625,-5884.375,0,0,0
104,2021/7/26 11:33:02,-223.87,-177.205,-212.524,11278.75,-15798.125,8163.75,0,0,0
404,2021/7/26 11:38:02,-514.535,731.085,155.977,-7669.375,-83663.125,-74510.625,1,1,0
405,2021/7/26 11:38:02,-537.105,695.339,178.364,-14236.25,-124245.625,6803.125,1,1,0
406,2021/7/26 11:38:02,-554.856,662.948,210.084,35818.125,-143342.5,98341.25,1,1,0
407,2021/7/26 11:38:02,-402.478,614.941,173.911,4068.75,51826.25,-21743.75,1,1,0
408,2021/7/26 11:38:02,-323.605,609.512,159.881,-42752.5,136736.25,-49914.375,1,1,0
409,2021/7/26 11:38:02,-272.487,599.02,197.152,-42892.5,102886.875,-60768.75,1,1,0
410,2021/7/26 11:38:02,-222.772,584.38,231.19,-29824.375,85115.625,-48426.875,1,1,0
411,2021/7/26 11:38:02,-177.571,571.997,314.882,43601.25,-85470.0,8382.5,1,1,0
492,2021/7/26 11:38:11,566.751,662.094,521.245,10040.625,-12836.25,-2043.125,1,1,0
493,2021/7/26 11:38:11,567.056,662.155,521.245,10386.25,-12385.625,-2966.25,1,1,0
494,2021/7/26 11:38:11,567.3,662.948,520.513,9590.0,-12967.5,-3583.125,1,1,0
495,2021/7/26 11:38:11,567.239,663.131,520.635,9870.0,-13304.375,-3010.0,1,1,0
496,2021/7/26 11:38:11,567.605,663.436,520.208,11318.125,-13348.125,-4646.25,1,1,0
497,2021/7/26 11:38:11,567.788,663.802,519.232,9625.0,-13877.5,-4873.75,1,1,0
498,2021/7/26 11:38:11,568.093,664.168,518.5,10701.25,-12372.5,-4086.25,1,1,0
499,2021/7/26 11:38:11,568.154,664.534,517.89,10841.25,-12206.25,-4068.75,1,1,0
500,2021/7/26 11:38:12,569.13,667.401,515.511,10530.625,-13326.25,-3981.25,1,1,0
501,2021/7/26 11:38:12,-604.876,660.935,204.167,57172.5,-136876.25,7498.75,1,1,0
502,2021/7/26 11:38:12,-416.874,526.735,271.572,12061.875,143342.5,-59014.375,1,1,0
503,2021/7/26 11:38:12,-486.78,665.937,200.08,-21153.125,33446.875,-30331.875,1,1,0
504,2021/7/26 11:38:12,-514.535,731.085,155.977,-7669.375,-83663.125,-74510.625,1,1,0
505,2021/7/26 11:38:12,-537.105,695.339,178.364,-14236.25,-124245.625,6803.125,1,1,0
506,2021/7/26 11:38:12,-554.856,662.948,210.084,35818.125,-143342.5,98341.25,1,1,0
806,2021/7/26 11:43:12,520.452,711.443,505.629,10889.375,-10338.125,-4738.125,1,1,0
807,2021/7/26 11:43:12,519.842,712.114,505.446,8977.5,-11602.5,-5936.875,1,1,0
808,2021/7/26 11:43:12,518.927,713.212,505.263,10836.875,-9590.0,-7870.625,1,1,0
809,2021/7/26 11:43:12,518.439,714.005,505.141,11064.375,-11991.875,-2953.125,1,1,0
810,2021/7/26 11:43:12,518.561,713.944,505.263,9113.125,-14433.125,-669.375,1,1,0
891,2021/7/26 11:43:21,527.528,708.393,502.091,10115.0,-10981.25,-3421.25,1,1,0
892,2021/7/26 11:43:21,527.955,707.966,502.213,10963.75,-12223.75,-2830.625,1,1,0
893,2021/7/26 11:43:21,528.382,707.844,502.091,10290.0,-11208.75,-4453.75,1,1,0
894,2021/7/26 11:43:21,527.589,708.515,502.457,10316.25,-12171.25,-4265.625,1,1,0
895,2021/7/26 11:43:21,528.626,708.088,502.274,10521.875,-11655.0,-4003.125,1,1,0
896,2021/7/26 11:43:21,528.687,708.149,502.335,8938.125,-12788.125,-2922.5,1,1,0
897,2021/7/26 11:43:21,527.955,708.149,503.189,11191.25,-11396.875,-4165.0,1,1,0
898,2021/7/26 11:43:21,527.162,708.881,502.945,8758.75,-10141.25,-5473.125,1,1,0
899,2021/7/26 11:43:21,526.735,709.064,503.494,7428.75,-12464.375,-3263.75,1,1,0
900,2021/7/26 11:43:22,525.454,708.759,505.751,12967.5,-8977.5,-6028.75,1,1,0
901,2021/7/26 11:43:22,537.227,700.158,500.688,9865.625,-10368.75,-6050.625,1,1,0
902,2021/7/26 11:43:22,525.759,706.441,505.08,9060.625,-11983.125,-3040.625,1,1,0
903,2021/7/26 11:43:22,524.539,709.979,504.592,5315.625,-14660.625,-2458.75,1,1,0
904,2021/7/26 11:43:22,524.661,709.735,505.324,7927.5,-13973.75,-1308.125,1,1,0
905,2021/7/26 11:43:22,525.21,708.698,505.812,10920.0,-12385.625,-3215.625,1,1,0
906,2021/7/26 11:43:22,524.905,709.369,504.958,8461.25,-12652.5,-2458.75,1,1,0
1206,2021/7/26 11:48:22,67.71,408.029,809.409,6816.25,-25659.375,-14205.625,1,1,0
1207,2021/7/26 11:48:22,64.782,400.038,820.267,18230.625,7756.875,-6146.875,1,1,0
1208,2021/7/26 11:48:22,53.07,389.424,837.957,18921.875,-2428.125,7428.75,1,1,0
1209,2021/7/26 11:48:22,49.288,383.446,847.778,17342.5,-12919.375,8106.875,1,1,0
1210,2021/7/26 11:48:22,42.517,374.113,854.488,25655.0,-17189.375,4235.0,1,1,0
1291,2021/7/26 11:48:31,297.375,748.897,493.002,-8115.625,21892.5,-15373.75,1,1,0
1292,2021/7/26 11:48:31,277.001,771.589,481.107,50456.875,-40245.625,-43938.125,1,1,0
1293,2021/7/26 11:48:31,278.16,777.933,483.974,31325.0,-64535.625,-30848.125,1,1,0
1294,2021/7/26 11:48:31,296.338,779.763,483.73,-5521.25,-17696.875,-1089.375,1,1,0
1295,2021/7/26 11:48:31,289.201,789.584,472.079,-19613.125,-20794.375,-3416.875,1,1,0
1296,2021/7/26 11:48:31,275.415,800.747,465.125,21621.25,-3517.5,-5818.75,1,1,0
1297,2021/7/26 11:48:31,266.143,813.008,456.402,17416.875,4388.125,19236.875,1,1,0
1298,2021/7/26 11:48:31,266.997,818.803,448.167,-23581.25,-6199.375,4515.0,1,1,0
1299,2021/7/26 11:48:31,263.52,825.94,442.677,20234.375,2918.125,-33490.625,1,1,0
1300,2021/7/26 11:48:32,280.783,833.565,436.943,-54582.5,39681.25,-37380.0,1,1,0
1301,2021/7/26 11:48:32,541.924,189.832,804.956,1478.75,-21918.75,16143.75,1,1,0
1302,2021/7/26 11:48:32,200.568,176.778,808.006,4003.125,-120207.5,12053.125,1,1,0
1303,2021/7/26 11:48:32,283.284,829.6,449.997,-22098.125,63175.0,2279.375,1,1,0
1304,2021/7/26 11:48:32,257.42,826.001,460.245,33018.125,57570.625,-4125.625,1,1,0
1305,2021/7/26 11:48:32,236.131,829.905,457.988,53571.875,-11956.875,7135.625,1,1,0
1306,2021/7/26 11:48:32,237.29,833.565,458.842,13426.875,23629.375,175.0,1,1,0
1606,2021/7/26 11:53:32,-620.553,25.254,765.001,10784.375,-13068.125,-4038.125,0,0,0
1607,2021/7/26 11:53:32,-620.431,25.193,765.245,10727.5,-13120.625,-3972.5,0,0,0
1608,2021/7/26 11:53:32,-620.431,25.193,765.306,10836.875,-12998.125,-4016.25,0,0,0
1609,2021/7/26 11:53:32,-620.431,25.193,765.123,10889.375,-13098.75,-3946.25,0,0,0
1610,2021/7/26 11:53:32,-620.309,25.132,765.184,10797.5,-13063.75,-4077.5,0,0,0
1691,2021/7/26 11:53:41,-623.786,25.925,764.94,10836.875,-12831.875,-3928.75,0,0,0
1692,2021/7/26 11:53:41,-623.664,25.864,764.94,10819.375,-12910.625,-3906.875,0,0,0
1693,2021/7/26 11:53:41,-623.786,25.681,764.879,10758.125,-12621.875,-3915.625,0,0,0
1694,2021/7/26 11:53:41,-623.847,25.559,764.879,10745.0,-12499.375,-3981.25,0,0,0
1695,2021/7/26 11:53:41,-623.725,25.376,765.123,10762.5,-12801.25,-3955.0,0,0,0
1696,2021/7/26 11:53:41,-623.481,25.193,765.184,10902.5,-12836.25,-3946.25,0,0,0
1697,2021/7/26 11:53:41,-623.237,25.193,765.123,10753.75,-12731.25,-3941.875,0,0,0
1698,2021/7/26 11:53:41,-623.298,25.132,765.001,10749.375,-12818.75,-3876.25,0,0,0
1699,2021/7/26 11:53:41,-623.359,25.193,765.001,10797.5,-12709.375,-4016.25,0,0,0
1700,2021/7/26 11:53:42,-623.786,24.827,764.879,10710.0,-12788.125,-3902.5,0,0,0
1701,2021/7/26 11:53:42,-631.106,24.522,767.075,10867.5,-12845.0,-4060.0,0,0,0
1702,2021/7/26 11:53:42,-624.762,24.766,766.282,10920.0,-13015.625,-4011.875,0,0,0
1703,2021/7/26 11:53:42,-623.847,24.827,764.818,10854.375,-12748.75,-3893.75,0,0,0
1704,2021/7/26 11:53:42,-623.481,25.071,764.94,10898.125,-12849.375,-3893.75,0,0,0
1705,2021/7/26 11:53:42,-623.42,24.949,764.94,10871.875,-12897.5,-3950.625,0,0,0
1706,2021/7/26 11:53:42,-623.42,24.827,764.879,10775.625,-12845.0,-3972.5,0,0,0
