,Time,Accel X,Accel Y,Accel Z,Gyro X,Gyro Y,Gyro Z,書く,集中,楽しさ,unixtime
0,2021/7/25 17:54:04.0,212.951,283.772,307.44,-12206.25,-2170.0,45255.0,0,0,0,1627203244.0
1,2021/7/25 17:54:04.1,241.743,283.223,332.206,-20615.0,-41440.0,66294.375,0,0,0,1627203244.1
2,2021/7/25 17:54:04.2,314.638,327.936,272.67,29876.875,201.25,39116.875,0,0,0,1627203244.2
3,2021/7/25 17:54:04.3,342.088,391.437,221.125,34514.375,111588.75,27588.75,0,0,0,1627203244.3
4,2021/7/25 17:54:04.4,294.325,416.752,290.238,-14385.0,-137519.375,-7459.375,0,0,0,1627203244.4
5,2021/7/25 17:54:04.5,317.81,421.693,312.991,-44550.625,-143342.5,41768.125,0,0,0,1627203244.5
6,2021/7/25 17:54:04.6,357.338,422.425,311.283,-1268.75,-143342.5,53707.5,0,0,0,1627203244.6
7,2021/7/25 17:54:04.7,438.773,413.397,224.785,4965.625,-63148.75,18453.75,0,0,0,1627203244.7
8,2021/7/25 17:54:04.8,461.953,418.094,164.578,-39213.125,29859.375,5210.625,0,0,0,1627203244.8
9,2021/7/25 17:54:04.9,504.165,422.425,107.726,-100625.0,91065.625,-19302.5,0,0,0,1627203244.9
10,2021/7/25 17:54:05.0,534.299,424.804,74.176,27448.75,133542.5,10850.0,0,0,0,1627203245.0
11,2021/7/25 17:54:05.1,571.936,420.29,115.717,-11243.75,143342.5,22544.375,0,0,0,1627203245.1
12,2021/7/25 17:54:05.2,550.098,413.885,166.164,27641.25,143342.5,33595.625,0,0,0,1627203245.2
13,2021/7/25 17:54:05.3,495.503,412.97,198.25,64093.75,143342.5,77140.0,0,0,0,1627203245.3
14,2021/7/25 17:54:05.4,335.622,418.643,225.7,-4900.0,-71588.125,-51655.625,0,0,0,1627203245.4
15,2021/7/25 17:54:05.5,260.348,417.545,243.268,9769.375,-127876.875,25952.5,0,0,0,1627203245.5
16,2021/7/25 17:54:05.6,211.609,416.142,269.315,15570.625,-143342.5,-94128.125,0,0,0,1627203245.6
17,2021/7/25 17:54:05.7,199.104,415.837,292.007,-58909.375,-143342.5,-19796.875,0,0,0,1627203245.7
18,2021/7/25 17:54:05.8,279.685,403.637,262.117,-11138.75,-76492.5,-14603.75,0,0,0,1627203245.8
19,2021/7/25 17:54:05.9,309.514,393.023,218.502,-39431.875,-94416.875,15439.375,0,0,0,1627203245.9
20,2021/7/25 17:54:06.0,335.927,382.836,183.854,-84848.75,-29872.5,4287.5,0,0,0,1627203246.0
21,2021/7/25 17:54:06.1,390.827,385.215,118.401,-128800.0,82040.0,-113032.5,0,0,0,1627203246.1
22,2021/7/25 17:54:06.2,419.497,393.145,120.475,-143342.5,131018.125,81781.875,0,0,0,1627203246.2
23,2021/7/25 17:54:06.3,422.364,407.358,106.689,-104628.125,62803.125,28105.0,0,0,0,1627203246.3
24,2021/7/25 17:54:06.4,422.303,422.791,97.417,-46497.5,116501.875,-46497.5,0,0,0,1627203246.4
25,2021/7/25 17:54:06.5,426.268,423.767,194.163,-68232.5,51485.0,6768.125,0,0,0,1627203246.5
26,2021/7/25 17:54:06.6,418.216,413.885,249.002,-76055.0,-22518.125,-23970.625,0,0,0,1627203246.6
27,2021/7/25 17:54:06.7,407.724,401.563,292.983,-33228.125,-44467.5,-26573.75,0,0,0,1627203246.7
28,2021/7/25 17:54:06.8,383.507,386.74,343.369,40368.125,-10801.875,-12306.875,0,0,0,1627203246.8
29,2021/7/25 17:54:06.9,378.2,383.263,377.529,4020.625,43312.5,-2506.875,0,0,0,1627203246.9
30,2021/7/25 17:54:07.0,363.621,379.542,422.059,9244.375,10237.5,1789.375,0,0,0,1627203247.0
31,2021/7/25 17:54:07.1,354.044,375.272,446.703,25116.875,-3101.875,424.375,0,0,0,1627203247.1
32,2021/7/25 17:54:07.2,329.339,372.588,500.261,15102.5,-1500.625,-4764.375,0,0,0,1627203247.2
33,2021/7/25 17:54:07.3,316.102,371.673,526.43,8964.375,-6028.75,-2585.625,0,0,0,1627203247.3
34,2021/7/25 17:54:07.4,303.719,369.538,555.466,-227.5,-2646.875,-1583.75,0,0,0,1627203247.4
35,2021/7/25 17:54:07.5,281.21,365.451,603.778,4138.75,-10185.0,-450.625,0,0,0,1627203247.5
36,2021/7/25 17:54:07.6,272.304,362.889,625.494,4169.375,-6562.5,761.25,0,0,0,1627203247.6
37,2021/7/25 17:54:07.7,264.374,360.998,643.916,4318.125,-5411.875,630.0,0,0,0,1627203247.7
38,2021/7/25 17:54:07.8,256.383,358.253,661.362,170.625,-11025.0,-1680.0,0,0,0,1627203247.8
39,2021/7/25 17:54:07.9,241.987,351.36,698.145,5936.875,-13982.5,-4366.25,0,0,0,1627203247.9
40,2021/7/25 17:54:08.0,236.375,348.493,713.334,12726.875,-10850.0,-2060.625,0,0,0,1627203248.0
41,2021/7/25 17:54:08.1,230.275,346.358,727.974,11900.0,-11786.25,-1662.5,0,0,0,1627203248.1
42,2021/7/25 17:54:08.2,217.343,343.247,754.509,5818.75,-6300.0,-3561.25,0,0,0,1627203248.2
43,2021/7/25 17:54:08.3,211.487,341.905,766.587,8128.75,-8308.125,-1859.375,0,0,0,1627203248.3
44,2021/7/25 17:54:08.4,205.57,340.319,779.763,7310.625,-6278.125,-2226.875,0,0,0,1627203248.4
45,2021/7/25 17:54:08.5,199.348,338.245,792.878,7761.25,-10482.5,-2135.0,0,0,0,1627203248.5
46,2021/7/25 17:54:08.6,191.906,336.354,808.189,5950.0,-9270.625,-1649.375,0,0,0,1627203248.6
47,2021/7/25 17:54:08.7,188.856,335.622,816.424,7612.5,-11738.125,-2174.375,0,0,0,1627203248.7
48,2021/7/25 17:54:08.8,185.806,334.402,824.293,6068.125,-7118.125,-2253.125,0,0,0,1627203248.8
49,2021/7/25 17:54:08.9,178.73,331.413,842.105,9244.375,-9795.625,-2117.5,0,0,0,1627203248.9
50,2021/7/25 17:54:09.0,175.497,330.254,848.876,11580.625,-13387.5,-1671.25,0,0,0,1627203249.0
51,2021/7/25 17:54:09.1,172.386,329.766,858.941,15684.375,-17045.0,2445.625,0,0,0,1627203249.1
52,2021/7/25 17:54:09.2,169.824,330.193,870.043,25283.125,-36732.5,9843.75,0,0,0,1627203249.2
53,2021/7/25 17:54:09.3,178.852,337.025,867.969,18296.25,-66972.5,15041.25,0,0,0,1627203249.3
54,2021/7/25 17:54:09.4,182.085,334.585,867.42,20925.625,-57671.25,14411.25,0,0,0,1627203249.4
55,2021/7/25 17:54:09.5,190.076,333.914,873.276,12910.625,-58896.25,27405.0,0,0,0,1627203249.5
56,2021/7/25 17:54:09.6,218.136,327.875,868.274,555.625,-33578.125,29006.25,0,0,0,1627203249.6
57,2021/7/25 17:54:09.7,250.832,323.727,863.577,-201.25,-43277.5,32974.375,0,0,0,1627203249.7
58,2021/7/25 17:54:09.8,281.271,318.725,858.88,13566.875,-27676.25,5341.875,0,0,0,1627203249.8
59,2021/7/25 17:54:09.9,300.303,312.93,854.732,12394.375,-19565.0,-5989.375,0,0,0,1627203249.9
60,2021/7/25 17:54:10.0,329.705,299.388,854.183,22198.75,69768.125,52434.375,0,0,0,1627203250.0
61,2021/7/25 17:54:10.1,343.552,291.641,866.444,57452.5,40858.125,22058.75,0,0,0,1627203250.1
62,2021/7/25 17:54:10.2,352.397,292.068,877.607,124433.75,-31959.375,-29513.75,0,0,0,1627203250.2
63,2021/7/25 17:54:10.3,373.137,308.904,855.647,43400.0,45180.625,-86301.25,0,0,0,1627203250.3
64,2021/7/25 17:54:10.4,388.204,329.827,822.158,59998.75,-36378.125,-128458.75,0,0,0,1627203250.4
65,2021/7/25 17:54:10.5,400.038,344.65,790.804,-88558.75,-5591.25,-55545.0,0,0,0,1627203250.5
66,2021/7/25 17:54:10.6,387.899,322.629,827.038,71745.625,-104588.75,100638.125,0,0,0,1627203250.6
67,2021/7/25 17:54:10.7,462.685,353.922,802.211,-107108.75,-80946.25,44310.0,0,0,0,1627203250.7
68,2021/7/25 17:54:10.8,497.211,347.761,794.098,-75385.625,-117626.25,25283.125,0,0,0,1627203250.8
69,2021/7/25 17:54:10.9,558.089,344.406,770.186,-52552.5,76181.875,30730.0,0,0,0,1627203250.9
70,2021/7/25 17:54:11.0,498.126,393.999,776.591,-13286.875,143342.5,-72708.125,0,0,0,1627203251.0
71,2021/7/25 17:54:11.1,439.017,389.79,772.382,-29701.875,40127.5,-50111.25,0,0,0,1627203251.1
72,2021/7/25 17:54:11.2,376.309,370.697,778.177,80771.25,108946.25,-102445.0,0,0,0,1627203251.2
73,2021/7/25 17:54:11.3,314.028,361.486,781.044,53803.75,-71680.0,-21494.375,0,0,0,1627203251.3
74,2021/7/25 17:54:11.4,225.151,365.695,774.822,114292.5,-143342.5,-6903.75,0,0,0,1627203251.4
75,2021/7/25 17:54:11.5,233.203,389.668,748.165,46418.75,71675.625,-75801.25,0,0,0,1627203251.5
76,2021/7/25 17:54:11.6,156.77,409.615,719.861,-12805.625,5796.875,5823.125,0,0,0,1627203251.6
77,2021/7/25 17:54:11.7,23.546,442.738,673.44,44187.5,18440.625,-15128.75,0,0,0,1627203251.7
78,2021/7/25 17:54:11.8,-17.263,467.748,649.223,15981.875,26617.5,-58559.375,0,0,0,1627203251.8
79,2021/7/25 17:54:11.9,-50.63,488.305,628.3,8465.625,50334.375,-71194.375,0,0,0,1627203251.9
80,2021/7/25 17:54:12.0,-82.167,494.71,624.274,-26429.375,-55387.5,-35310.625,0,0,0,1627203252.0
81,2021/7/25 17:54:12.1,-175.07,482.327,615.124,20413.75,-4602.5,48212.5,0,0,0,1627203252.1
82,2021/7/25 17:54:12.2,-226.371,478.606,606.95,45972.5,-13846.875,75127.5,0,0,0,1627203252.2
83,2021/7/25 17:54:12.3,-256.078,475.556,598.532,17364.375,7280.0,78684.375,0,0,0,1627203252.3
84,2021/7/25 17:54:12.4,-263.581,518.622,563.701,16410.625,31867.5,62860.0,0,0,0,1627203252.4
85,2021/7/25 17:54:12.5,-260.531,540.643,537.288,65524.375,218.75,30200.625,0,0,0,1627203252.5
86,2021/7/25 17:54:12.6,-260.165,545.279,508.069,14525.0,-11576.25,-9633.75,0,0,0,1627203252.6
87,2021/7/25 17:54:12.7,-270.962,550.403,483.791,-4038.125,23874.375,-14201.25,0,0,0,1627203252.7
88,2021/7/25 17:54:12.8,-305.122,586.149,428.464,15456.875,-20155.625,4637.5,0,0,0,1627203252.8
89,2021/7/25 17:54:12.9,-323.483,606.096,408.09,-6177.5,-5945.625,-4834.375,0,0,0,1627203252.9
