,Time,Accel X,Accel Y,Accel Z,Gyro X,Gyro Y,Gyro Z,書く,集中,楽しさ,unixtime
0,2021/4/19 10:49:05.0,-244.732,-864.004,-342.881,-83956.25,-40000.625,-97658.75,0,0,0,1618796945.0
1,2021/4/19 10:49:05.1,-225.456,-813.496,-334.219,33044.375,-75788.125,-20702.5,0,0,0,1618796945.1
2,2021/4/19 10:49:05.2,-208.01,-827.282,-373.686,40840.625,24303.125,32248.125,0,0,0,1618796945.2
3,2021/4/19 10:49:05.3,-199.348,-844.118,-432.795,19814.375,-1837.5,15343.125,0,0,0,1618796945.3
4,2021/4/19 10:49:05.4,-223.382,-838.872,-400.648,119280.0,112914.375,124565.0,0,0,0,1618796945.4
5,2021/4/19 10:49:05.5,-213.073,-845.521,-376.431,112122.5,25471.25,123838.75,0,0,0,1618796945.5
6,2021/4/19 10:49:05.6,-210.145,-830.576,-357.46,52810.625,74445.0,83387.5,0,0,0,1618796945.6
7,2021/4/19 10:49:05.7,-202.276,-851.438,-337.025,14603.75,10968.125,30261.875,0,0,0,1618796945.7
8,2021/4/19 10:49:05.8,-207.095,-878.949,-315.553,-13155.625,-43251.25,-84752.5,0,0,0,1618796945.8
9,2021/4/19 10:49:05.9,-236.741,-912.743,-319.518,-76720.0,94163.125,-82464.375,0,0,0,1618796945.9
10,2021/4/19 10:49:06.0,-288.591,-930.616,-332.877,-140280.0,-54197.5,-117853.75,0,0,0,1618796946.0
11,2021/4/19 10:49:06.1,-276.879,-882.06,-304.329,-99369.375,-82635.0,-83422.5,0,0,0,1618796946.1
12,2021/4/19 10:49:06.2,-267.119,-845.338,-308.172,86030.0,-65843.75,30371.25,0,0,0,1618796946.2
13,2021/4/19 10:49:06.3,-256.322,-843.447,-440.786,11121.25,40048.75,19140.625,0,0,0,1618796946.3
14,2021/4/19 10:49:06.4,-274.622,-870.47,-467.138,3491.25,-8448.125,46405.625,0,0,0,1618796946.4
15,2021/4/19 10:49:06.5,-285.602,-849.364,-463.173,104833.75,46217.5,119721.875,0,0,0,1618796946.5
16,2021/4/19 10:49:06.6,-280.234,-836.127,-451.522,58730.0,31495.625,52696.875,0,0,0,1618796946.6
17,2021/4/19 10:49:06.7,-257.298,-837.713,-436.577,38955.0,10976.875,74939.375,0,0,0,1618796946.7
18,2021/4/19 10:49:06.8,-254.492,-866.444,-426.451,2458.75,-24040.625,-5670.0,0,0,0,1618796946.8
19,2021/4/19 10:49:06.9,-263.825,-889.685,-435.845,-92150.625,33293.75,-115001.25,0,0,0,1618796946.9
20,2021/4/19 10:49:07.0,-290.482,-912.926,-442.433,-104396.25,7485.625,-123519.375,0,0,0,1618796947.0
21,2021/4/19 10:49:07.1,-305.976,-891.82,-400.587,-97212.5,-46711.875,-97676.25,0,0,0,1618796947.1
22,2021/4/19 10:49:07.2,-289.018,-837.957,-382.897,37498.125,-85903.125,-25812.5,0,0,0,1618796947.2
23,2021/4/19 10:49:07.3,-282.125,-849.974,-423.218,17513.125,24780.0,19481.875,0,0,0,1618796947.3
24,2021/4/19 10:49:07.4,-268.217,-879.803,-479.704,33936.875,34378.75,10653.125,0,0,0,1618796947.4
25,2021/4/19 10:49:07.5,-286.395,-867.298,-440.847,124928.125,80246.25,121012.5,0,0,0,1618796947.5
26,2021/4/19 10:49:07.6,-273.28,-865.651,-422.791,115473.75,8036.875,123764.375,0,0,0,1618796947.6
27,2021/4/19 10:49:07.7,-269.498,-858.758,-415.227,99400.0,31438.75,90593.125,0,0,0,1618796947.7
28,2021/4/19 10:49:07.8,-274.988,-873.276,-363.621,15623.125,32081.875,33705.0,0,0,0,1618796947.8
29,2021/4/19 10:49:07.9,-273.341,-905.606,-338.733,9664.375,-21393.75,-49962.5,0,0,0,1618796947.9
30,2021/4/19 10:49:08.0,-293.898,-926.102,-351.177,-102725.0,99741.25,-89166.875,0,0,0,1618796948.0
31,2021/4/19 10:49:08.1,-301.584,-941.047,-388.265,-142778.125,-71680.0,-116768.75,0,0,0,1618796948.1
32,2021/4/19 10:49:08.2,-278.16,-886.696,-381.006,-64548.75,-57128.75,-102143.125,0,0,0,1618796948.2
33,2021/4/19 10:49:08.3,-260.287,-839.787,-381.494,84476.875,-60235.0,3976.875,0,0,0,1618796948.3
34,2021/4/19 10:49:08.4,-247.355,-817.095,-435.174,-1426.25,-64076.25,2187.5,0,0,0,1618796948.4
35,2021/4/19 10:49:08.5,-244.305,-842.715,-491.843,48864.375,29610.0,53882.5,0,0,0,1618796948.5
36,2021/4/19 10:49:08.6,-234.728,-844.911,-485.987,122416.875,44218.125,123961.25,0,0,0,1618796948.6
37,2021/4/19 10:49:08.7,-226.493,-832.162,-472.201,63398.125,1741.25,67051.25,0,0,0,1618796948.7
38,2021/4/19 10:49:08.8,-218.136,-824.415,-466.223,46606.875,20571.25,92960.0,0,0,0,1618796948.8
39,2021/4/19 10:49:08.9,-208.62,-855.83,-438.224,11869.375,-28406.875,-988.75,0,0,0,1618796948.9
40,2021/4/19 10:49:09.0,-223.321,-876.448,-446.154,-61595.625,29146.25,-111383.125,0,0,0,1618796949.0
41,2021/4/19 10:49:09.1,-260.287,-903.898,-441.274,-77805.0,52246.25,-95033.75,0,0,0,1618796949.1
42,2021/4/19 10:49:09.2,-285.907,-927.81,-421.327,-126520.625,-4239.375,-121244.375,0,0,0,1618796949.2
43,2021/4/19 10:49:09.3,-259.006,-851.987,-383.08,-6221.25,-55571.25,-36640.625,0,0,0,1618796949.3
44,2021/4/19 10:49:09.4,-233.691,-846.07,-404.552,111759.375,-9485.0,80766.875,0,0,0,1618796949.4
45,2021/4/19 10:49:09.5,-169.763,-865.407,-460.489,-48365.625,-104562.5,-79139.375,0,0,0,1618796949.5
46,2021/4/19 10:49:09.6,-167.811,-866.749,-464.515,41654.375,14770.0,82499.375,0,0,0,1618796949.6
47,2021/4/19 10:49:09.7,-160.613,-873.215,-463.6,111330.625,-21647.5,131031.25,0,0,0,1618796949.7
48,2021/4/19 10:49:09.8,-165.737,-862.967,-444.141,53353.125,-22916.25,34886.25,0,0,0,1618796949.8
49,2021/4/19 10:49:09.9,-173.118,-851.011,-438.163,53532.5,-20116.25,71701.875,0,0,0,1618796949.9
50,2021/4/19 10:49:10.0,-183.0,-867.237,-419.375,12656.875,-27278.125,-2905.0,0,0,0,1618796950.0
51,2021/4/19 10:49:10.1,-197.152,-887.062,-415.105,-34422.5,13833.75,-95230.625,0,0,0,1618796950.1
52,2021/4/19 10:49:10.2,-244.61,-917.013,-403.637,-61963.125,68810.0,-63205.625,0,0,0,1618796950.2
53,2021/4/19 10:49:10.3,-276.635,-920.185,-364.475,-99216.25,-46900.0,-102147.5,0,0,0,1618796950.3
54,2021/4/19 10:49:10.4,-263.764,-874.313,-340.624,-26460.0,-73211.25,-46659.375,0,0,0,1618796950.4
55,2021/4/19 10:49:10.5,-244.488,-861.808,-345.138,105739.375,-60488.75,69890.625,0,0,0,1618796950.5
56,2021/4/19 10:49:10.6,-199.897,-859.002,-384.91,-1448.125,-118763.75,-75390.0,0,0,0,1618796950.6
57,2021/4/19 10:49:10.7,-145.912,-837.103,-381.372,109296.25,53676.875,96530.0,0,0,0,1618796950.7
58,2021/4/19 10:49:10.8,-142.008,-843.142,-370.88,143342.5,40376.875,141106.875,0,0,0,1618796950.8
59,2021/4/19 10:49:10.9,-151.341,-828.624,-357.216,97768.125,53068.75,85671.25,0,0,0,1618796950.9
60,2021/4/19 10:49:11.0,-145.912,-833.565,-347.822,87976.875,56691.25,82455.625,0,0,0,1618796951.0
61,2021/4/19 10:49:11.1,-139.995,-878.339,-320.921,-2375.625,-24937.5,-18760.0,0,0,0,1618796951.1
62,2021/4/19 10:49:11.2,-165.493,-908.107,-326.411,-108075.625,36036.875,-87959.375,0,0,0,1618796951.2
63,2021/4/19 10:49:11.3,-206.729,-927.932,-341.966,-107091.25,23795.625,-127120.0,0,0,0,1618796951.3
64,2021/4/19 10:49:11.4,-237.107,-902.129,-305.549,-96998.125,-43640.625,-110928.125,0,0,0,1618796951.4
65,2021/4/19 10:49:11.5,-218.136,-850.035,-290.787,42170.625,-110324.375,-19862.5,0,0,0,1618796951.5
66,2021/4/19 10:49:11.6,-214.781,-856.501,-325.313,-26035.625,-63840.0,-2170.0,0,0,0,1618796951.6
67,2021/4/19 10:49:11.7,-226.554,-924.211,-387.594,-113225.0,-31132.5,-85312.5,0,0,0,1618796951.7
68,2021/4/19 10:49:11.8,-274.805,-941.23,-390.4,124696.25,87036.25,128878.75,0,0,0,1618796951.8
69,2021/4/19 10:49:11.9,-259.433,-922.564,-376.492,15308.125,25213.125,38158.75,0,0,0,1618796951.9
70,2021/4/19 10:49:12.0,-233.569,-918.843,-373.869,56888.125,-8408.75,73850.0,0,0,0,1618796952.0
71,2021/4/19 10:49:12.1,-218.502,-912.743,-384.727,56787.5,42026.25,47998.125,0,0,0,1618796952.1
72,2021/4/19 10:49:12.2,-203.557,-948.489,-346.236,-40149.375,-52753.75,-75643.75,0,0,0,1618796952.2
73,2021/4/19 10:49:12.3,-209.84,-971.974,-357.521,-117989.375,38753.75,-104076.875,0,0,0,1618796952.3
74,2021/4/19 10:49:12.4,-223.077,-993.934,-375.028,-141645.0,-27221.25,-132877.5,0,0,0,1618796952.4
75,2021/4/19 10:49:12.5,-214.72,-934.947,-356.118,40306.875,-120001.875,-39659.375,0,0,0,1618796952.5
76,2021/4/19 10:49:12.6,-186.538,-939.766,-393.572,49363.125,-50172.5,9642.5,0,0,0,1618796952.6
77,2021/4/19 10:49:12.7,-169.946,-965.02,-449.509,12355.0,-39353.125,-74296.25,0,0,0,1618796952.7
78,2021/4/19 10:49:12.8,-195.81,-943.853,-459.635,7949.375,3513.125,4440.625,0,0,0,1618796952.8
79,2021/4/19 10:49:12.9,-212.524,-923.967,-431.514,104951.875,46510.625,124455.625,0,0,0,1618796952.9
80,2021/4/19 10:54:15.0,-131.333,-777.079,-276.269,-116681.25,25016.25,-126691.25,0,0,0,1618797255.0
81,2021/4/19 10:54:15.1,-146.888,-818.559,-309.453,-143342.5,45027.5,-143342.5,0,0,0,1618797255.1
82,2021/4/19 10:54:15.2,-149.389,-842.715,-368.867,-86751.875,-67340.0,-108399.375,0,0,0,1618797255.2
83,2021/4/19 10:54:15.3,-35.929,-672.403,-366.0,91511.875,92736.875,21958.125,0,0,0,1618797255.3
84,2021/4/19 10:54:15.4,-15.25,-644.16,-388.631,153.125,81243.75,9721.25,0,0,0,1618797255.4
85,2021/4/19 10:54:15.5,-11.59,-671.671,-417.118,-85798.125,-92382.5,104374.375,0,0,0,1618797255.5
86,2021/4/19 10:54:15.6,2.013,-741.089,-447.191,-11243.75,-34208.125,91577.5,0,0,0,1618797255.6
87,2021/4/19 10:54:15.7,-15.555,-783.362,-398.94,-124521.25,141128.75,-128235.625,0,0,0,1618797255.7
88,2021/4/19 10:54:15.8,-26.047,-854.854,-395.036,-111545.0,67208.75,-143342.5,0,0,0,1618797255.8
89,2021/4/19 10:54:15.9,-22.692,-848.571,-396.256,2493.75,-94228.75,-33390.0,0,0,0,1618797255.9
90,2021/4/19 10:54:16.0,-111.264,-803.004,-330.681,106102.5,141071.875,143342.5,0,0,0,1618797256.0
91,2021/4/19 10:54:16.1,-170.251,-862.418,-308.721,130935.0,143311.875,143342.5,0,0,0,1618797256.1
92,2021/4/19 10:54:16.2,-167.75,-918.66,-288.957,143342.5,-49726.25,100196.25,0,0,0,1618797256.2
93,2021/4/19 10:54:16.3,-137.86,-935.191,-297.131,12315.625,-91065.625,45237.5,0,0,0,1618797256.3
94,2021/4/19 10:54:16.4,-152.988,-908.534,-296.094,-130252.5,-73211.25,-138565.0,0,0,0,1618797256.4
95,2021/4/19 10:54:16.5,-163.236,-955.504,-311.588,-108871.875,-10110.625,-130458.125,0,0,0,1618797256.5
96,2021/4/19 10:54:16.6,-146.034,-938.058,-317.261,42030.625,-43859.375,11751.25,0,0,0,1618797256.6
97,2021/4/19 10:54:16.7,-180.926,-851.011,-250.344,133249.375,107607.5,143342.5,0,0,0,1618797256.7
98,2021/4/19 10:54:16.8,-221.979,-847.595,-225.7,139986.875,135961.875,143342.5,0,0,0,1618797256.8
99,2021/4/19 10:54:16.9,-226.981,-868.762,-210.206,143342.5,-70358.75,92325.625,0,0,0,1618797256.9
100,2021/4/19 10:54:17.0,-205.448,-851.987,-219.356,18843.125,-80972.5,35783.125,0,0,0,1618797257.0
101,2021/4/19 10:54:17.1,-223.26,-815.387,-245.708,-123589.375,-32077.5,-135406.25,0,0,0,1618797257.1
102,2021/4/19 10:54:17.2,-241.377,-868.518,-277.184,-106859.375,6636.875,-135616.25,0,0,0,1618797257.2
103,2021/4/19 10:54:17.3,-218.258,-869.067,-291.641,29802.5,-74151.875,-31587.5,0,0,0,1618797257.3
104,2021/4/19 10:54:17.4,-199.775,-820.023,-265.838,125339.375,81261.25,104986.875,0,0,0,1618797257.4
105,2021/4/19 10:54:17.5,-261.812,-912.072,-247.172,99990.625,142016.875,140205.625,0,0,0,1618797257.5
106,2021/4/19 10:54:17.6,-214.11,-957.456,-217.953,143342.5,-44629.375,2380.0,0,0,0,1618797257.6
107,2021/4/19 10:54:17.7,-199.653,-958.005,-241.865,47648.125,-25978.75,48816.25,0,0,0,1618797257.7
108,2021/4/19 10:54:17.8,-214.781,-934.276,-230.153,-112144.375,17132.5,-128283.75,0,0,0,1618797257.8
109,2021/4/19 10:54:17.9,-234.667,-980.819,-268.217,-143342.5,75761.875,-79673.125,0,0,0,1618797257.9
110,2021/4/19 10:54:18.0,-217.892,-990.335,-289.811,-81208.75,-43824.375,-50736.875,0,0,0,1618797258.0
111,2021/4/19 10:54:18.1,-190.503,-907.009,-281.881,22268.75,-41479.375,16428.125,0,0,0,1618797258.1
112,2021/4/19 10:54:18.2,-76.006,-910.608,-355.874,-10950.625,-23795.625,-23191.875,0,0,0,1618797258.2
113,2021/4/19 10:54:18.3,-86.925,-925.797,-342.515,115810.625,7052.5,111728.75,0,0,0,1618797258.3
114,2021/4/19 10:54:18.4,-85.888,-919.026,-355.996,119398.125,-16034.375,101486.875,0,0,0,1618797258.4
115,2021/4/19 10:54:18.5,-82.106,-904.996,-355.935,64509.375,48540.625,106509.375,0,0,0,1618797258.5
116,2021/4/19 10:54:18.6,-85.522,-932.324,-308.172,-65257.5,39335.625,-90138.125,0,0,0,1618797258.6
117,2021/4/19 10:54:18.7,-130.174,-973.682,-307.44,-129351.25,564.375,-113465.625,0,0,0,1618797258.7
118,2021/4/19 10:54:18.8,-155.062,-974.17,-307.745,-113098.125,8303.75,-111072.5,0,0,0,1618797258.8
119,2021/4/19 10:54:18.9,-137.494,-859.002,-245.891,73062.5,-62081.25,84516.25,0,0,0,1618797258.9
120,2021/4/19 10:54:19.0,-153.659,-838.445,-287.066,8417.5,-75617.5,45416.875,0,0,0,1618797259.0
121,2021/4/19 10:54:19.1,-165.005,-877.302,-348.798,6597.5,-31530.625,110980.625,0,0,0,1618797259.1
122,2021/4/19 10:54:19.2,-154.94,-924.577,-353.617,80403.75,42459.375,114625.0,0,0,0,1618797259.2
123,2021/4/19 10:54:19.3,-151.707,-906.033,-324.764,73018.75,30708.125,66399.375,0,0,0,1618797259.3
124,2021/4/19 10:54:19.4,-134.871,-903.776,-328.363,82831.875,27094.375,95895.625,0,0,0,1618797259.4
125,2021/4/19 10:54:19.5,-108.519,-912.743,-341.722,25672.5,21100.625,55317.5,0,0,0,1618797259.5
126,2021/4/19 10:54:19.6,-111.63,-949.282,-313.052,-5648.125,-52902.5,-90400.625,0,0,0,1618797259.6
127,2021/4/19 10:54:19.7,-190.686,-1025.898,-329.705,-143342.5,23012.5,-130698.75,0,0,0,1618797259.7
128,2021/4/19 10:54:19.8,-181.719,-1019.188,-316.529,-142664.375,-58493.75,-94539.375,0,0,0,1618797259.8
129,2021/4/19 10:54:19.9,-165.737,-960.628,-289.445,-43618.75,-113443.75,-38272.5,0,0,0,1618797259.9
130,2021/4/19 10:54:20.0,-93.452,-977.83,-347.395,-7319.375,-27496.875,-100524.375,0,0,0,1618797260.0
131,2021/4/19 10:54:20.1,-81.069,-961.116,-335.805,24163.125,38220.0,24075.625,0,0,0,1618797260.1
132,2021/4/19 10:54:20.2,-94.428,-939.766,-310.246,120273.125,21380.625,127487.5,0,0,0,1618797260.2
133,2021/4/19 10:54:20.3,-82.289,-938.485,-306.098,137799.375,11961.25,107533.125,0,0,0,1618797260.3
134,2021/4/19 10:54:20.4,-82.838,-925.492,-299.571,48492.5,26315.625,55658.75,0,0,0,1618797260.4
135,2021/4/19 10:54:20.5,-88.633,-938.241,-301.767,35070.0,-3880.625,13566.875,0,0,0,1618797260.5
136,2021/4/19 10:54:20.6,-89.487,-958.432,-302.621,-61788.125,-26446.875,-106750.0,0,0,0,1618797260.6
137,2021/4/19 10:54:20.7,-130.967,-1007.903,-302.987,-143342.5,8916.25,-98008.75,0,0,0,1618797260.7
138,2021/4/19 10:54:20.8,-136.701,-973.011,-290.543,-113658.125,-37743.125,-77091.875,0,0,0,1618797260.8
139,2021/4/19 10:54:20.9,-120.78,-913.78,-269.193,7441.875,-84153.125,-21310.625,0,0,0,1618797260.9
140,2021/4/19 10:54:21.0,-88.877,-916.464,-317.993,54875.625,57063.125,-24749.375,0,0,0,1618797261.0
141,2021/4/19 10:54:21.1,-34.221,-915.549,-403.759,85951.25,57618.75,31062.5,0,0,0,1618797261.1
142,2021/4/19 10:54:21.2,-59.292,-881.816,-369.05,139055.0,103079.375,128275.0,0,0,0,1618797261.2
143,2021/4/19 10:54:21.3,-55.937,-884.317,-337.696,128625.0,-36596.875,116685.625,0,0,0,1618797261.3
144,2021/4/19 10:54:21.4,-63.44,-876.631,-323.422,66535.0,-17828.125,58563.75,0,0,0,1618797261.4
145,2021/4/19 10:54:21.5,-68.137,-898.774,-305.061,27321.875,42993.125,38163.125,0,0,0,1618797261.5
146,2021/4/19 10:54:21.6,-74.969,-935.435,-287.371,16966.25,-6755.0,-22995.0,0,0,0,1618797261.6
147,2021/4/19 10:54:21.7,-87.291,-958.615,-288.042,-103271.875,39121.25,-117779.375,0,0,0,1618797261.7
148,2021/4/19 10:54:21.8,-156.404,-971.12,-277.855,-133052.5,-55142.5,-76785.625,0,0,0,1618797261.8
149,2021/4/19 10:54:21.9,-151.768,-928.542,-261.995,-96136.25,-30524.375,-59583.125,0,0,0,1618797261.9
150,2021/4/19 10:54:22.0,-141.154,-876.204,-268.522,60090.625,-51511.25,-8312.5,0,0,0,1618797262.0
151,2021/4/19 10:54:22.1,-145.485,-868.274,-319.762,-43802.5,-5503.75,3163.125,0,0,0,1618797262.1
152,2021/4/19 10:54:22.2,-180.743,-932.995,-398.696,-1496.25,-21288.75,31088.75,0,0,0,1618797262.2
153,2021/4/19 10:54:22.3,-198.25,-912.56,-387.411,102847.5,48461.875,115828.125,0,0,0,1618797262.3
154,2021/4/19 10:54:22.4,-197.03,-905.85,-372.832,102025.0,4431.875,80653.125,0,0,0,1618797262.4
155,2021/4/19 10:54:22.5,-193.858,-899.262,-369.721,102121.25,39156.25,78894.375,0,0,0,1618797262.5
156,2021/4/19 10:54:22.6,-193.919,-917.745,-341.234,33643.75,-6330.625,18256.875,0,0,0,1618797262.6
157,2021/4/19 10:54:22.7,-197.64,-941.108,-330.132,-27733.125,-62475.0,-97943.125,0,0,0,1618797262.7
158,2021/4/19 10:54:22.8,-211.731,-965.447,-328.363,-119783.125,89801.25,-90877.5,0,0,0,1618797262.8
159,2021/4/19 10:54:22.9,-218.807,-963.068,-321.592,-118811.875,-41339.375,-95020.625,0,0,0,1618797262.9
