,Time,Accel X,Accel Y,Accel Z,Gyro X,Gyro Y,Gyro Z,書く,集中,楽しさ,unixtime
0,2021/4/28 19:07:10.0,807.274,91.683,581.696,1618.75,-6846.875,-3333.75,0,0,0,1619604430.0
1,2021/4/28 19:07:10.1,807.274,91.683,581.757,1531.25,-4781.875,-3469.375,0,0,0,1619604430.1
2,2021/4/28 19:07:10.2,807.457,91.683,581.635,1618.75,-5853.75,-3486.875,0,0,0,1619604430.2
3,2021/4/28 19:07:10.3,807.884,91.561,581.513,1553.125,-7056.875,-3408.125,0,0,0,1619604430.3
4,2021/4/28 19:07:10.4,807.884,91.622,581.452,1645.0,-6343.75,-3460.625,0,0,0,1619604430.4
5,2021/4/28 19:07:10.5,808.006,91.622,581.391,1649.375,-6142.5,-3561.25,0,0,0,1619604430.5
6,2021/4/28 19:07:10.6,808.067,91.683,581.33,1570.625,-6405.0,-3548.125,0,0,0,1619604430.6
7,2021/4/28 19:07:10.7,808.128,91.622,581.147,1640.625,-6186.25,-3491.25,0,0,0,1619604430.7
8,2021/4/28 19:07:10.8,808.067,91.683,581.086,1658.125,-6295.625,-3491.25,0,0,0,1619604430.8
9,2021/4/28 19:07:10.9,808.128,91.805,581.025,1610.0,-6475.0,-3460.625,0,0,0,1619604430.9
10,2021/4/28 19:07:11.0,808.189,91.988,581.025,1614.375,-5779.375,-3552.5,1,0,0,1619604431.0
11,2021/4/28 19:07:11.1,808.311,92.11,580.964,1662.5,-6059.375,-3521.875,1,0,0,1619604431.1
12,2021/4/28 19:07:11.2,808.372,92.171,580.903,1649.375,-6606.25,-3495.625,1,0,0,1619604431.2
13,2021/4/28 19:07:11.3,808.494,92.232,580.903,1710.625,-6588.75,-3526.25,1,0,0,1619604431.3
14,2021/4/28 19:07:11.4,808.555,92.171,580.842,1575.0,-6282.5,-3548.125,1,0,0,1619604431.4
15,2021/4/28 19:07:11.5,808.555,92.11,580.659,1592.5,-6221.25,-3596.25,1,0,0,1619604431.5
16,2021/4/28 19:07:11.6,808.677,92.049,580.659,1605.625,-6203.75,-3425.625,1,0,0,1619604431.6
17,2021/4/28 19:07:11.7,808.677,92.171,580.659,1610.0,-6221.25,-3552.5,1,0,0,1619604431.7
18,2021/4/28 19:07:11.8,808.555,92.049,580.659,1605.625,-6335.0,-3543.75,1,0,0,1619604431.8
19,2021/4/28 19:07:11.9,808.494,92.11,580.659,1496.25,-6177.5,-3482.5,1,0,0,1619604431.9
20,2021/4/28 19:07:12.0,808.494,92.11,580.598,1561.875,-6510.0,-3469.375,1,0,0,1619604432.0
21,2021/4/28 19:07:12.1,808.433,92.11,580.781,1601.25,-6282.5,-3465.0,1,0,0,1619604432.1
22,2021/4/28 19:07:12.2,808.311,92.049,580.72,1697.5,-6461.875,-3495.625,1,0,0,1619604432.2
23,2021/4/28 19:07:12.3,808.311,91.988,580.72,1627.5,-6251.875,-3543.75,1,0,0,1619604432.3
24,2021/4/28 19:07:12.4,808.25,91.927,580.659,1570.625,-5709.375,-3535.0,1,0,0,1619604432.4
25,2021/4/28 19:07:12.5,808.189,91.866,580.72,1588.125,-6623.75,-3513.125,1,0,0,1619604432.5
26,2021/4/28 19:07:12.6,808.189,91.866,580.72,1592.5,-6221.25,-3500.0,1,0,0,1619604432.6
27,2021/4/28 19:07:12.7,808.128,91.866,580.72,1566.25,-6094.375,-3526.25,1,0,0,1619604432.7
28,2021/4/28 19:07:12.8,808.006,91.683,580.659,1588.125,-6733.125,-3513.125,1,0,0,1619604432.8
29,2021/4/28 19:07:12.9,808.067,91.561,580.659,1640.625,-6575.625,-3539.375,1,0,0,1619604432.9
30,2021/4/28 19:07:13.0,808.006,91.5,580.659,1570.625,-6076.875,-3587.5,1,0,0,1619604433.0
31,2021/4/28 19:07:13.1,808.067,91.5,580.659,1640.625,-6466.25,-3548.125,1,0,0,1619604433.1
32,2021/4/28 19:07:13.2,808.067,91.378,580.659,1636.25,-5967.5,-3535.0,1,0,0,1619604433.2
33,2021/4/28 19:07:13.3,808.25,91.256,580.598,1592.5,-6492.5,-3609.375,1,0,0,1619604433.3
34,2021/4/28 19:07:13.4,808.372,91.195,580.537,1605.625,-6654.375,-3443.125,1,0,0,1619604433.4
35,2021/4/28 19:07:13.5,808.433,91.256,580.415,1631.875,-6536.25,-3443.125,1,0,0,1619604433.5
36,2021/4/28 19:07:13.6,808.433,91.134,580.476,1640.625,-5989.375,-3438.75,1,0,0,1619604433.6
37,2021/4/28 19:07:13.7,808.555,91.073,580.659,1684.375,-6545.0,-3447.5,1,0,0,1619604433.7
38,2021/4/28 19:07:13.8,808.555,90.951,580.781,1653.75,-6593.125,-3500.0,1,0,0,1619604433.8
39,2021/4/28 19:07:13.9,808.311,91.012,580.72,1623.125,-6230.0,-3513.125,1,0,0,1619604433.9
40,2021/4/28 19:07:14.0,808.311,90.951,580.72,1535.625,-5845.0,-3504.375,1,0,0,1619604434.0
41,2021/4/28 19:07:14.1,808.372,90.89,580.598,1614.375,-6553.75,-3478.125,1,0,0,1619604434.1
42,2021/4/28 19:07:14.2,808.372,90.89,580.659,1557.5,-6330.625,-3430.0,1,0,0,1619604434.2
43,2021/4/28 19:07:14.3,808.372,90.646,580.537,1579.375,-6146.875,-3486.875,1,0,0,1619604434.3
44,2021/4/28 19:07:14.4,808.372,90.585,580.598,1557.5,-6339.375,-3543.75,1,0,0,1619604434.4
45,2021/4/28 19:07:14.5,808.311,90.585,580.659,1680.0,-6553.75,-3504.375,1,0,0,1619604434.5
46,2021/4/28 19:07:14.6,808.25,90.707,580.598,1618.75,-6698.125,-3425.625,1,0,0,1619604434.6
47,2021/4/28 19:07:14.7,808.25,90.89,580.72,1553.125,-6181.875,-3430.0,1,0,0,1619604434.7
48,2021/4/28 19:07:14.8,808.189,90.89,580.781,1684.375,-6422.5,-3482.5,1,0,0,1619604434.8
49,2021/4/28 19:07:14.9,808.067,91.012,580.781,1675.625,-6212.5,-3561.25,1,0,0,1619604434.9
50,2021/4/28 19:07:15.0,808.128,91.012,580.537,1500.625,-6028.75,-3443.125,1,0,0,1619604435.0
51,2021/4/28 19:07:15.1,808.067,90.951,580.476,1553.125,-5923.75,-3421.25,1,0,0,1619604435.1
52,2021/4/28 19:07:15.2,808.006,90.951,580.598,1553.125,-6763.75,-3495.625,1,0,0,1619604435.2
53,2021/4/28 19:07:15.3,807.945,90.951,580.72,1557.5,-6186.25,-3692.5,1,0,0,1619604435.3
54,2021/4/28 19:07:15.4,808.189,91.012,580.72,1631.875,-6483.75,-3596.25,1,0,0,1619604435.4
55,2021/4/28 19:07:15.5,808.189,90.951,580.72,1636.25,-5757.5,-3478.125,1,0,0,1619604435.5
56,2021/4/28 19:07:15.6,808.128,90.829,580.72,1658.125,-6470.625,-3491.25,1,0,0,1619604435.6
57,2021/4/28 19:07:15.7,808.189,90.768,580.72,1627.5,-6505.625,-3425.625,1,0,0,1619604435.7
58,2021/4/28 19:07:15.8,808.006,90.89,580.72,1548.75,-6466.25,-3395.0,1,0,0,1619604435.8
59,2021/4/28 19:07:15.9,808.006,90.951,580.659,1561.875,-6313.125,-3399.375,1,0,0,1619604435.9
60,2021/4/28 19:07:16.0,808.067,90.951,580.72,1553.125,-6378.75,-3403.75,1,0,0,1619604436.0
61,2021/4/28 19:07:16.1,808.067,90.829,580.415,1575.0,-6343.75,-3434.375,1,0,0,1619604436.1
62,2021/4/28 19:07:16.2,808.067,90.89,580.415,1623.125,-5713.75,-3526.25,1,0,0,1619604436.2
63,2021/4/28 19:07:16.3,808.067,90.89,580.415,1636.25,-6413.75,-3465.0,1,0,0,1619604436.3
64,2021/4/28 19:07:16.4,808.006,91.012,580.415,1623.125,-6689.375,-3526.25,1,0,0,1619604436.4
65,2021/4/28 19:07:16.5,808.006,90.89,580.476,1575.0,-6418.125,-3451.875,1,0,0,1619604436.5
66,2021/4/28 19:07:16.6,808.067,90.951,580.415,1522.5,-6387.5,-3290.0,1,0,0,1619604436.6
67,2021/4/28 19:07:16.7,808.25,90.89,580.354,1605.625,-6098.75,-3530.625,1,0,0,1619604436.7
68,2021/4/28 19:07:16.8,808.433,90.951,580.232,1618.75,-6168.75,-3434.375,1,0,0,1619604436.8
69,2021/4/28 19:07:16.9,808.555,90.89,580.11,1614.375,-6317.5,-3469.375,1,0,0,1619604436.9
70,2021/4/28 19:07:17.0,808.555,90.951,580.171,1561.875,-6807.5,-3447.5,1,0,0,1619604437.0
71,2021/4/28 19:07:17.1,808.494,91.134,580.232,1522.5,-5823.125,-3486.875,1,0,0,1619604437.1
72,2021/4/28 19:07:17.2,808.738,91.073,580.293,1627.5,-6650.0,-3434.375,1,0,0,1619604437.2
73,2021/4/28 19:07:17.3,808.799,91.012,580.171,1592.5,-6396.25,-3473.75,1,0,0,1619604437.3
74,2021/4/28 19:07:17.4,808.86,91.012,580.11,1601.25,-6273.75,-3486.875,1,0,0,1619604437.4
75,2021/4/28 19:07:17.5,808.799,90.951,580.049,1736.875,-6339.375,-3626.875,1,0,0,1619604437.5
76,2021/4/28 19:07:17.6,808.555,90.89,579.805,1561.875,-6435.625,-3412.5,1,0,0,1619604437.6
77,2021/4/28 19:07:17.7,808.372,90.829,579.866,1561.875,-6501.25,-3395.0,1,0,0,1619604437.7
78,2021/4/28 19:07:17.8,808.128,90.829,579.988,1548.75,-6002.5,-3513.125,1,0,0,1619604437.8
79,2021/4/28 19:07:17.9,807.762,90.951,580.232,1675.625,-6523.125,-3600.625,1,0,0,1619604437.9
80,2021/4/28 19:07:18.0,807.701,90.951,580.354,1566.25,-6190.625,-3456.25,1,0,0,1619604438.0
81,2021/4/28 19:07:18.1,807.701,90.951,580.293,1540.0,-6453.125,-3465.0,1,0,0,1619604438.1
82,2021/4/28 19:07:18.2,807.701,90.829,580.354,1553.125,-6461.875,-3425.625,1,0,0,1619604438.2
83,2021/4/28 19:07:18.3,807.762,90.768,580.415,1575.0,-6370.0,-3495.625,1,0,0,1619604438.3
84,2021/4/28 19:07:18.4,807.762,90.768,580.293,1653.75,-6864.375,-3504.375,1,0,0,1619604438.4
85,2021/4/28 19:07:18.5,807.518,90.829,580.537,1601.25,-6545.0,-3486.875,1,0,0,1619604438.5
86,2021/4/28 19:07:18.6,807.762,91.378,581.94,1570.625,-6431.25,-3539.375,1,0,0,1619604438.6
87,2021/4/28 19:07:18.7,807.457,91.195,581.391,1693.125,-6724.375,-3517.5,1,0,0,1619604438.7
88,2021/4/28 19:07:18.8,807.64,90.951,580.598,1561.875,-6645.625,-3395.0,1,0,0,1619604438.8
89,2021/4/28 19:07:18.9,807.64,91.012,580.781,1548.75,-6776.875,-3556.875,1,0,0,1619604438.9
90,2021/4/28 19:12:20.0,-311.893,313.479,372.161,24381.875,-55698.125,52128.125,1,0,0,1619604740.0
91,2021/4/28 19:12:20.1,-292.312,338.367,391.742,24740.625,10495.625,-5127.5,1,0,0,1619604740.1
92,2021/4/28 19:12:20.2,-263.642,368.44,394.975,10268.125,5582.5,-17272.5,1,0,0,1619604740.2
93,2021/4/28 19:12:20.3,-240.34,399.672,396.195,1548.75,113.75,-9086.875,1,0,0,1619604740.3
94,2021/4/28 19:12:20.4,-202.276,461.038,413.275,-678.125,-7748.125,-4042.5,1,0,0,1619604740.4
95,2021/4/28 19:12:20.5,-187.209,484.218,421.937,-2226.875,5840.625,3548.125,1,0,0,1619604740.5
96,2021/4/28 19:12:20.6,-172.996,508.801,426.329,-17972.5,-11449.375,2664.375,1,0,0,1619604740.6
97,2021/4/28 19:12:20.7,-136.823,552.05,441.457,13326.25,10434.375,-11589.375,1,0,0,1619604740.7
98,2021/4/28 19:12:20.8,-126.331,576.084,445.3,-24338.125,-27746.25,9060.625,1,0,0,1619604740.8
99,2021/4/28 19:12:20.9,-112.301,617.015,425.841,11729.375,-2646.875,-19018.125,1,0,0,1619604740.9
100,2021/4/28 19:12:21.0,-96.136,660.935,402.356,20995.625,-30677.5,32620.0,1,0,0,1619604741.0
101,2021/4/28 19:12:21.1,-58.804,674.721,417.484,16135.0,-10521.875,-2248.75,1,0,0,1619604741.1
102,2021/4/28 19:12:21.2,-49.288,684.176,422.913,16734.375,14087.5,-3731.875,1,0,0,1619604741.2
103,2021/4/28 19:12:21.3,-41.48,697.291,425.414,-1198.75,-10027.5,-5070.625,1,0,0,1619604741.3
104,2021/4/28 19:12:21.4,-30.195,708.698,427.549,6111.875,-4646.25,-8736.875,1,0,0,1619604741.4
105,2021/4/28 19:12:21.5,-26.108,725.717,433.405,-2375.625,-19516.875,34173.125,1,0,0,1619604741.5
106,2021/4/28 19:12:21.6,-18.544,726.876,440.42,3753.75,-8483.125,-17.5,1,0,0,1619604741.6
107,2021/4/28 19:12:21.7,-10.797,734.318,447.374,10390.625,29216.25,-14275.625,1,0,0,1619604741.7
108,2021/4/28 19:12:21.8,4.148,759.023,459.574,23590.0,10661.875,-23143.75,1,0,0,1619604741.8
109,2021/4/28 19:12:21.9,4.88,776.469,461.404,16485.0,-4370.625,4978.75,1,0,0,1619604741.9
110,2021/4/28 19:12:22.0,0.183,790.011,453.718,18151.875,-3539.375,-2848.125,1,0,0,1619604742.0
111,2021/4/28 19:12:22.1,-2.44,798.917,442.86,-6930.0,-16296.875,15395.625,1,0,0,1619604742.1
112,2021/4/28 19:12:22.2,11.346,808.067,446.459,13492.5,-11156.25,34286.875,1,0,0,1619604742.2
113,2021/4/28 19:12:22.3,14.64,810.263,448.228,-3399.375,-21459.375,-6741.875,1,0,0,1619604742.3
114,2021/4/28 19:12:22.4,23.607,809.531,448.594,-1706.25,20444.375,-22203.125,1,0,0,1619604742.4
115,2021/4/28 19:12:22.5,19.642,816.363,434.93,-22360.625,-48282.5,8137.5,1,0,0,1619604742.5
116,2021/4/28 19:12:22.6,28.365,815.997,437.004,4331.25,18051.25,-26936.875,1,0,0,1619604742.6
117,2021/4/28 19:12:22.7,40.687,834.846,421.205,-40149.375,-14651.875,6251.875,1,0,0,1619604742.7
118,2021/4/28 19:12:22.8,55.815,852.109,410.774,-37988.125,-46331.25,-3399.375,1,0,0,1619604742.8
119,2021/4/28 19:12:22.9,50.203,827.587,431.514,13580.0,-4808.125,12919.375,1,0,0,1619604742.9
120,2021/4/28 19:12:23.0,51.057,832.406,434.32,-1881.25,9384.375,-16244.375,1,0,0,1619604743.0
121,2021/4/28 19:12:23.1,50.691,848.144,435.601,10495.625,10600.625,-24998.75,1,0,0,1619604743.1
122,2021/4/28 19:12:23.2,54.107,853.207,438.285,5263.125,-3123.75,-4068.75,1,0,0,1619604743.2
123,2021/4/28 19:12:23.3,66.673,849.669,445.727,9953.125,-4921.875,1111.25,1,0,0,1619604743.3
124,2021/4/28 19:12:23.4,76.555,842.837,451.461,16419.375,1693.125,-2743.125,1,0,0,1619604743.4
125,2021/4/28 19:12:23.5,80.52,838.811,457.439,10075.625,7713.125,-4585.0,1,0,0,1619604743.5
126,2021/4/28 19:12:23.6,88.999,836.127,460.062,13431.25,4672.5,-4515.0,1,0,0,1619604743.6
127,2021/4/28 19:12:23.7,92.72,838.14,459.513,5188.75,-717.5,-4169.375,1,0,0,1619604743.7
128,2021/4/28 19:12:23.8,95.77,841.251,458.354,1465.625,-6033.125,-691.25,1,0,0,1619604743.8
129,2021/4/28 19:12:23.9,100.894,842.959,458.598,1413.125,-7901.25,-4690.0,1,0,0,1619604743.9
130,2021/4/28 19:12:24.0,102.602,839.177,463.417,14345.625,-9428.125,11935.0,1,0,0,1619604744.0
131,2021/4/28 19:12:24.1,98.393,838.75,462.014,-7599.375,-22898.75,-5560.625,1,0,0,1619604744.1
132,2021/4/28 19:12:24.2,104.31,839.848,460.184,2318.75,14616.875,-24180.625,1,0,0,1619604744.2
133,2021/4/28 19:12:24.3,106.262,841.8,458.049,5311.25,-6650.0,4309.375,1,0,0,1619604744.3
134,2021/4/28 19:12:24.4,110.654,845.155,453.962,-24106.25,-36732.5,3548.125,1,0,0,1619604744.4
135,2021/4/28 19:12:24.5,118.401,851.194,456.951,16843.75,-1006.25,-21861.875,1,0,0,1619604744.5
136,2021/4/28 19:12:24.6,119.56,858.148,459.818,29365.0,18418.75,-31399.375,1,0,0,1619604744.6
137,2021/4/28 19:12:24.7,119.499,856.562,456.829,-38250.625,-61280.625,-4580.625,1,0,0,1619604744.7
138,2021/4/28 19:12:24.8,132.919,853.329,456.341,2034.375,-332.5,-31661.875,1,0,0,1619604744.8
139,2021/4/28 19:12:24.9,134.932,860.527,450.973,19000.625,-18366.25,54718.125,1,0,0,1619604744.9
140,2021/4/28 19:12:25.0,137.677,862.601,449.875,-31661.875,-36141.875,64203.125,1,0,0,1619604745.0
141,2021/4/28 19:12:25.1,168.299,843.996,463.966,8850.625,8583.75,2550.625,1,0,0,1619604745.1
142,2021/4/28 19:12:25.2,176.168,841.739,466.955,8474.375,2191.875,-3670.625,1,0,0,1619604745.2
143,2021/4/28 19:12:25.3,182.634,840.519,469.822,1570.625,-105.0,1701.875,1,0,0,1619604745.3
144,2021/4/28 19:12:25.4,190.198,838.506,472.994,2555.0,997.5,-6510.0,1,0,0,1619604745.4
145,2021/4/28 19:12:25.5,201.788,835.029,478.972,7201.25,809.375,-3119.375,1,0,0,1619604745.5
146,2021/4/28 19:12:25.6,205.875,832.894,482.449,8176.875,2677.5,-6282.5,1,0,0,1619604745.6
147,2021/4/28 19:12:25.7,209.291,831.918,484.828,5263.125,3259.375,-4169.375,1,0,0,1619604745.7
148,2021/4/28 19:12:25.8,214.842,829.722,489.891,6059.375,2633.75,-6103.125,1,0,0,1619604745.8
149,2021/4/28 19:12:25.9,216.123,829.6,491.66,4956.875,201.25,-7341.25,1,0,0,1619604745.9
150,2021/4/28 19:12:26.0,216.123,830.027,492.697,288.75,-4239.375,-4436.25,1,0,0,1619604746.0
151,2021/4/28 19:12:26.1,216.611,830.088,493.673,2743.125,-3211.25,-4423.125,1,0,0,1619604746.1
152,2021/4/28 19:12:26.2,217.709,830.332,496.357,39.375,-5276.25,-2506.875,1,0,0,1619604746.2
153,2021/4/28 19:12:26.3,217.77,830.393,498.004,1303.75,-2476.25,-4440.625,1,0,0,1619604746.3
154,2021/4/28 19:12:26.4,218.197,830.027,499.529,1334.375,-4038.125,-2345.0,1,0,0,1619604746.4
155,2021/4/28 19:12:26.5,218.868,829.722,502.518,831.25,-4930.625,-2826.25,1,0,0,1619604746.5
156,2021/4/28 19:12:26.6,218.441,829.783,503.982,2187.5,-4733.75,-4720.625,1,0,0,1619604746.6
157,2021/4/28 19:12:26.7,218.319,829.905,505.446,1150.625,-5845.0,-4051.25,1,0,0,1619604746.7
158,2021/4/28 19:12:26.8,218.014,829.783,506.849,3587.5,-2940.0,-5481.875,1,0,0,1619604746.8
159,2021/4/28 19:12:26.9,215.33,830.149,509.045,441.875,-1890.0,-5162.5,1,0,0,1619604746.9
160,2021/4/28 19:12:27.0,213.988,829.966,510.631,406.875,-1741.25,-7367.5,1,0,0,1619604747.0
161,2021/4/28 19:12:27.1,212.28,829.722,512.095,367.5,949.375,-8036.875,1,0,0,1619604747.1
162,2021/4/28 19:12:27.2,209.596,830.088,513.193,1890.0,-118.125,-8386.875,1,0,0,1619604747.2
163,2021/4/28 19:12:27.3,213.5,834.541,524.905,-12092.5,-9804.375,-17023.125,1,0,0,1619604747.3
164,2021/4/28 19:12:27.4,225.944,837.164,542.351,23821.875,104370.0,-96066.25,1,0,0,1619604747.4
165,2021/4/28 19:12:27.5,212.829,832.528,543.754,5433.75,123042.5,-35975.625,1,0,0,1619604747.5
166,2021/4/28 19:12:27.6,136.823,841.19,507.825,-18606.875,-43903.125,33040.0,1,0,0,1619604747.6
167,2021/4/28 19:12:27.7,116.754,838.201,502.579,-22076.25,6483.75,-22618.75,1,0,0,1619604747.7
168,2021/4/28 19:12:27.8,96.197,832.833,504.531,-3438.75,-12490.625,-19210.625,1,0,0,1619604747.8
169,2021/4/28 19:12:27.9,75.823,831.613,510.082,-7218.75,-31955.0,-12989.375,1,0,0,1619604747.9
170,2021/4/28 19:12:28.0,50.569,830.759,520.879,-14371.875,-4506.25,-23248.75,1,0,0,1619604748.0
171,2021/4/28 19:12:28.1,35.685,828.502,526.308,-15395.625,-2559.375,-31408.125,1,0,0,1619604748.1
172,2021/4/28 19:12:28.2,21.716,823.988,533.933,-20317.5,-13811.875,-14122.5,1,0,0,1619604748.2
173,2021/4/28 19:12:28.3,8.235,817.278,542.046,-21043.75,-17364.375,-5013.75,1,0,0,1619604748.3
174,2021/4/28 19:12:28.4,-15.616,802.211,559.126,-9813.125,-12744.375,-6444.375,1,0,0,1619604748.4
175,2021/4/28 19:12:28.5,-55.571,770.247,598.471,-3395.0,-10066.875,-8478.75,1,0,0,1619604748.5
176,2021/4/28 19:12:28.6,-393.145,786.839,364.78,18615.625,5433.75,306.25,1,0,0,1619604748.6
177,2021/4/28 19:12:28.7,-375.089,838.262,371.063,1561.875,78.75,-5280.625,1,0,0,1619604748.7
178,2021/4/28 19:12:28.8,-64.172,760.121,607.377,5753.125,-11195.625,-6146.875,1,0,0,1619604748.8
179,2021/4/28 19:12:28.9,-72.285,751.276,615.734,16686.25,-7441.875,-8216.25,1,0,0,1619604748.9
180,2021/4/28 19:17:30.0,-60.146,650.26,701.622,-756.875,-3508.75,-8028.125,1,0,0,1619605050.0
181,2021/4/28 19:17:30.1,-72.041,663.619,693.143,673.75,-4506.25,-5604.375,1,0,0,1619605050.1
182,2021/4/28 19:17:30.2,-78.08,670.39,688.751,-1251.25,-6838.125,-3084.375,1,0,0,1619605050.2
183,2021/4/28 19:17:30.3,-83.814,675.697,685.396,231.875,-6492.5,-1124.375,1,0,0,1619605050.3
184,2021/4/28 19:17:30.4,-93.94,685.762,678.991,1417.5,-11480.0,-1776.25,1,0,0,1619605050.4
185,2021/4/28 19:17:30.5,-98.088,690.581,676.246,2139.375,-15710.625,65.625,1,0,0,1619605050.5
186,2021/4/28 19:17:30.6,-99.674,694.851,673.867,1443.75,-14323.75,1789.375,1,0,0,1619605050.6
187,2021/4/28 19:17:30.7,-101.016,698.633,672.281,1942.5,-12368.125,1369.375,1,0,0,1619605050.7
188,2021/4/28 19:17:30.8,-103.883,705.953,669.109,5993.75,109.375,-4663.75,1,0,0,1619605050.8
189,2021/4/28 19:17:30.9,-105.713,710.345,666.547,5862.5,-1277.5,-4965.625,1,0,0,1619605050.9
190,2021/4/28 19:17:31.0,-108.153,714.493,663.924,5801.25,476.875,-4217.5,1,0,0,1619605051.0
191,2021/4/28 19:17:31.1,-110.105,717.97,661.545,6947.5,910.0,-3276.875,1,0,0,1619605051.1
192,2021/4/28 19:17:31.2,-116.388,726.632,650.748,9296.875,-2541.875,-8828.75,1,0,0,1619605051.2
193,2021/4/28 19:17:31.3,-121.329,730.658,646.722,5149.375,-7227.5,-8286.25,1,0,0,1619605051.3
194,2021/4/28 19:17:31.4,-127.673,739.198,646.356,4987.5,-8128.75,-3298.75,1,0,0,1619605051.4
195,2021/4/28 19:17:31.5,-138.653,751.093,640.317,1483.125,-16856.875,-385.0,1,0,0,1619605051.5
196,2021/4/28 19:17:31.6,-139.263,755.18,635.62,1041.25,-12862.5,-393.75,1,0,0,1619605051.6
197,2021/4/28 19:17:31.7,-138.714,758.047,631.594,-12433.75,-28126.875,1456.875,1,0,0,1619605051.7
198,2021/4/28 19:17:31.8,-136.762,757.925,630.679,6208.125,-11948.125,-10023.125,1,0,0,1619605051.8
199,2021/4/28 19:17:31.9,-133.346,760.67,624.884,7765.625,-6781.25,-5586.875,1,0,0,1619605051.9
200,2021/4/28 19:17:32.0,-138.409,765.611,617.198,-301.875,-105.0,2909.375,1,0,0,1619605052.0
201,2021/4/28 19:17:32.1,-142.618,769.515,613.111,1666.875,-901.25,5232.5,1,0,0,1619605052.1
202,2021/4/28 19:17:32.2,-142.984,773.175,612.196,6444.375,-2703.75,5280.625,1,0,0,1619605052.2
203,2021/4/28 19:17:32.3,-142.435,780.434,610.305,-525.0,-21385.0,-10123.75,1,0,0,1619605052.3
204,2021/4/28 19:17:32.4,-138.775,780.251,609.878,616.875,-5993.75,-7525.0,1,0,0,1619605052.4
205,2021/4/28 19:17:32.5,-137.494,783.667,608.963,-1155.0,-7945.0,3281.25,1,0,0,1619605052.5
206,2021/4/28 19:17:32.6,-126.392,809.47,611.586,-33831.875,-81458.125,3915.625,1,0,0,1619605052.6
207,2021/4/28 19:17:32.7,-107.604,799.283,625.921,27715.625,-7809.375,66316.25,1,0,0,1619605052.7
208,2021/4/28 19:17:32.8,-82.716,798.551,638.304,18812.5,24657.5,14463.75,1,0,0,1619605052.8
209,2021/4/28 19:17:32.9,-83.814,799.344,636.291,11593.75,16725.625,-15325.625,1,0,0,1619605052.9
210,2021/4/28 19:17:33.0,-83.204,800.137,631.716,11418.75,5175.625,-10745.0,1,0,0,1619605053.0
211,2021/4/28 19:17:33.1,-83.692,805.932,625.128,9638.125,-6422.5,-8986.25,1,0,0,1619605053.1
212,2021/4/28 19:17:33.2,-87.352,811.971,614.758,8168.125,-13426.875,-3906.875,1,0,0,1619605053.2
213,2021/4/28 19:17:33.3,-91.927,812.154,609.634,4025.0,-14310.625,-2318.75,1,0,0,1619605053.3
214,2021/4/28 19:17:33.4,-88.389,818.071,608.231,10718.75,-980.0,-6116.25,1,0,0,1619605053.4
215,2021/4/28 19:17:33.5,-92.354,821.609,607.499,11865.0,-6050.625,-4926.25,1,0,0,1619605053.5
216,2021/4/28 19:17:33.6,-96.868,823.927,606.767,354.375,805.0,135.625,1,0,0,1619605053.6
217,2021/4/28 19:17:33.7,-86.559,821.426,608.841,-136675.0,-85141.875,47320.0,1,0,0,1619605053.7
218,2021/4/28 19:17:33.8,-67.649,797.758,625.311,-46130.0,-28367.5,5687.5,1,0,0,1619605053.8
219,2021/4/28 19:17:33.9,-56.425,777.811,637.694,4856.25,-5193.125,-20199.375,1,0,0,1619605053.9
220,2021/4/28 19:17:34.0,-48.19,761.89,649.528,-5906.25,-19228.125,-11515.0,1,0,0,1619605054.0
221,2021/4/28 19:17:34.1,-25.315,722.179,674.843,-3666.25,-1907.5,-12853.75,1,0,0,1619605054.1
222,2021/4/28 19:17:34.2,-15.799,708.942,686.372,2222.5,-6418.125,-9988.125,1,0,0,1619605054.2
223,2021/4/28 19:17:34.3,-6.588,697.718,697.779,5783.75,-8041.25,-4265.625,1,0,0,1619605054.3
224,2021/4/28 19:17:34.4,1.891,686.372,706.807,11882.5,1168.125,288.75,1,0,0,1619605054.4
225,2021/4/28 19:17:34.5,18.788,669.353,722.667,9458.75,4462.5,-1006.25,1,0,0,1619605054.5
226,2021/4/28 19:17:34.6,24.827,662.094,729.865,4939.375,-1456.875,-3101.875,1,0,0,1619605054.6
227,2021/4/28 19:17:34.7,31.049,654.896,736.636,4956.875,-5884.375,-1706.25,1,0,0,1619605054.7
228,2021/4/28 19:17:34.8,40.626,644.526,747.128,3119.375,-5013.75,-5035.625,1,0,0,1619605054.8
229,2021/4/28 19:17:34.9,44.042,639.463,752.313,2336.25,-6352.5,-4134.375,1,0,0,1619605054.9
230,2021/4/28 19:17:35.0,47.763,634.766,757.01,3202.5,-6199.375,-3924.375,1,0,0,1619605055.0
231,2021/4/28 19:17:35.1,51.789,630.74,760.792,3819.375,-4790.625,-4265.625,1,0,0,1619605055.1
232,2021/4/28 19:17:35.2,58.621,624.335,766.892,2856.875,-6033.125,-3517.5,1,0,0,1619605055.2
233,2021/4/28 19:17:35.3,61.122,620.98,769.881,3556.875,-5040.0,-3836.875,1,0,0,1619605055.3
234,2021/4/28 19:17:35.4,64.05,618.113,772.382,4151.875,-4786.25,-2625.0,1,0,0,1619605055.4
235,2021/4/28 19:17:35.5,70.15,615.978,778.604,4278.75,-6370.0,-10049.375,1,0,0,1619605055.5
236,2021/4/28 19:17:35.6,76.86,612.684,786.351,-5293.75,704.375,-20116.25,1,0,0,1619605055.6
237,2021/4/28 19:17:35.7,80.032,594.384,795.44,-15732.5,20912.5,-26468.75,1,0,0,1619605055.7
238,2021/4/28 19:17:35.8,78.812,579.256,795.989,40368.125,114218.125,-36500.625,1,0,0,1619605055.8
239,2021/4/28 19:17:35.9,-6.527,586.881,753.228,36382.5,12670.0,3600.625,1,0,0,1619605055.9
240,2021/4/28 19:17:36.0,-41.297,601.704,724.253,48024.375,-79025.625,-424.375,1,0,0,1619605056.0
241,2021/4/28 19:17:36.1,-50.02,614.148,715.53,43811.25,-44065.0,29601.25,1,0,0,1619605056.1
242,2021/4/28 19:17:36.2,-51.423,623.176,716.75,34409.375,14170.625,9301.25,1,0,0,1619605056.2
243,2021/4/28 19:17:36.3,-84.668,646.966,700.219,-7529.375,4904.375,5547.5,1,0,0,1619605056.3
244,2021/4/28 19:17:36.4,-98.088,655.567,693.082,-96.25,-18646.25,11405.625,1,0,0,1619605056.4
245,2021/4/28 19:17:36.5,-103.151,658.007,690.337,13886.25,-9266.25,-9506.875,1,0,0,1619605056.5
246,2021/4/28 19:17:36.6,-129.259,666.791,672.586,2983.75,-20181.875,-9970.625,1,0,0,1619605056.6
247,2021/4/28 19:17:36.7,-143.594,673.257,661.728,-1334.375,-695.625,-7700.0,1,0,0,1619605056.7
248,2021/4/28 19:17:36.8,-152.073,678.991,655.323,7778.75,-13190.625,-2874.375,1,0,0,1619605056.8
249,2021/4/28 19:17:36.9,-158.173,680.882,647.82,8496.25,1802.5,-5788.125,1,0,0,1619605056.9
250,2021/4/28 19:17:37.0,-171.288,704.489,630.679,-9025.625,-32340.0,-1470.0,1,0,0,1619605057.0
251,2021/4/28 19:17:37.1,-167.628,717.665,627.812,96.25,-44318.75,-10355.625,1,0,0,1619605057.1
252,2021/4/28 19:17:37.2,-166.835,719.19,631.106,6343.75,-20391.875,4803.75,1,0,0,1619605057.2
253,2021/4/28 19:17:37.3,-163.968,724.192,629.886,1671.25,-4322.5,14358.75,1,0,0,1619605057.3
254,2021/4/28 19:17:37.4,-162.687,736.88,622.993,3290.0,-945.0,-12473.125,1,0,0,1619605057.4
255,2021/4/28 19:17:37.5,-165.798,740.296,620.675,1146.25,-7039.375,-9673.125,1,0,0,1619605057.5
256,2021/4/28 19:17:37.6,-168.604,742.797,618.662,8085.0,686.875,-9156.875,1,0,0,1619605057.6
257,2021/4/28 19:17:37.7,-172.508,749.873,611.708,5346.25,-4204.375,-6103.125,1,0,0,1619605057.7
258,2021/4/28 19:17:37.8,-173.362,755.607,609.085,9073.75,-1015.0,-8601.25,1,0,0,1619605057.8
259,2021/4/28 19:17:37.9,-175.314,761.341,606.157,2975.0,-8483.125,-3845.625,1,0,0,1619605057.9
260,2021/4/28 19:17:38.0,-177.571,763.781,600.301,-3469.375,-5665.625,-3583.125,1,0,0,1619605058.0
261,2021/4/28 19:17:38.1,-171.41,765.489,596.153,-245.0,-4405.625,4331.25,1,0,0,1619605058.1
262,2021/4/28 19:17:38.2,-175.131,768.417,592.249,1373.75,481.25,-1916.25,1,0,0,1619605058.2
263,2021/4/28 19:17:38.3,-179.645,771.894,588.711,4646.25,-6903.75,3250.625,1,0,0,1619605058.3
264,2021/4/28 19:17:38.4,-184.342,775.737,586.698,4095.0,-2839.375,-1452.5,1,0,0,1619605058.4
265,2021/4/28 19:17:38.5,-190.991,789.34,583.465,1413.125,-22544.375,-2891.875,1,0,0,1619605058.5
266,2021/4/28 19:17:38.6,13.298,378.261,546.072,1627.5,-5355.0,-4305.0,1,0,0,1619605058.6
267,2021/4/28 19:17:38.7,25.498,513.132,675.087,5858.125,-4160.625,-2152.5,1,0,0,1619605058.7
268,2021/4/28 19:17:38.8,-199.409,787.51,585.295,599.375,-12884.375,-3211.25,1,0,0,1619605058.8
269,2021/4/28 19:17:38.9,-196.542,789.706,582.672,-529.375,-10281.25,-2673.125,1,0,0,1619605058.9
270,2021/4/28 19:22:40.0,-650.748,498.858,543.449,6610.625,-476.875,-3937.5,1,1,0,1619605360.0
271,2021/4/28 19:22:40.1,-653.371,498.004,543.632,3495.625,-2231.25,-4322.5,1,1,0,1619605360.1
272,2021/4/28 19:22:40.2,-657.824,497.211,544.059,2345.0,-6505.625,-4130.0,1,1,0,1619605360.2
273,2021/4/28 19:22:40.3,-659.044,494.893,545.218,-6746.25,-24307.5,-831.25,1,1,0,1619605360.3
274,2021/4/28 19:22:40.4,-660.569,487.756,553.819,-14245.0,54053.125,3163.125,1,1,0,1619605360.4
275,2021/4/28 19:22:40.5,-664.351,479.155,538.691,-34536.25,143276.875,74501.875,1,1,0,1619605360.5
276,2021/4/28 19:22:40.6,-672.342,498.858,496.906,13387.5,-60965.625,126420.0,1,1,0,1619605360.6
277,2021/4/28 19:22:40.7,-666.913,521.855,466.772,12827.5,-58498.125,67970.0,1,1,0,1619605360.7
278,2021/4/28 19:22:40.8,-658.495,540.216,452.803,3710.0,-28140.0,11956.875,1,1,0,1619605360.8
279,2021/4/28 19:22:40.9,-646.966,568.947,426.512,16471.875,-7770.0,5534.375,1,1,0,1619605360.9
280,2021/4/28 19:22:41.0,-639.524,585.478,409.31,-3710.0,-914.375,-1268.75,1,1,0,1619605361.0
281,2021/4/28 19:22:41.1,-631.472,600.728,406.138,13553.75,4917.5,7805.0,1,1,0,1619605361.1
282,2021/4/28 19:22:41.2,-624.701,615.49,401.929,10556.875,-3469.375,5048.75,1,1,0,1619605361.2
283,2021/4/28 19:22:41.3,-612.013,639.585,383.446,-39121.25,-18270.0,-31955.0,1,1,0,1619605361.3
284,2021/4/28 19:22:41.4,-609.573,644.038,384.483,21192.5,18156.25,6295.625,1,1,0,1619605361.4
285,2021/4/28 19:22:41.5,-606.096,656.299,374.174,16078.125,-4239.375,2498.125,1,1,0,1619605361.5
286,2021/4/28 19:22:41.6,-598.105,676.124,359.839,3053.75,-6562.5,-7463.75,1,1,0,1619605361.6
287,2021/4/28 19:22:41.7,-594.994,683.261,354.715,2730.0,-389.375,-5639.375,1,1,0,1619605361.7
288,2021/4/28 19:22:41.8,-592.92,689.239,350.689,12118.75,9695.0,3893.75,1,1,0,1619605361.8
289,2021/4/28 19:22:41.9,-589.321,695.522,344.65,13374.375,6711.25,-5145.0,1,1,0,1619605361.9
290,2021/4/28 19:22:42.0,-582.306,702.049,333.426,-14083.125,-28000.0,-11830.0,1,1,0,1619605362.0
291,2021/4/28 19:22:42.1,-584.624,704.916,324.093,14988.75,463.75,-6803.125,1,1,0,1619605362.1
292,2021/4/28 19:22:42.2,-585.844,711.687,313.296,2152.5,-3692.5,1688.75,1,1,0,1619605362.2
293,2021/4/28 19:22:42.3,-578.524,720.959,314.516,-3635.625,-16528.75,-1802.5,1,1,0,1619605362.3
294,2021/4/28 19:22:42.4,-566.324,742.126,313.845,-3136.875,-20304.375,1246.875,1,1,0,1619605362.4
295,2021/4/28 19:22:42.5,-561.017,745.725,312.686,-21345.625,-45018.75,-9550.625,1,1,0,1619605362.5
296,2021/4/28 19:22:42.6,-557.174,740.357,322.446,16572.5,-6265.0,8662.5,1,1,0,1619605362.6
297,2021/4/28 19:22:42.7,-557.418,748.348,300.364,-10220.0,-6234.375,13243.125,1,1,0,1619605362.7
298,2021/4/28 19:22:42.8,-556.869,754.265,290.116,1448.125,-17740.625,2581.25,1,1,0,1619605362.8
299,2021/4/28 19:22:42.9,-550.281,761.158,292.739,9047.5,-389.375,-2957.5,1,1,0,1619605362.9
300,2021/4/28 19:22:43.0,-546.56,767.38,290.421,-2922.5,-10263.75,2126.25,1,1,0,1619605363.0
301,2021/4/28 19:22:43.1,-528.931,780.8,277.245,-62496.875,-49503.125,-36246.875,1,1,0,1619605363.1
302,2021/4/28 19:22:43.2,-525.271,782.63,273.585,-127325.625,-76339.375,-69243.125,1,1,0,1619605363.2
303,2021/4/28 19:22:43.3,-524.112,767.441,293.654,-110626.25,-67738.125,-69076.875,1,1,0,1619605363.3
304,2021/4/28 19:22:43.4,-523.502,743.346,326.167,-66377.5,-45543.75,-52797.5,1,1,0,1619605363.4
305,2021/4/28 19:22:43.5,-517.89,698.267,386.13,6365.625,-2887.5,-22172.5,1,1,0,1619605363.5
306,2021/4/28 19:22:43.6,-517.219,679.357,409.737,4869.375,-3915.625,-14726.25,1,1,0,1619605363.6
307,2021/4/28 19:22:43.7,-517.768,660.752,432.124,4550.0,-6820.625,-15951.25,1,1,0,1619605363.7
308,2021/4/28 19:22:43.8,-520.208,628.544,470.127,7498.75,-1710.625,-12858.125,1,1,0,1619605363.8
309,2021/4/28 19:22:43.9,-522.038,613.172,487.512,9178.75,-5355.0,-17574.375,1,1,0,1619605363.9
310,2021/4/28 19:22:44.0,-523.746,599.325,503.189,14656.25,-6265.0,-18493.125,1,1,0,1619605364.0
311,2021/4/28 19:22:44.1,-525.576,586.454,518.073,15295.0,-9506.875,-18313.75,1,1,0,1619605364.1
312,2021/4/28 19:22:44.2,-531.188,561.688,544.791,9629.375,-4239.375,-9038.75,1,1,0,1619605364.2
313,2021/4/28 19:22:44.3,-534.787,552.172,555.405,8395.625,-6558.125,-6103.125,1,1,0,1619605364.3
314,2021/4/28 19:22:44.4,-537.837,542.839,565.287,9415.0,-6632.5,-5840.625,1,1,0,1619605364.4
315,2021/4/28 19:22:44.5,-542.9,526.43,584.38,6378.75,-5219.375,-5915.0,1,1,0,1619605364.5
316,2021/4/28 19:22:44.6,-545.706,518.866,591.7,6190.625,-6641.25,-6085.625,1,1,0,1619605364.6
317,2021/4/28 19:22:44.7,-548.146,512.4,598.654,4738.125,-7188.125,-4860.625,1,1,0,1619605364.7
318,2021/4/28 19:22:44.8,-550.098,506.483,605.669,2218.125,6133.75,595.0,1,1,0,1619605364.8
319,2021/4/28 19:22:44.9,-556.442,496.296,615.368,1973.125,-3438.75,-2690.625,1,1,0,1619605364.9
320,2021/4/28 19:22:45.0,-558.76,492.453,619.394,2926.875,-7131.25,-2804.375,1,1,0,1619605365.0
321,2021/4/28 19:22:45.1,-561.078,489.159,623.237,3141.25,-7030.625,-1137.5,1,1,0,1619605365.1
322,2021/4/28 19:22:45.2,-563.823,485.926,626.592,3430.0,-6304.375,-2576.875,1,1,0,1619605365.2
323,2021/4/28 19:22:45.3,-569.435,479.521,632.997,1859.375,-3898.125,-3946.25,1,1,0,1619605365.3
324,2021/4/28 19:22:45.4,-572.485,476.105,635.62,3115.0,-2813.125,-4191.25,1,1,0,1619605365.4
325,2021/4/28 19:22:45.5,-575.596,472.811,637.999,2253.125,-4340.0,-3237.5,1,1,0,1619605365.5
326,2021/4/28 19:22:45.6,-579.927,467.87,642.452,3176.25,-6387.5,-3136.875,1,1,0,1619605365.6
327,2021/4/28 19:22:45.7,-582.001,465.552,644.587,3075.625,-6072.5,-3758.125,1,1,0,1619605365.7
328,2021/4/28 19:22:45.8,-583.953,463.539,646.478,3031.875,-5057.5,-2948.75,1,1,0,1619605365.8
329,2021/4/28 19:22:45.9,-585.6,462.075,648.247,2187.5,-6216.875,-2734.375,1,1,0,1619605365.9
330,2021/4/28 19:22:46.0,-588.65,459.391,650.809,2489.375,-6916.875,-2948.75,1,1,0,1619605366.0
331,2021/4/28 19:22:46.1,-589.809,458.415,651.846,1286.25,-8351.875,-2450.0,1,1,0,1619605366.1
332,2021/4/28 19:22:46.2,-591.334,457.195,652.944,1168.125,-8596.875,-3198.125,1,1,0,1619605366.2
333,2021/4/28 19:22:46.3,-592.371,455.975,654.591,358.75,-13212.5,-3465.0,1,1,0,1619605366.3
334,2021/4/28 19:22:46.4,-592.127,454.023,659.593,5166.875,-2205.0,-2852.5,1,1,0,1619605366.4
335,2021/4/28 19:22:46.5,-592.615,454.145,660.264,3010.0,-4939.375,-3403.75,1,1,0,1619605366.5
336,2021/4/28 19:22:46.6,-593.225,453.962,660.691,2471.875,-6763.75,-2738.75,1,1,0,1619605366.6
337,2021/4/28 19:22:46.7,-594.262,453.23,662.033,3023.125,-6641.25,-5241.25,1,1,0,1619605366.7
338,2021/4/28 19:22:46.8,-594.506,452.62,663.558,1671.25,-10421.25,-3626.875,1,1,0,1619605366.8
339,2021/4/28 19:22:46.9,-593.347,449.204,671.915,29006.25,34829.375,1631.875,1,1,0,1619605366.9
340,2021/4/28 19:22:47.0,-591.578,443.348,680.821,14708.75,84140.0,38609.375,1,1,0,1619605367.0
341,2021/4/28 19:22:47.1,-598.166,452.742,636.779,19573.75,43308.125,92351.875,1,1,0,1619605367.1
342,2021/4/28 19:22:47.2,-598.532,471.347,613.477,26604.375,8942.5,58642.5,1,1,0,1619605367.2
343,2021/4/28 19:22:47.3,-595.482,498.065,587.491,30708.125,8806.875,17600.625,1,1,0,1619605367.3
344,2021/4/28 19:22:47.4,-593.713,521.123,564.738,16196.25,-3119.375,2817.5,1,1,0,1619605367.4
345,2021/4/28 19:22:47.5,-589.26,556.381,526.613,6304.375,-11926.25,-6059.375,1,1,0,1619605367.5
346,2021/4/28 19:22:47.6,-586.698,570.96,510.814,5923.75,-7472.5,-3858.75,1,1,0,1619605367.6
347,2021/4/28 19:22:47.7,-584.319,584.99,495.564,4051.25,-5547.5,-2883.125,1,1,0,1619605367.7
348,2021/4/28 19:22:47.8,-581.269,612.806,466.65,573.125,-8036.875,-4847.5,1,1,0,1619605367.8
349,2021/4/28 19:22:47.9,-580.11,624.091,453.535,1916.25,-9410.625,-4283.125,1,1,0,1619605367.9
350,2021/4/28 19:27:50.0,-374.357,470.188,780.068,2100.0,-7879.375,-3521.875,1,1,0,1619605670.0
351,2021/4/28 19:27:50.1,-373.93,470.005,782.081,2970.625,-7192.5,-2773.75,1,1,0,1619605670.1
352,2021/4/28 19:27:50.2,-373.869,470.31,785.619,1553.125,-7188.125,-3902.5,1,1,0,1619605670.2
353,2021/4/28 19:27:50.3,-373.747,470.31,787.754,2463.125,-5499.375,-3500.0,1,1,0,1619605670.3
354,2021/4/28 19:27:50.4,-374.052,470.493,789.462,2056.25,-5656.875,-4480.0,1,1,0,1619605670.4
355,2021/4/28 19:27:50.5,-374.418,470.31,790.499,1811.25,-6103.125,-4418.75,1,1,0,1619605670.5
356,2021/4/28 19:27:50.6,-374.357,470.005,790.987,1163.75,-7393.75,-2362.5,1,1,0,1619605670.6
357,2021/4/28 19:27:50.7,-374.235,470.92,791.292,1111.25,-8176.875,-2419.375,1,1,0,1619605670.7
358,2021/4/28 19:27:50.8,-374.357,471.286,791.841,568.75,-7783.125,-4103.75,1,1,0,1619605670.8
359,2021/4/28 19:27:50.9,-374.54,471.103,793.305,1391.25,-6654.375,-3272.5,1,1,0,1619605670.9
360,2021/4/28 19:27:51.0,-375.76,468.724,796.477,8478.75,4042.5,-113.75,1,1,0,1619605671.0
361,2021/4/28 19:27:51.1,-376.675,470.859,795.013,4593.75,-5525.625,-5066.25,1,1,0,1619605671.1
362,2021/4/28 19:27:51.2,-377.285,471.896,795.257,2038.75,-9397.5,-5836.25,1,1,0,1619605671.2
363,2021/4/28 19:27:51.3,-378.566,470.981,798.551,13571.25,14669.375,2944.375,1,1,0,1619605671.3
364,2021/4/28 19:27:51.4,-378.444,474.763,795.867,18493.125,24430.0,-3346.875,1,1,0,1619605671.4
365,2021/4/28 19:27:51.5,-380.091,481.229,789.95,10653.125,20921.25,-18480.0,1,1,0,1619605671.5
366,2021/4/28 19:27:51.6,-382.043,484.523,784.277,63770.0,112170.625,-107826.25,1,1,0,1619605671.6
367,2021/4/28 19:27:51.7,-396.744,462.624,703.696,143342.5,143342.5,89048.75,1,1,0,1619605671.7
368,2021/4/28 19:27:51.8,-392.901,455.731,600.484,73123.75,143342.5,104597.5,1,1,0,1619605671.8
369,2021/4/28 19:27:51.9,-385.032,464.088,504.287,-9988.125,36579.375,46991.875,1,1,0,1619605671.9
370,2021/4/28 19:27:52.0,-376.797,470.249,412.482,6072.5,1968.75,35223.125,1,1,0,1619605672.0
371,2021/4/28 19:27:52.1,-361.974,480.985,235.887,-72611.875,-123567.5,-114572.5,1,1,0,1619605672.1
372,2021/4/28 19:27:52.2,-379.725,452.681,160.979,-136215.625,-143342.5,71675.625,1,1,0,1619605672.2
373,2021/4/28 19:27:52.3,-362.645,440.603,133.224,69943.125,71675.625,9305.625,1,1,0,1619605672.3
374,2021/4/28 19:27:52.4,-363.682,478.728,73.81,24180.625,142852.5,41706.875,1,1,0,1619605672.4
375,2021/4/28 19:27:52.5,-422.547,504.958,35.99,3040.625,-71846.25,63599.375,1,1,0,1619605672.5
376,2021/4/28 19:27:52.6,-423.035,514.169,57.096,7752.5,-128436.875,20755.0,1,1,0,1619605672.6
377,2021/4/28 19:27:52.7,-418.826,526.857,76.616,12512.5,-43268.75,9143.75,1,1,0,1619605672.7
378,2021/4/28 19:27:52.8,-421.144,560.712,116.205,5538.75,-10535.0,-1684.375,1,1,0,1619605672.8
379,2021/4/28 19:27:52.9,-421.205,575.84,138.226,9047.5,-5858.125,-1421.875,1,1,0,1619605672.9
380,2021/4/28 19:27:53.0,-421.205,590.968,156.099,11388.125,-4970.0,-6396.25,1,1,0,1619605673.0
381,2021/4/28 19:27:53.1,-421.754,605.181,169.092,210.0,-5180.0,-3810.625,1,1,0,1619605673.1
382,2021/4/28 19:27:53.2,-421.754,620.675,207.034,5311.25,-2410.625,-6580.0,1,1,0,1619605673.2
383,2021/4/28 19:27:53.3,-416.142,629.886,218.197,-4843.125,-12906.25,9743.125,1,1,0,1619605673.3
384,2021/4/28 19:27:53.4,-414.861,642.696,231.129,5460.0,-15470.0,-7463.75,1,1,0,1619605673.4
385,2021/4/28 19:27:53.5,-423.157,672.464,246.989,-6444.375,-15229.375,-13.125,1,1,0,1619605673.5
386,2021/4/28 19:27:53.6,-420.107,682.224,266.326,19171.25,-2983.75,4134.375,1,1,0,1619605673.6
387,2021/4/28 19:27:53.7,-417.362,688.751,282.979,-1750.0,-4655.0,5648.125,1,1,0,1619605673.7
388,2021/4/28 19:27:53.8,-415.41,698.145,289.75,5420.625,-7450.625,-2450.0,1,1,0,1619605673.8
389,2021/4/28 19:27:53.9,-407.236,724.741,289.872,-48606.25,-41632.5,-36233.75,1,1,0,1619605673.9
390,2021/4/28 19:27:54.0,-402.051,735.05,295.362,-92286.25,-63245.0,-55177.5,1,1,0,1619605674.0
391,2021/4/28 19:27:54.1,-402.966,719.678,324.398,-26783.75,-31723.125,-22216.25,1,1,0,1619605674.1
392,2021/4/28 19:27:54.2,-408.7,705.465,348.615,21113.75,2104.375,33053.125,1,1,0,1619605674.2
393,2021/4/28 19:27:54.3,-411.323,700.097,378.322,27409.375,1575.0,-4921.875,1,1,0,1619605674.3
394,2021/4/28 19:27:54.4,-410.957,705.648,383.69,9620.625,-5578.125,-1312.5,1,1,0,1619605674.4
395,2021/4/28 19:27:54.5,-410.713,709.125,392.23,7892.5,376.25,-236.25,1,1,0,1619605674.5
396,2021/4/28 19:27:54.6,-409.737,717.909,407.297,26416.25,5376.875,3543.75,1,1,0,1619605674.6
397,2021/4/28 19:27:54.7,-411.628,724.009,411.872,4812.5,-2918.125,-249.375,1,1,0,1619605674.7
398,2021/4/28 19:27:54.8,-412.604,730.475,413.946,-2100.0,-188.125,11672.5,1,1,0,1619605674.8
399,2021/4/28 19:27:54.9,-410.591,735.233,417.179,-3342.5,-17141.25,-8540.0,1,1,0,1619605674.9
400,2021/4/28 19:27:55.0,-405.65,747.494,422.974,-91.875,3574.375,8085.0,1,1,0,1619605675.0
401,2021/4/28 19:27:55.1,-403.027,752.374,420.595,9043.125,-15964.375,-5678.75,1,1,0,1619605675.1
402,2021/4/28 19:27:55.2,-401.99,755.851,418.094,-1938.125,-22050.0,-11095.0,1,1,0,1619605675.2
403,2021/4/28 19:27:55.3,-394.121,769.149,411.262,4173.75,-4711.875,4186.875,1,1,0,1619605675.3
404,2021/4/28 19:27:55.4,-390.949,773.236,405.894,-8277.5,-18838.75,2012.5,1,1,0,1619605675.4
405,2021/4/28 19:27:55.5,-390.461,775.859,401.197,-12923.75,-31329.375,-15325.625,1,1,0,1619605675.5
406,2021/4/28 19:27:55.6,-390.034,775.737,404.125,393.75,-19993.75,-525.0,1,1,0,1619605675.6
407,2021/4/28 19:27:55.7,-381.86,782.691,416.325,-293.125,-2738.75,-6895.0,1,1,0,1619605675.7
408,2021/4/28 19:27:55.8,-380.335,783.728,420.595,2226.875,-8990.625,-11637.5,1,1,0,1619605675.8
409,2021/4/28 19:27:55.9,-379.725,782.63,426.329,15518.125,350.0,-4007.5,1,1,0,1619605675.9
410,2021/4/28 19:27:56.0,-380.579,786.534,426.085,15951.25,-437.5,-3675.0,1,1,0,1619605676.0
411,2021/4/28 19:27:56.1,-376.553,797.392,430.599,-9358.125,-5600.0,-336.875,1,1,0,1619605676.1
412,2021/4/28 19:27:56.2,-376.614,798.795,434.076,10876.25,-271.25,-2410.625,1,1,0,1619605676.2
413,2021/4/28 19:27:56.3,-381.311,799.527,434.808,739.375,-1120.0,5534.375,1,1,0,1619605676.3
414,2021/4/28 19:27:56.4,-376.37,808.982,435.357,-14109.375,-28415.625,-16135.0,1,1,0,1619605676.4
415,2021/4/28 19:27:56.5,-375.76,805.871,442.311,-21542.5,-14905.625,11138.75,1,1,0,1619605676.5
416,2021/4/28 19:27:56.6,-370.758,804.102,453.474,3517.5,7083.125,3158.75,1,1,0,1619605676.6
417,2021/4/28 19:27:56.7,-368.135,805.322,456.28,6046.25,87.5,-8098.125,1,1,0,1619605676.7
418,2021/4/28 19:27:56.8,-362.401,805.444,461.343,-1610.0,-5118.75,-2506.875,1,1,0,1619605676.8
419,2021/4/28 19:27:56.9,-360.205,803.065,466.345,28503.125,4939.375,2979.375,1,1,0,1619605676.9
420,2021/4/28 19:27:57.0,-358.131,802.882,472.445,9331.875,-3071.25,-704.375,1,1,0,1619605677.0
421,2021/4/28 19:27:57.1,-358.802,807.152,472.262,2668.75,-3613.75,-4633.125,1,1,0,1619605677.1
422,2021/4/28 19:27:57.2,-366.793,810.141,466.772,3758.125,-7354.375,-2935.625,1,1,0,1619605677.2
423,2021/4/28 19:27:57.3,-365.817,813.862,464.637,-13.125,-4628.75,-686.875,1,1,0,1619605677.3
424,2021/4/28 19:27:57.4,-361.608,819.23,464.637,-481.25,-3561.25,5420.625,1,1,0,1619605677.4
425,2021/4/28 19:27:57.5,-366.976,823.073,453.962,-20658.75,-22093.75,752.5,1,1,0,1619605677.5
426,2021/4/28 19:27:57.6,-366.671,820.938,456.463,2008.125,2730.0,-3058.125,1,1,0,1619605677.6
427,2021/4/28 19:27:57.7,-365.451,821.914,460.367,9695.0,-1076.25,-9935.625,1,1,0,1619605677.7
428,2021/4/28 19:27:57.8,-362.889,821.975,463.295,14612.5,-5145.0,-6466.25,1,1,0,1619605677.8
429,2021/4/28 19:27:57.9,-352.519,825.574,464.027,-3425.625,-20689.375,-9353.75,1,1,0,1619605677.9
430,2021/4/28 19:27:58.0,-347.517,848.998,461.221,15028.125,-20426.875,-5468.75,1,1,0,1619605678.0
431,2021/4/28 19:27:58.1,-355.203,870.348,456.158,4235.0,7205.625,14201.25,1,1,0,1619605678.1
432,2021/4/28 19:27:58.2,-357.338,871.263,455.548,-6335.0,-2030.0,3823.75,1,1,0,1619605678.2
433,2021/4/28 19:27:58.3,-348.92,870.775,450.363,11191.25,-5350.625,-945.0,1,1,0,1619605678.3
434,2021/4/28 19:27:58.4,-348.676,863.333,451.583,-23734.375,-23708.125,-11029.375,1,1,0,1619605678.4
435,2021/4/28 19:27:58.5,-346.236,859.063,460.184,2095.625,1185.625,3587.5,1,1,0,1619605678.5
436,2021/4/28 19:27:58.6,-64.233,298.473,-743.895,57089.375,24255.0,-765.625,1,1,0,1619605678.6
437,2021/4/28 19:27:58.7,-233.264,449.692,-237.717,1496.25,-18764.375,-3504.375,1,1,0,1619605678.7
438,2021/4/28 19:27:58.8,-349.103,858.941,461.099,-13632.5,-20501.25,-11191.25,1,1,0,1619605678.8
439,2021/4/28 19:27:58.9,-343.064,860.588,459.33,11471.25,-11055.625,-8036.875,1,1,0,1619605678.9
