,Time,Accel X,Accel Y,Accel Z,Gyro X,Gyro Y,Gyro Z,書く,集中,楽しさ,unixtime
0,2021/4/18 20:59:37.0,154.391,250.466,104.615,-64365.0,-47398.75,-161.875,0,0,0,1618747177.0
1,2021/4/18 20:59:37.1,177.022,272.06,132.187,-72900.625,-27820.625,-11108.125,0,0,0,1618747177.1
2,2021/4/18 20:59:37.2,197.396,290.787,162.199,-41562.5,17889.375,4217.5,0,0,0,1618747177.2
3,2021/4/18 20:59:37.3,213.927,306.159,196.725,-51323.125,21140.0,18270.0,0,0,0,1618747177.3
4,2021/4/18 20:59:37.4,256.017,330.132,254.858,31675.0,-56743.75,16559.375,0,0,0,1618747177.4
5,2021/4/18 20:59:37.5,278.953,340.868,272.365,97584.375,-43728.125,-16843.75,0,0,0,1618747177.5
6,2021/4/18 20:59:37.6,301.096,353.8,281.881,135856.875,98328.125,78649.375,0,0,0,1618747177.6
7,2021/4/18 20:59:37.7,312.015,391.986,306.708,-9034.375,49056.875,31303.125,0,0,0,1618747177.7
8,2021/4/18 20:59:37.8,313.235,400.831,343.613,-38084.375,-103114.375,-1951.25,0,0,0,1618747177.8
9,2021/4/18 20:59:37.9,321.043,410.713,366.549,-17858.75,-143342.5,-3158.75,0,0,0,1618747177.9
10,2021/4/18 20:59:38.0,331.718,421.876,374.54,-3071.25,-42476.875,8513.75,0,0,0,1618747178.0
11,2021/4/18 20:59:38.1,352.275,439.261,409.005,-7630.0,-14380.625,7743.75,0,0,0,1618747178.1
12,2021/4/18 20:59:38.2,360.083,443.226,429.074,-4755.625,-6177.5,-516.25,0,0,0,1618747178.2
13,2021/4/18 20:59:38.3,369.477,446.093,457.256,-34829.375,-7083.125,-4808.125,0,0,0,1618747178.3
14,2021/4/18 20:59:38.4,386.191,453.535,496.113,-210.0,-24880.625,-2957.5,0,0,0,1618747178.4
15,2021/4/18 20:59:38.5,392.657,455.975,511.851,-818.125,-25991.875,-1054.375,0,0,0,1618747178.5
16,2021/4/18 20:59:38.6,400.099,452.559,522.709,-13741.875,-9222.5,-12586.875,0,0,0,1618747178.6
17,2021/4/18 20:59:38.7,433.771,442.494,520.94,-44786.875,-19919.375,-58231.25,0,0,0,1618747178.7
18,2021/4/18 20:59:38.8,475.617,433.1,537.105,-63984.375,45373.125,37065.0,0,0,0,1618747178.8
19,2021/4/18 20:59:38.9,476.471,422.242,556.93,-101539.375,31202.5,45950.625,0,0,0,1618747178.9
20,2021/4/18 20:59:39.0,470.92,393.633,580.903,-136005.625,71636.25,-2642.5,0,0,0,1618747179.0
21,2021/4/18 20:59:39.1,462.014,355.996,604.754,-135091.25,75818.75,-29855.0,0,0,0,1618747179.1
22,2021/4/18 20:59:39.2,433.588,264.984,638.121,-79970.625,10316.25,-18186.875,0,0,0,1618747179.2
23,2021/4/18 20:59:39.3,419.924,218.868,647.576,-51651.25,8964.375,7945.0,0,0,0,1618747179.3
24,2021/4/18 20:59:39.4,404.43,169.336,654.286,-35083.125,15487.5,-11099.375,0,0,0,1618747179.4
25,2021/4/18 20:59:39.5,373.076,73.261,670.512,-17705.625,1618.75,-11865.0,0,0,0,1618747179.5
26,2021/4/18 20:59:39.6,359.717,30.012,675.331,-4165.0,-5131.875,-993.125,0,0,0,1618747179.6
27,2021/4/18 20:59:39.7,346.663,-9.699,680.333,3972.5,-6269.375,-1299.375,0,0,0,1618747179.7
28,2021/4/18 20:59:39.8,334.036,-49.654,683.993,-9467.5,3955.0,-9384.375,0,0,0,1618747179.8
29,2021/4/18 20:59:39.9,310.612,-127.856,687.409,-27580.0,16187.5,-23620.625,0,0,0,1618747179.9
30,2021/4/18 20:59:40.0,298.595,-160.918,689.178,-15986.25,-34313.125,-12298.125,0,0,0,1618747180.0
31,2021/4/18 20:59:40.1,288.957,-192.943,690.703,11681.25,-24911.25,-1054.375,0,0,0,1618747180.1
32,2021/4/18 20:59:40.2,281.576,-228.506,689.666,53655.0,-19153.75,10548.125,0,0,0,1618747180.2
33,2021/4/18 20:59:40.3,265.106,-279.136,701.195,143001.25,88781.875,-69685.0,0,0,0,1618747180.3
34,2021/4/18 20:59:40.4,247.599,-278.099,720.105,143237.5,45705.625,-36338.75,0,0,0,1618747180.4
35,2021/4/18 20:59:40.5,226.798,-263.337,738.222,143342.5,-17946.25,-30795.625,0,0,0,1618747180.5
36,2021/4/18 20:59:40.6,192.272,-205.204,774.822,84616.875,-103958.75,-26941.25,0,0,0,1618747180.6
37,2021/4/18 20:59:40.7,184.952,-160.186,774.822,19950.0,-87828.125,-18563.125,0,0,0,1618747180.7
38,2021/4/18 20:59:40.8,186.05,-113.582,773.724,22885.625,-42463.75,-22785.0,0,0,0,1618747180.8
39,2021/4/18 20:59:40.9,186.599,-68.32,772.138,17049.375,-8986.25,-20776.875,0,0,0,1618747180.9
40,2021/4/18 20:59:41.0,173.911,16.348,774.822,43925.0,5263.125,-14332.5,0,0,0,1618747181.0
41,2021/4/18 20:59:41.1,165.615,60.207,769.515,37940.0,-15977.5,-6960.625,0,0,0,1618747181.1
42,2021/4/18 20:59:41.2,158.417,103.334,760.914,20951.875,-20457.5,-6776.875,0,0,0,1618747181.2
43,2021/4/18 20:59:41.3,153.293,145.241,752.74,14673.75,-20750.625,-7875.0,0,0,0,1618747181.3
44,2021/4/18 20:59:41.4,144.448,221.613,735.965,11125.625,-18620.0,-8369.375,0,0,0,1618747181.4
45,2021/4/18 20:59:41.5,139.324,257.176,727.303,-3342.5,-3788.75,1850.625,0,0,0,1618747181.5
46,2021/4/18 20:59:41.6,136.213,289.689,721.325,-2336.25,-6251.875,-3902.5,0,0,0,1618747181.6
47,2021/4/18 20:59:41.7,130.296,349.225,709.308,2887.5,-3373.125,-3696.875,0,0,0,1618747181.7
48,2021/4/18 20:59:41.8,128.161,375.455,703.147,5127.5,-1137.5,-5355.0,0,0,0,1618747181.8
49,2021/4/18 20:59:41.9,124.989,400.953,691.923,-3080.0,16572.5,-13615.0,0,0,0,1618747181.9
50,2021/4/18 20:59:42.0,118.096,424.682,683.81,-45758.125,15378.125,15706.25,0,0,0,1618747182.0
51,2021/4/18 20:59:42.1,110.898,457.256,690.459,485.625,4270.0,6610.625,0,0,0,1618747182.1
52,2021/4/18 20:59:42.2,107.055,473.665,689.361,6982.5,-6768.125,8172.5,0,0,0,1618747182.2
53,2021/4/18 20:59:42.3,105.347,486.414,690.703,-931.875,-24351.25,17294.375,0,0,0,1618747182.3
54,2021/4/18 20:59:42.4,103.7,498.309,692.289,17635.625,-53672.5,9765.0,0,0,0,1618747182.4
55,2021/4/18 20:59:42.5,117.059,521.733,690.642,-6461.875,-26350.625,25427.5,0,0,0,1618747182.5
56,2021/4/18 20:59:42.6,127.795,531.981,688.934,2738.75,-9231.25,5670.0,0,0,0,1618747182.6
57,2021/4/18 20:59:42.7,136.762,537.776,686.86,-16699.375,-7866.25,12503.75,0,0,0,1618747182.7
58,2021/4/18 20:59:42.8,160.003,546.072,687.348,21100.625,-135883.125,15846.25,0,0,0,1618747182.8
59,2021/4/18 20:59:42.9,193.614,550.647,640.378,68910.625,-143342.5,-32235.0,0,0,0,1618747182.9
60,2021/4/18 20:59:43.0,214.049,564.677,553.575,27566.875,-70323.75,-2445.625,0,0,0,1618747183.0
61,2021/4/18 20:59:43.1,221.552,579.256,471.774,-27418.125,4908.75,2651.25,0,0,0,1618747183.1
62,2021/4/18 20:59:43.2,267.241,598.349,359.717,-23008.125,17097.5,9069.375,0,0,0,1618747183.2
63,2021/4/18 20:59:43.3,267.18,608.597,333.121,-9489.375,8728.125,-37393.125,0,0,0,1618747183.3
64,2021/4/18 20:59:43.4,253.15,612.257,331.84,-10285.625,41584.375,-3443.125,0,0,0,1618747183.4
65,2021/4/18 20:59:43.5,270.84,632.631,267.729,-126.875,-11296.25,328.125,0,0,0,1618747183.5
66,2021/4/18 20:59:43.6,289.75,640.744,229.543,-9458.75,-1439.375,4698.75,0,0,0,1618747183.6
67,2021/4/18 20:59:43.7,310.185,647.576,192.333,-25169.375,24062.5,-14861.875,0,0,0,1618747183.7
68,2021/4/18 20:59:43.8,335.683,631.716,192.516,6343.75,-60427.5,4186.875,0,0,0,1618747183.8
69,2021/4/18 20:59:43.9,367.159,624.03,158.051,3797.5,-10220.0,-3762.5,0,0,0,1618747183.9
70,2021/4/18 20:59:44.0,371.673,642.33,149.755,-1041.25,28879.375,-22544.375,0,0,0,1618747184.0
71,2021/4/18 20:59:44.1,365.268,668.194,141.947,5341.875,27308.75,-9765.0,0,0,0,1618747184.1
72,2021/4/18 20:59:44.2,366.732,683.749,109.739,-1203.125,-5285.0,-9953.125,0,0,0,1618747184.2
73,2021/4/18 20:59:44.3,384.239,664.656,43.005,5796.875,-17661.875,15076.25,0,0,0,1618747184.3
74,2021/4/18 20:59:44.4,395.707,673.562,16.958,9301.25,2808.75,3412.5,0,0,0,1618747184.4
75,2021/4/18 20:59:44.5,404.369,679.601,-3.782,-266.875,-6951.875,7669.375,0,0,0,1618747184.5
76,2021/4/18 20:59:44.6,389.119,681.675,6.344,-120885.625,69483.75,975.625,0,0,0,1618747184.6
77,2021/4/18 20:59:44.7,396.195,676.429,-10.492,-143342.5,114537.5,11414.375,0,0,0,1618747184.7
78,2021/4/18 20:59:44.8,411.811,638.67,3.538,-143342.5,140625.625,-91700.0,0,0,0,1618747184.8
79,2021/4/18 20:59:44.9,359.168,602.07,41.846,-10018.75,-71680.0,-7271.25,0,0,0,1618747184.9
80,2021/4/18 20:59:45.0,275.354,561.444,149.816,14870.625,28638.75,45683.75,0,0,0,1618747185.0
81,2021/4/18 20:59:45.1,269.681,556.991,199.287,74112.5,-94215.625,-99430.625,0,0,0,1618747185.1
82,2021/4/18 20:59:45.2,236.314,559.675,242.109,25410.0,-17215.625,-80023.125,0,0,0,1618747185.2
83,2021/4/18 20:59:45.3,175.558,561.383,277.489,11615.625,2712.5,-19258.75,0,0,0,1618747185.3
84,2021/4/18 20:59:45.4,128.1,562.298,342.21,4532.5,-11768.75,1220.625,0,0,0,1618747185.4
85,2021/4/18 20:59:45.5,109.129,563.762,368.928,1723.75,-19718.125,8763.125,0,0,0,1618747185.5
86,2021/4/18 20:59:45.6,91.866,564.555,395.158,-262.5,-11160.625,2428.125,0,0,0,1618747185.6
87,2021/4/18 20:59:45.7,59.597,566.507,443.409,157.5,-4633.125,433.125,0,0,0,1618747185.7
88,2021/4/18 20:59:45.8,44.652,567.361,464.332,2603.125,-223.125,-743.75,0,0,0,1618747185.8
89,2021/4/18 20:59:45.9,30.378,569.496,483.791,-1793.75,-8750.0,-1255.625,0,0,0,1618747185.9
90,2021/4/18 21:04:48.0,-964.166,163.419,-250.893,1701.875,-7122.5,-3193.75,1,1,0,1618747488.0
91,2021/4/18 21:04:48.1,-964.288,163.175,-250.649,2681.875,-6562.5,-2804.375,1,1,0,1618747488.1
92,2021/4/18 21:04:48.2,-963.983,163.175,-250.71,2423.75,-6562.5,-3460.625,1,1,0,1618747488.2
93,2021/4/18 21:04:48.3,-963.983,163.175,-251.015,1386.875,-6278.125,-3521.875,1,1,0,1618747488.3
94,2021/4/18 21:04:48.4,-963.983,163.114,-251.381,1430.625,-6435.625,-3010.0,1,1,0,1618747488.4
95,2021/4/18 21:04:48.5,-963.983,162.992,-251.442,1894.375,-7008.75,-3403.75,1,1,0,1618747488.5
96,2021/4/18 21:04:48.6,-963.922,162.626,-251.625,1719.375,-6435.625,-4300.625,1,1,0,1618747488.6
97,2021/4/18 21:04:48.7,-964.105,162.382,-251.869,2205.0,-5346.25,-4186.875,1,1,0,1618747488.7
98,2021/4/18 21:04:48.8,-964.105,161.833,-251.686,2301.25,-7638.75,-3941.875,1,1,0,1618747488.8
99,2021/4/18 21:04:48.9,-964.166,161.65,-251.564,2069.375,-7520.625,-3097.5,1,1,0,1618747488.9
100,2021/4/18 21:04:49.0,-965.02,161.223,-251.442,1894.375,-3635.625,-3325.0,1,1,0,1618747489.0
101,2021/4/18 21:04:49.1,-965.142,161.223,-251.259,1741.25,-5700.625,-3714.375,1,1,0,1618747489.1
102,2021/4/18 21:04:49.2,-965.386,161.345,-251.381,1723.75,-5495.0,-3771.25,1,1,0,1618747489.2
103,2021/4/18 21:04:49.3,-965.63,160.979,-251.93,1378.125,-7052.5,-3661.875,1,1,0,1618747489.3
104,2021/4/18 21:04:49.4,-965.935,160.857,-252.174,1776.25,-6540.625,-3788.75,1,1,0,1618747489.4
105,2021/4/18 21:04:49.5,-966.118,160.613,-252.357,1890.0,-6173.125,-4239.375,1,1,0,1618747489.5
106,2021/4/18 21:04:49.6,-966.362,160.491,-252.54,2008.125,-5775.0,-3955.0,1,1,0,1618747489.6
107,2021/4/18 21:04:49.7,-966.118,160.186,-252.723,1627.5,-6405.0,-4064.375,1,1,0,1618747489.7
108,2021/4/18 21:04:49.8,-966.118,160.064,-252.418,1666.875,-6960.625,-3644.375,1,1,0,1618747489.8
109,2021/4/18 21:04:49.9,-966.179,159.698,-252.296,1601.25,-5048.75,-3241.875,1,1,0,1618747489.9
110,2021/4/18 21:04:50.0,-966.301,159.393,-252.174,1474.375,-6483.75,-3316.25,1,1,0,1618747490.0
111,2021/4/18 21:04:50.1,-966.606,159.21,-252.357,1509.375,-6125.0,-3596.25,1,1,0,1618747490.1
112,2021/4/18 21:04:50.2,-966.85,159.088,-252.418,1229.375,-6960.625,-3381.875,1,1,0,1618747490.2
113,2021/4/18 21:04:50.3,-966.972,158.722,-252.479,1093.75,-6785.625,-2966.25,1,1,0,1618747490.3
114,2021/4/18 21:04:50.4,-966.911,158.173,-252.235,1378.125,-6562.5,-3591.875,1,1,0,1618747490.4
115,2021/4/18 21:04:50.5,-966.972,157.929,-252.174,1281.875,-7796.25,-3465.0,1,1,0,1618747490.5
116,2021/4/18 21:04:50.6,-966.972,157.624,-252.357,1360.625,-5687.5,-3093.125,1,1,0,1618747490.6
117,2021/4/18 21:04:50.7,-966.789,157.38,-252.418,1583.75,-6479.375,-3548.125,1,1,0,1618747490.7
118,2021/4/18 21:04:50.8,-966.972,156.587,-252.418,1640.625,-5901.875,-3508.75,1,1,0,1618747490.8
119,2021/4/18 21:04:50.9,-966.85,156.77,-252.54,1461.25,-6356.875,-3740.625,1,1,0,1618747490.9
120,2021/4/18 21:04:51.0,-966.667,156.77,-252.662,3390.625,-5779.375,-3902.5,1,1,0,1618747491.0
121,2021/4/18 21:04:51.1,-967.765,154.574,-251.503,11694.375,6391.875,-4423.125,1,1,0,1618747491.1
122,2021/4/18 21:04:51.2,-966.179,153.72,-252.418,10653.125,1001.875,-4663.75,1,1,0,1618747491.2
123,2021/4/18 21:04:51.3,-964.898,152.866,-254.248,11283.125,-1443.75,-2345.0,1,1,0,1618747491.3
124,2021/4/18 21:04:51.4,-964.044,151.89,-256.932,16839.375,3390.625,-3045.0,1,1,0,1618747491.4
125,2021/4/18 21:04:51.5,-962.336,148.108,-262.178,30804.375,10902.5,-7441.875,1,1,0,1618747491.5
126,2021/4/18 21:04:51.6,-962.519,143.777,-268.888,29120.0,6418.125,-83.125,1,1,0,1618747491.6
127,2021/4/18 21:04:51.7,-963.251,141.093,-277.855,24228.75,-9498.125,-245.0,1,1,0,1618747491.7
128,2021/4/18 21:04:51.8,-963.129,138.348,-285.114,14770.0,-26236.875,1430.625,1,1,0,1618747491.8
129,2021/4/18 21:04:51.9,-960.14,133.224,-286.639,16725.625,-8408.75,-542.5,1,1,0,1618747491.9
130,2021/4/18 21:04:52.0,-960.994,130.174,-288.896,9541.875,-5608.75,1872.5,1,1,0,1618747492.0
131,2021/4/18 21:04:52.1,-961.787,127.734,-291.336,5814.375,-11445.0,1190.0,1,1,0,1618747492.1
132,2021/4/18 21:04:52.2,-961.604,125.05,-291.58,1627.5,-12923.75,2747.5,1,1,0,1618747492.2
133,2021/4/18 21:04:52.3,-960.811,125.294,-290.177,428.75,-8124.375,844.375,1,1,0,1618747492.3
134,2021/4/18 21:04:52.4,-960.628,125.416,-289.262,-691.25,-6685.0,-2506.875,1,1,0,1618747492.4
135,2021/4/18 21:04:52.5,-960.994,124.867,-289.384,-1723.75,-10119.375,-1001.875,1,1,0,1618747492.5
136,2021/4/18 21:04:52.6,-961.177,124.196,-287.493,7275.625,-1719.375,538.125,1,1,0,1618747492.6
137,2021/4/18 21:04:52.7,-961.604,124.745,-288.103,5805.625,-3701.25,-2331.875,1,1,0,1618747492.7
138,2021/4/18 21:04:52.8,-961.726,124.867,-288.652,3119.375,-6689.375,-2384.375,1,1,0,1618747492.8
139,2021/4/18 21:04:52.9,-961.543,124.989,-288.53,1820.0,-5521.25,-2165.625,1,1,0,1618747492.9
140,2021/4/18 21:04:53.0,-961.543,125.05,-288.713,3215.625,-6015.625,-1911.875,1,1,0,1618747493.0
141,2021/4/18 21:04:53.1,-961.299,125.477,-288.225,3876.25,-5831.875,-2725.625,1,1,0,1618747493.1
142,2021/4/18 21:04:53.2,-961.055,125.782,-287.92,2843.75,-5766.25,-1828.75,1,1,0,1618747493.2
143,2021/4/18 21:04:53.3,-960.872,126.697,-289.384,2156.875,-7061.25,-2191.875,1,1,0,1618747493.3
144,2021/4/18 21:04:53.4,-960.506,127.551,-289.628,1614.375,-6750.625,-3053.75,1,1,0,1618747493.4
145,2021/4/18 21:04:53.5,-960.262,128.344,-289.994,1316.875,-6234.375,-3145.625,1,1,0,1618747493.5
146,2021/4/18 21:04:53.6,-960.018,128.527,-290.36,1225.0,-6807.5,-2625.0,1,1,0,1618747493.6
147,2021/4/18 21:04:53.7,-960.14,129.32,-291.702,1400.0,-5915.0,-3828.125,1,1,0,1618747493.7
148,2021/4/18 21:04:53.8,-960.14,129.991,-292.068,1995.0,-7013.125,-4340.0,1,1,0,1618747493.8
149,2021/4/18 21:04:53.9,-960.262,130.54,-292.678,2935.625,-6330.625,-4803.75,1,1,0,1618747493.9
150,2021/4/18 21:04:54.0,-960.079,131.089,-293.41,2878.75,-4011.875,-3955.0,1,1,0,1618747494.0
151,2021/4/18 21:04:54.1,-959.591,131.516,-294.63,2235.625,-6125.0,-2992.5,1,1,0,1618747494.1
152,2021/4/18 21:04:54.2,-959.652,131.577,-295.545,1601.25,-5827.5,-1916.25,1,1,0,1618747494.2
153,2021/4/18 21:04:54.3,-959.469,131.943,-296.277,-625.625,-6593.125,-2051.875,1,1,0,1618747494.3
154,2021/4/18 21:04:54.4,-958.737,132.919,-296.765,-1325.625,-8675.625,-3001.25,1,1,0,1618747494.4
155,2021/4/18 21:04:54.5,-958.554,133.468,-296.521,-433.125,-7087.5,-3119.375,1,1,0,1618747494.5
156,2021/4/18 21:04:54.6,-958.432,133.956,-296.46,393.75,-6663.125,-4116.875,1,1,0,1618747494.6
157,2021/4/18 21:04:54.7,-958.31,134.383,-296.399,91.875,-6912.5,-3745.0,1,1,0,1618747494.7
158,2021/4/18 21:04:54.8,-958.493,135.664,-295.545,65.625,-6877.5,-3806.25,1,1,0,1618747494.8
159,2021/4/18 21:04:54.9,-958.859,136.396,-295.301,35.0,-8089.375,-3819.375,1,1,0,1618747494.9
160,2021/4/18 21:04:55.0,-959.164,136.823,-294.63,258.125,-8137.5,-3675.0,1,1,0,1618747495.0
161,2021/4/18 21:04:55.1,-959.164,136.945,-293.41,415.625,-8570.625,-3635.625,1,1,0,1618747495.1
162,2021/4/18 21:04:55.2,-960.079,137.982,-290.787,271.25,-8548.75,-2135.0,1,1,0,1618747495.2
163,2021/4/18 21:04:55.3,-960.384,138.775,-289.567,993.125,-7770.0,-2874.375,1,1,0,1618747495.3
164,2021/4/18 21:04:55.4,-960.689,139.446,-288.286,844.375,-8006.25,-3469.375,1,1,0,1618747495.4
165,2021/4/18 21:04:55.5,-961.177,140.483,-284.565,695.625,-8190.0,-3053.75,1,1,0,1618747495.5
166,2021/4/18 21:04:55.6,-961.421,140.788,-282.796,892.5,-7450.625,-2966.25,1,1,0,1618747495.6
167,2021/4/18 21:04:55.7,-961.421,140.91,-280.783,1360.625,-7000.0,-2918.125,1,1,0,1618747495.7
168,2021/4/18 21:04:55.8,-961.604,141.276,-279.075,1233.75,-7980.0,-3075.625,1,1,0,1618747495.8
169,2021/4/18 21:04:55.9,-962.092,142.618,-275.537,892.5,-7678.125,-3574.375,1,1,0,1618747495.9
170,2021/4/18 21:09:58.0,-646.173,243.695,-726.144,2384.375,-218.75,-3819.375,1,1,0,1618747798.0
171,2021/4/18 21:09:58.1,-640.378,241.133,-730.841,7008.75,3329.375,-3898.125,1,1,0,1618747798.1
172,2021/4/18 21:09:58.2,-624.762,231.434,-737.978,43483.125,107296.875,11033.75,1,1,0,1618747798.2
173,2021/4/18 21:09:58.3,-606.279,227.408,-747.311,36225.0,143241.875,39497.5,1,1,0,1618747798.3
174,2021/4/18 21:09:58.4,-598.41,226.737,-754.448,-77682.5,-71680.0,9187.5,1,1,0,1618747798.4
175,2021/4/18 21:09:58.5,-596.397,230.092,-752.435,-3053.75,-59753.75,-8496.25,1,1,0,1618747798.5
176,2021/4/18 21:09:58.6,-571.448,229.482,-764.574,-883.75,29798.125,8474.375,1,1,0,1618747798.6
177,2021/4/18 21:09:58.7,-554.063,230.397,-775.249,-13230.0,8369.375,-2345.0,1,1,0,1618747798.7
178,2021/4/18 21:09:58.8,-536.495,232.532,-789.035,-6041.875,41934.375,-5766.25,1,1,0,1618747798.8
179,2021/4/18 21:09:58.9,-518.012,233.325,-801.784,-4116.875,13733.125,-5840.625,1,1,0,1618747798.9
180,2021/4/18 21:09:59.0,-478.667,236.009,-817.4,-19381.25,2191.875,1316.875,1,1,0,1618747799.0
181,2021/4/18 21:09:59.1,-459.33,239.608,-824.293,-18357.5,-2078.125,-389.375,1,1,0,1618747799.1
182,2021/4/18 21:09:59.2,-442.189,247.05,-834.724,-9196.25,5613.125,253.75,1,1,0,1618747799.2
183,2021/4/18 21:09:59.3,-412.421,263.337,-850.645,-11138.75,-19136.25,-1693.125,1,1,0,1618747799.3
184,2021/4/18 21:09:59.4,-399.489,270.23,-853.573,-7638.75,-21774.375,-2699.375,1,1,0,1618747799.4
185,2021/4/18 21:09:59.5,-388.57,277.977,-855.83,-3062.5,-18405.625,-3762.5,1,1,0,1618747799.5
186,2021/4/18 21:09:59.6,-378.505,285.846,-856.074,-3294.375,-15684.375,-3180.625,1,1,0,1618747799.6
187,2021/4/18 21:09:59.7,-361.913,314.15,-848.266,-1610.0,-14170.625,-3893.75,1,1,0,1618747799.7
188,2021/4/18 21:09:59.8,-356.667,320.25,-849.059,332.5,-14945.0,-4851.875,1,1,0,1618747799.8
189,2021/4/18 21:09:59.9,-352.458,326.411,-849.486,1080.625,-9471.875,-4033.75,1,1,0,1618747799.9
190,2021/4/18 21:10:00.0,-350.323,331.657,-847.595,-336.875,-10128.125,-3858.75,1,1,0,1618747800.0
191,2021/4/18 21:10:00.1,-341.966,340.502,-845.399,1141.875,-8710.625,-3163.125,1,1,0,1618747800.1
192,2021/4/18 21:10:00.2,-338.916,345.809,-846.314,984.375,-7901.25,-3727.5,1,1,0,1618747800.2
193,2021/4/18 21:10:00.3,-335.683,350.262,-846.619,595.0,-6584.375,-2835.0,1,1,0,1618747800.3
194,2021/4/18 21:10:00.4,-331.23,357.094,-847.29,-538.125,-9257.5,-4226.25,1,1,0,1618747800.4
195,2021/4/18 21:10:00.5,-329.461,361.669,-847.534,901.25,-10093.125,-3710.0,1,1,0,1618747800.5
196,2021/4/18 21:10:00.6,-328.363,365.878,-847.473,883.75,-9292.5,-4134.375,1,1,0,1618747800.6
197,2021/4/18 21:10:00.7,-327.692,369.904,-847.473,997.5,-7323.75,-3666.25,1,1,0,1618747800.7
198,2021/4/18 21:10:00.8,-326.716,377.163,-846.741,975.625,-8360.625,-3386.25,1,1,0,1618747800.8
199,2021/4/18 21:10:00.9,-326.35,380.457,-846.192,861.875,-8588.125,-3718.75,1,1,0,1618747800.9
200,2021/4/18 21:10:01.0,-325.923,383.69,-845.765,1203.125,-11825.625,-4532.5,1,1,0,1618747801.0
201,2021/4/18 21:10:01.1,-325.801,398.391,-843.508,2515.625,-97811.875,-21205.625,1,1,0,1618747801.1
202,2021/4/18 21:10:01.2,-329.217,406.565,-841.983,45220.0,-112875.0,-47556.25,1,1,0,1618747801.2
203,2021/4/18 21:10:01.3,-346.297,399.733,-833.504,30808.75,-59460.625,-34741.875,1,1,0,1618747801.3
204,2021/4/18 21:10:01.4,-369.599,388.57,-820.389,12705.0,-29951.25,-21345.625,1,1,0,1618747801.4
205,2021/4/18 21:10:01.5,-410.042,369.538,-802.76,-4103.75,-6234.375,-5040.0,1,1,0,1618747801.5
206,2021/4/18 21:10:01.6,-429.318,362.218,-795.928,-5359.375,-12018.125,-1413.125,1,1,0,1618747801.6
207,2021/4/18 21:10:01.7,-447.679,355.203,-788.181,-4366.25,-11921.875,-678.125,1,1,0,1618747801.7
208,2021/4/18 21:10:01.8,-464.576,349.835,-780.007,-1575.0,-7284.375,1023.75,1,1,0,1618747801.8
209,2021/4/18 21:10:01.9,-493.917,341.051,-765.733,3880.625,3815.0,1474.375,1,1,0,1618747801.9
210,2021/4/18 21:10:02.0,-506.056,337.086,-759.938,1925.0,4458.125,1627.5,1,1,0,1618747802.0
211,2021/4/18 21:10:02.1,-516.792,333.487,-754.997,2034.375,437.5,945.0,1,1,0,1618747802.1
212,2021/4/18 21:10:02.2,-534.787,328.058,-747.555,4506.25,-83.125,-1715.0,1,1,0,1618747802.2
213,2021/4/18 21:10:02.3,-542.412,325.679,-744.383,1395.625,-2756.25,-1281.875,1,1,0,1618747802.3
214,2021/4/18 21:10:02.4,-549.0,323.117,-741.76,1465.625,-6208.125,-2944.375,1,1,0,1618747802.4
215,2021/4/18 21:10:02.5,-555.1,320.86,-739.564,1290.625,-6978.125,-4563.125,1,1,0,1618747802.5
216,2021/4/18 21:10:02.6,-566.995,316.468,-735.538,3373.125,-3622.5,-5403.125,1,1,0,1618747802.6
217,2021/4/18 21:10:02.7,-572.119,314.394,-733.647,2633.75,-3731.875,-4440.625,1,1,0,1618747802.7
218,2021/4/18 21:10:02.8,-577.121,312.625,-732.427,2279.375,-4475.625,-4200.0,1,1,0,1618747802.8
219,2021/4/18 21:10:02.9,-581.879,310.856,-731.756,1754.375,-5521.25,-3889.375,1,1,0,1618747802.9
220,2021/4/18 21:10:03.0,-589.992,307.074,-729.987,2498.125,-5075.0,-3981.25,1,1,0,1618747803.0
221,2021/4/18 21:10:03.1,-593.286,305.061,-728.95,708.75,-7218.75,-3797.5,1,1,0,1618747803.1
222,2021/4/18 21:10:03.2,-596.397,303.17,-727.852,1553.125,-5709.375,-4060.0,1,1,0,1618747803.2
223,2021/4/18 21:10:03.3,-602.009,299.632,-726.449,253.75,-7901.25,-3591.875,1,1,0,1618747803.3
224,2021/4/18 21:10:03.4,-604.815,297.985,-725.717,752.5,-7446.25,-3268.125,1,1,0,1618747803.4
225,2021/4/18 21:10:03.5,-607.438,296.582,-724.985,910.0,-6505.625,-3281.25,1,1,0,1618747803.5
226,2021/4/18 21:10:03.6,-610.183,295.301,-723.948,516.25,-7551.25,-3399.375,1,1,0,1618747803.6
227,2021/4/18 21:10:03.7,-615.246,293.593,-722.057,441.875,-7813.75,-3294.375,1,1,0,1618747803.7
228,2021/4/18 21:10:03.8,-617.503,292.8,-721.081,476.875,-7840.0,-3451.875,1,1,0,1618747803.8
229,2021/4/18 21:10:03.9,-619.76,291.946,-719.922,953.75,-7555.625,-3596.25,1,1,0,1618747803.9
230,2021/4/18 21:10:04.0,-621.956,291.458,-719.007,2152.5,-5328.75,-3819.375,1,1,0,1618747804.0
231,2021/4/18 21:10:04.1,-626.226,290.543,-718.092,1929.375,-5114.375,-3784.375,1,1,0,1618747804.1
232,2021/4/18 21:10:04.2,-628.117,290.299,-717.299,1693.125,-5538.75,-3937.5,1,1,0,1618747804.2
233,2021/4/18 21:10:04.3,-630.13,290.36,-716.384,1238.125,-6146.875,-3583.125,1,1,0,1618747804.3
234,2021/4/18 21:10:04.4,-632.875,289.872,-714.066,835.625,-7726.25,-3486.875,1,1,0,1618747804.4
235,2021/4/18 21:10:04.5,-634.278,289.445,-713.09,892.5,-6580.0,-3215.625,1,1,0,1618747804.5
236,2021/4/18 21:10:04.6,-635.62,289.018,-712.297,896.875,-6934.375,-3377.5,1,1,0,1618747804.6
237,2021/4/18 21:10:04.7,-636.718,288.896,-711.504,1448.125,-6251.875,-3635.625,1,1,0,1618747804.7
238,2021/4/18 21:10:04.8,-639.524,288.53,-710.345,1032.5,-7183.75,-3478.125,1,1,0,1618747804.8
239,2021/4/18 21:10:04.9,-640.439,288.225,-709.125,-1211.875,-8500.625,-1596.875,1,1,0,1618747804.9
240,2021/4/18 21:10:05.0,-641.415,288.469,-707.722,-1347.5,-7980.0,-1102.5,1,1,0,1618747805.0
241,2021/4/18 21:10:05.1,-642.574,289.079,-706.929,21.875,-4921.875,-1023.75,1,1,0,1618747805.1
242,2021/4/18 21:10:05.2,-643.855,290.482,-707.173,10517.5,18790.625,-507.5,1,1,0,1618747805.2
243,2021/4/18 21:10:05.3,-643.733,291.214,-708.454,7214.375,10005.625,-1098.125,1,1,0,1618747805.3
244,2021/4/18 21:10:05.4,-642.391,291.275,-711.626,9524.375,9266.25,-1811.25,1,1,0,1618747805.4
245,2021/4/18 21:10:05.5,-637.816,291.031,-717.177,2808.75,-2730.0,-1435.0,1,1,0,1618747805.5
246,2021/4/18 21:10:05.6,-634.644,289.872,-719.922,5893.125,542.5,-1820.0,1,1,0,1618747805.6
247,2021/4/18 21:10:05.7,-631.533,289.323,-723.521,2086.875,-4536.875,-1636.25,1,1,0,1618747805.7
248,2021/4/18 21:10:05.8,-628.056,288.408,-724.314,-3351.25,-8732.5,1583.75,1,1,0,1618747805.8
249,2021/4/18 21:10:05.9,-621.956,288.652,-725.473,-1015.0,-9681.875,-1741.25,1,1,0,1618747805.9
250,2021/4/18 21:15:08.0,-813.984,158.295,574.071,1627.5,-5963.125,-3233.125,1,1,0,1618748108.0
251,2021/4/18 21:15:08.1,-813.618,158.417,574.132,1605.625,-6286.875,-3246.25,1,1,0,1618748108.1
252,2021/4/18 21:15:08.2,-813.435,158.539,574.132,1614.375,-5600.0,-3653.125,1,1,0,1618748108.2
253,2021/4/18 21:15:08.3,-812.886,158.6,574.376,1544.375,-6501.25,-3635.625,1,1,0,1618748108.3
254,2021/4/18 21:15:08.4,-812.459,158.478,574.315,1557.5,-6405.0,-3539.375,1,1,0,1618748108.4
255,2021/4/18 21:15:08.5,-812.581,158.6,574.376,1478.75,-6002.5,-3679.375,1,1,0,1618748108.5
256,2021/4/18 21:15:08.6,-812.581,158.539,574.559,1561.875,-5188.75,-3657.5,1,1,0,1618748108.6
257,2021/4/18 21:15:08.7,-812.215,158.661,574.498,1758.75,-5547.5,-3596.25,1,1,0,1618748108.7
258,2021/4/18 21:15:08.8,-812.459,158.783,574.498,1763.125,-5608.75,-3552.5,1,1,0,1618748108.8
259,2021/4/18 21:15:08.9,-812.52,158.905,574.559,1688.75,-5945.625,-3631.25,1,1,0,1618748108.9
260,2021/4/18 21:15:09.0,-812.459,158.966,574.559,1491.875,-6715.625,-3360.0,1,1,0,1618748109.0
261,2021/4/18 21:15:09.1,-812.581,159.027,574.315,1509.375,-5744.375,-3451.875,1,1,0,1618748109.1
262,2021/4/18 21:15:09.2,-812.459,159.027,574.315,1408.75,-6755.0,-3045.0,1,1,0,1618748109.2
263,2021/4/18 21:15:09.3,-812.52,159.027,574.132,1553.125,-5897.5,-3316.25,1,1,0,1618748109.3
264,2021/4/18 21:15:09.4,-812.52,159.149,574.01,1583.75,-5691.875,-3535.0,1,1,0,1618748109.4
265,2021/4/18 21:15:09.5,-813.069,159.271,573.888,1579.375,-5578.125,-3609.375,1,1,0,1618748109.5
266,2021/4/18 21:15:09.6,-813.374,159.332,573.705,1561.875,-5643.75,-3526.25,1,1,0,1618748109.6
267,2021/4/18 21:15:09.7,-812.886,159.332,573.644,1509.375,-6339.375,-3622.5,1,1,0,1618748109.7
268,2021/4/18 21:15:09.8,-812.825,159.21,573.644,1518.125,-5840.625,-3447.5,1,1,0,1618748109.8
269,2021/4/18 21:15:09.9,-813.191,159.149,573.644,1588.125,-4676.875,-3810.625,1,1,0,1618748109.9
270,2021/4/18 21:15:10.0,-813.252,159.149,573.644,1470.0,-6063.75,-3395.0,1,1,0,1618748110.0
271,2021/4/18 21:15:10.1,-813.252,159.149,573.522,1566.25,-7100.625,-3119.375,1,1,0,1618748110.1
272,2021/4/18 21:15:10.2,-813.74,159.027,573.156,1627.5,-5145.0,-3556.875,1,1,0,1618748110.2
273,2021/4/18 21:15:10.3,-813.557,159.027,573.095,1465.625,-7065.625,-2992.5,1,1,0,1618748110.3
274,2021/4/18 21:15:10.4,-813.862,158.966,573.095,1636.25,-5044.375,-3635.625,1,1,0,1618748110.4
275,2021/4/18 21:15:10.5,-813.984,158.661,573.034,1662.5,-5057.5,-3605.0,1,1,0,1618748110.5
276,2021/4/18 21:15:10.6,-813.801,158.661,573.095,1601.25,-6278.125,-3386.25,1,1,0,1618748110.6
277,2021/4/18 21:15:10.7,-813.801,158.722,572.973,1671.25,-6006.875,-3578.75,1,1,0,1618748110.7
278,2021/4/18 21:15:10.8,-813.74,158.844,572.851,1544.375,-6645.625,-3276.875,1,1,0,1618748110.8
279,2021/4/18 21:15:10.9,-813.618,158.966,572.668,1666.875,-4694.375,-3823.75,1,1,0,1618748110.9
280,2021/4/18 21:15:11.0,-813.252,158.966,572.79,1483.125,-6286.875,-3430.0,1,1,0,1618748111.0
281,2021/4/18 21:15:11.1,-813.618,159.027,572.851,1601.25,-6833.75,-3268.125,1,1,0,1618748111.1
282,2021/4/18 21:15:11.2,-814.167,159.21,572.729,1763.125,-5263.125,-3469.375,1,1,0,1618748111.2
283,2021/4/18 21:15:11.3,-814.533,159.576,572.241,1575.0,-5333.125,-3469.375,1,1,0,1618748111.3
284,2021/4/18 21:15:11.4,-815.021,159.515,572.058,1452.5,-4501.875,-3736.25,1,1,0,1618748111.4
285,2021/4/18 21:15:11.5,-814.838,159.515,571.997,1540.0,-5709.375,-3539.375,1,1,0,1618748111.5
286,2021/4/18 21:15:11.6,-814.899,159.393,572.18,1745.625,-6479.375,-3206.875,1,1,0,1618748111.6
287,2021/4/18 21:15:11.7,-814.96,159.454,572.241,1653.75,-5390.0,-3535.0,1,1,0,1618748111.7
288,2021/4/18 21:15:11.8,-814.899,159.515,572.241,1675.625,-6295.625,-3482.5,1,1,0,1618748111.8
289,2021/4/18 21:15:11.9,-814.838,159.454,572.241,1614.375,-6811.875,-3145.625,1,1,0,1618748111.9
290,2021/4/18 21:15:12.0,-814.96,159.332,572.241,1666.875,-6037.5,-3521.875,1,1,0,1618748112.0
291,2021/4/18 21:15:12.1,-814.838,159.332,572.302,1710.625,-6365.625,-3088.75,1,1,0,1618748112.1
292,2021/4/18 21:15:12.2,-814.35,159.332,572.241,1601.25,-5538.75,-3570.0,1,1,0,1618748112.2
293,2021/4/18 21:15:12.3,-813.74,159.515,572.302,1640.625,-6457.5,-2979.375,1,1,0,1618748112.3
294,2021/4/18 21:15:12.4,-813.313,159.82,572.546,1540.0,-6396.25,-3635.625,1,1,0,1618748112.4
295,2021/4/18 21:15:12.5,-813.496,159.698,572.607,1535.625,-5372.5,-3867.5,1,1,0,1618748112.5
296,2021/4/18 21:15:12.6,-813.496,159.637,572.668,1680.0,-6129.375,-3421.25,1,1,0,1618748112.6
297,2021/4/18 21:15:12.7,-813.923,159.698,572.668,1544.375,-5341.875,-3850.0,1,1,0,1618748112.7
298,2021/4/18 21:15:12.8,-813.862,159.82,572.607,1369.375,-5967.5,-3683.75,1,1,0,1618748112.8
299,2021/4/18 21:15:12.9,-813.862,159.881,572.424,1500.625,-6168.75,-3543.75,1,1,0,1618748112.9
300,2021/4/18 21:15:13.0,-813.74,159.698,572.241,1513.75,-7179.375,-2970.625,1,1,0,1618748113.0
301,2021/4/18 21:15:13.1,-813.862,159.637,571.997,1522.5,-5635.0,-3482.5,1,1,0,1618748113.1
302,2021/4/18 21:15:13.2,-813.801,159.698,571.814,1645.0,-5639.375,-3605.0,1,1,0,1618748113.2
303,2021/4/18 21:15:13.3,-814.045,159.698,571.753,1614.375,-5175.625,-3784.375,1,1,0,1618748113.3
304,2021/4/18 21:15:13.4,-814.106,159.698,571.692,1706.25,-5586.875,-3613.75,1,1,0,1618748113.4
305,2021/4/18 21:15:13.5,-814.106,159.881,571.509,1605.625,-6190.625,-3325.0,1,1,0,1618748113.5
306,2021/4/18 21:15:13.6,-813.862,160.003,571.387,1465.625,-5582.5,-3736.25,1,1,0,1618748113.6
307,2021/4/18 21:15:13.7,-813.618,159.942,571.387,1491.875,-6286.875,-3412.5,1,1,0,1618748113.7
308,2021/4/18 21:15:13.8,-813.923,159.759,571.387,1688.75,-6444.375,-2944.375,1,1,0,1618748113.8
309,2021/4/18 21:15:13.9,-814.472,159.942,571.265,1365.0,-6851.25,-2450.0,1,1,0,1618748113.9
310,2021/4/18 21:15:14.0,-815.204,160.918,571.631,-9436.875,-24110.625,-4808.125,1,1,0,1618748114.0
311,2021/4/18 21:15:14.1,-816.363,158.051,572.119,-6737.5,-8378.125,-36303.75,1,1,0,1618748114.1
312,2021/4/18 21:15:14.2,-820.023,143.35,565.592,59775.625,118024.375,-81208.75,1,1,0,1618748114.2
313,2021/4/18 21:15:14.3,-833.016,148.047,585.234,27225.625,-71680.0,43264.375,1,1,0,1618748114.3
314,2021/4/18 21:15:14.4,-827.831,149.267,611.464,13475.0,-68989.375,-11243.75,1,1,0,1618748114.4
315,2021/4/18 21:15:14.5,-821.731,136.701,601.521,-21485.625,-41335.0,19801.25,1,1,0,1618748114.5
316,2021/4/18 21:15:14.6,-832.711,120.597,565.775,-13006.875,-2095.625,25921.875,1,1,0,1618748114.6
317,2021/4/18 21:15:14.7,-838.994,116.449,548.512,-3150.0,-2511.25,12556.25,1,1,0,1618748114.7
318,2021/4/18 21:15:14.8,-848.937,114.375,530.395,7761.25,12936.875,1303.75,1,1,0,1618748114.8
319,2021/4/18 21:15:14.9,-863.699,108.641,496.967,5670.0,-385.0,5254.375,1,1,0,1618748114.9
320,2021/4/18 21:15:15.0,-870.226,107.299,481.046,8658.125,9541.875,4637.5,1,1,0,1618748115.0
321,2021/4/18 21:15:15.1,-876.753,108.458,465.186,1093.75,-14770.0,4913.125,1,1,0,1618748115.1
322,2021/4/18 21:15:15.2,-882.914,110.288,448.411,3106.25,-6724.375,3381.875,1,1,0,1618748115.2
323,2021/4/18 21:15:15.3,-894.565,116.022,418.948,5635.0,35376.25,218.75,1,1,0,1618748115.3
324,2021/4/18 21:15:15.4,-902.495,119.56,402.173,2966.25,30419.375,-6606.25,1,1,0,1618748115.4
325,2021/4/18 21:15:15.5,-909.022,121.573,385.154,1478.75,6759.375,-5271.875,1,1,0,1618748115.5
326,2021/4/18 21:15:15.6,-920.002,124.013,353.617,3661.875,3911.25,-3211.25,1,1,0,1618748115.6
327,2021/4/18 21:15:15.7,-924.882,125.05,337.94,4484.375,17775.625,-1513.75,1,1,0,1618748115.7
328,2021/4/18 21:15:15.8,-929.274,126.636,320.311,5871.25,37436.875,-1780.625,1,1,0,1618748115.8
329,2021/4/18 21:15:15.9,-935.008,128.832,299.205,3793.125,18808.125,1128.75,1,1,0,1618748115.9
330,2021/4/18 21:20:18.0,-722.118,609.756,92.72,9301.25,-28161.875,-48247.5,1,1,0,1618748418.0
331,2021/4/18 21:20:18.1,-726.51,608.963,98.759,29548.75,15995.0,14087.5,1,1,0,1618748418.1
332,2021/4/18 21:20:18.2,-717.116,631.228,85.888,6006.875,-6444.375,796.25,1,1,0,1618748418.2
333,2021/4/18 21:20:18.3,-712.785,640.134,80.52,11046.875,-2555.0,6072.5,1,1,0,1618748418.3
334,2021/4/18 21:20:18.4,-706.563,649.955,65.575,22706.25,4633.125,10115.0,1,1,0,1618748418.4
335,2021/4/18 21:20:18.5,-695.339,674.538,41.48,-472.5,-12258.75,-1203.125,1,1,0,1618748418.5
336,2021/4/18 21:20:18.6,-685.884,688.629,32.513,-53213.125,-84118.125,-92115.625,1,1,0,1618748418.6
337,2021/4/18 21:20:18.7,-681.98,686.372,37.637,-61591.25,-96416.25,-138005.0,1,1,0,1618748418.7
338,2021/4/18 21:20:18.8,-692.777,667.645,62.098,-12018.125,-56153.125,-117066.25,1,1,0,1618748418.8
339,2021/4/18 21:20:18.9,-718.397,625.067,96.685,53799.375,-12031.25,-24036.25,1,1,0,1618748418.9
340,2021/4/18 21:20:19.0,-730.048,607.194,106.506,37340.625,-19473.125,-9712.5,1,1,0,1618748419.0
341,2021/4/18 21:20:19.1,-741.089,590.907,117.303,9760.625,-17933.125,3425.625,1,1,0,1618748419.1
342,2021/4/18 21:20:19.2,-758.352,566.324,137.86,5411.875,-5464.375,-4768.75,1,1,0,1618748419.2
343,2021/4/18 21:20:19.3,-766.648,555.283,146.888,4615.625,-6916.875,-7288.75,1,1,0,1618748419.3
344,2021/4/18 21:20:19.4,-774.395,545.157,154.757,2953.125,-3622.5,-5236.875,1,1,0,1618748419.4
345,2021/4/18 21:20:19.5,-781.532,534.726,162.504,3101.875,-3605.0,-1933.75,1,1,0,1618748419.5
346,2021/4/18 21:20:19.6,-796.355,515.084,177.632,354.375,-4541.25,-192.5,1,1,0,1618748419.6
347,2021/4/18 21:20:19.7,-801.845,506.483,184.281,-11970.0,-3570.0,11790.625,1,1,0,1618748419.7
348,2021/4/18 21:20:19.8,-806.481,492.758,197.152,-65900.625,27496.875,29798.125,1,1,0,1618748419.8
349,2021/4/18 21:20:19.9,-813.435,480.619,206.607,-7761.25,116939.375,81611.25,1,1,0,1618748419.9
350,2021/4/18 21:20:20.0,-802.943,502.335,184.647,-4773.125,12201.875,87080.0,1,1,0,1618748420.0
351,2021/4/18 21:20:20.1,-788.73,526.552,170.556,-3211.25,25401.25,33700.625,1,1,0,1618748420.1
352,2021/4/18 21:20:20.2,-778.36,544.12,159.576,2922.5,9856.875,7717.5,1,1,0,1618748420.2
353,2021/4/18 21:20:20.3,-759.816,581.147,137.921,11786.25,-13580.0,-1115.625,1,1,0,1618748420.3
354,2021/4/18 21:20:20.4,-748.775,598.532,125.782,6094.375,-10263.75,1526.875,1,1,0,1618748420.4
355,2021/4/18 21:20:20.5,-738.222,611.891,111.813,-6903.75,-16200.625,-345.625,1,1,0,1618748420.5
356,2021/4/18 21:20:20.6,-729.987,623.969,101.626,-3031.875,-16677.5,-3889.375,1,1,0,1618748420.6
357,2021/4/18 21:20:20.7,-709.247,651.541,85.278,3040.625,-10854.375,-8369.375,1,1,0,1618748420.7
358,2021/4/18 21:20:20.8,-700.158,663.375,78.995,9156.875,-4729.375,2135.0,1,1,0,1618748420.8
359,2021/4/18 21:20:20.9,-692.35,669.292,76.433,6107.5,-6706.875,3543.75,1,1,0,1618748420.9
360,2021/4/18 21:20:21.0,-686.738,681.431,74.603,-4830.0,-1491.875,-4151.875,1,1,0,1618748421.0
361,2021/4/18 21:20:21.1,-693.875,699.853,70.028,844.375,-11060.0,3158.75,1,1,0,1618748421.1
362,2021/4/18 21:20:21.2,-687.104,707.539,63.623,-46589.375,-62300.0,-64693.125,1,1,0,1618748421.2
363,2021/4/18 21:20:21.3,-680.028,707.722,63.806,-64627.5,-75306.875,-127316.875,1,1,0,1618748421.3
364,2021/4/18 21:20:21.4,-694.302,680.028,96.441,57881.25,-18405.625,-53812.5,1,1,0,1618748421.4
365,2021/4/18 21:20:21.5,-705.099,666.303,106.811,58839.375,-20190.625,-30594.375,1,1,0,1618748421.5
366,2021/4/18 21:20:21.6,-713.944,653.066,113.46,33521.25,-24893.75,-24666.25,1,1,0,1618748421.6
367,2021/4/18 21:20:21.7,-723.948,639.707,119.743,16926.875,-16419.375,-16485.0,1,1,0,1618748421.7
368,2021/4/18 21:20:21.8,-744.017,614.453,132.858,8089.375,148.75,-5792.5,1,1,0,1618748421.8
369,2021/4/18 21:20:21.9,-754.021,603.778,137.128,5372.5,-1023.75,-3110.625,1,1,0,1618748421.9
370,2021/4/18 21:20:22.0,-762.378,593.408,142.557,3976.875,-3583.125,-4550.0,1,1,0,1618748422.0
371,2021/4/18 21:20:22.1,-769.942,583.099,147.803,4755.625,-5114.375,-5311.25,1,1,0,1618748422.1
372,2021/4/18 21:20:22.2,-784.216,563.945,156.648,5328.75,-4191.25,-4996.25,1,1,0,1618748422.2
373,2021/4/18 21:20:22.3,-790.926,555.344,159.942,4882.5,1054.375,-2721.25,1,1,0,1618748422.3
374,2021/4/18 21:20:22.4,-796.904,547.78,162.931,5114.375,-4598.125,-3390.625,1,1,0,1618748422.4
375,2021/4/18 21:20:22.5,-808.006,534.177,167.079,4431.875,-5232.5,-3438.75,1,1,0,1618748422.5
376,2021/4/18 21:20:22.6,-813.374,527.772,168.421,4396.875,-2861.25,-2485.0,1,1,0,1618748422.6
377,2021/4/18 21:20:22.7,-818.986,522.282,170.312,3355.625,1185.625,-1653.75,1,1,0,1618748422.7
378,2021/4/18 21:20:22.8,-823.988,517.585,171.593,2826.25,-3416.875,-4300.625,1,1,0,1618748422.8
379,2021/4/18 21:20:22.9,-832.345,507.52,172.691,2931.25,-7035.0,-5005.0,1,1,0,1618748422.9
380,2021/4/18 21:20:23.0,-836.127,502.945,172.386,3381.875,-6571.25,-5066.25,1,1,0,1618748423.0
381,2021/4/18 21:20:23.1,-839.543,498.919,172.691,695.625,-4554.375,-2458.75,1,1,0,1618748423.1
382,2021/4/18 21:20:23.2,-842.349,495.015,172.752,-923.125,-2625.0,-1583.75,1,1,0,1618748423.2
383,2021/4/18 21:20:23.3,-847.961,488.244,172.264,148.75,-5411.875,-2751.875,1,1,0,1618748423.3
384,2021/4/18 21:20:23.4,-850.645,485.133,171.837,844.375,-5600.0,-2174.375,1,1,0,1618748423.4
385,2021/4/18 21:20:23.5,-853.451,482.205,171.532,1225.0,-6685.0,-3460.625,1,1,0,1618748423.5
386,2021/4/18 21:20:23.6,-858.819,476.898,172.386,1233.75,-6453.125,-3058.125,1,1,0,1618748423.6
387,2021/4/18 21:20:23.7,-860.71,474.397,172.508,1448.125,-6431.25,-2397.5,1,1,0,1618748423.7
388,2021/4/18 21:20:23.8,-862.479,472.506,172.996,2318.75,-7056.875,-3661.875,1,1,0,1618748423.8
389,2021/4/18 21:20:23.9,-864.309,470.554,173.606,1885.625,-7227.5,-4016.25,1,1,0,1618748423.9
390,2021/4/18 21:20:24.0,-869.86,459.757,175.314,-15159.375,63336.875,-22299.375,1,1,0,1618748424.0
391,2021/4/18 21:20:24.1,-866.505,450.912,177.022,-60746.875,129276.875,-43715.0,1,1,0,1618748424.1
392,2021/4/18 21:20:24.2,-844.362,462.136,140.849,-30891.875,-71680.0,19608.75,1,1,0,1618748424.2
393,2021/4/18 21:20:24.3,-809.653,473.726,50.569,-3115.0,-143342.5,124188.75,1,1,0,1618748424.3
394,2021/4/18 21:20:24.4,-760.487,478.545,64.965,30625.0,-58734.375,102974.375,1,1,0,1618748424.4
395,2021/4/18 21:20:24.5,-732.61,495.991,95.282,12534.375,-5919.375,26390.0,1,1,0,1618748424.5
396,2021/4/18 21:20:24.6,-713.212,515.267,116.693,5831.875,-1308.125,-6816.25,1,1,0,1618748424.6
397,2021/4/18 21:20:24.7,-687.348,545.523,147.071,9681.875,-306.25,-3806.25,1,1,0,1618748424.7
398,2021/4/18 21:20:24.8,-680.394,565.958,145.302,-7875.0,-4427.5,1846.25,1,1,0,1618748424.8
399,2021/4/18 21:20:24.9,-669.109,585.722,151.28,-9773.75,-10885.0,-2095.625,1,1,0,1618748424.9
400,2021/4/18 21:20:25.0,-655.933,595.116,170.8,11388.125,-13982.5,-8010.625,1,1,0,1618748425.0
401,2021/4/18 21:20:25.1,-626.592,617.808,190.442,4475.625,-5643.75,10482.5,1,1,0,1618748425.1
402,2021/4/18 21:20:25.2,-622.627,631.472,196.603,-6173.125,-7271.25,10333.75,1,1,0,1618748425.2
403,2021/4/18 21:20:25.3,-614.087,648.308,199.531,-31473.75,-31272.5,-28428.75,1,1,0,1618748425.3
404,2021/4/18 21:20:25.4,-595.726,656.848,232.288,-13510.0,-6400.625,-47451.25,1,1,0,1618748425.4
405,2021/4/18 21:20:25.5,-592.554,655.811,251.686,12460.0,9222.5,-30104.375,1,1,0,1618748425.5
406,2021/4/18 21:20:25.6,-592.798,657.824,264.557,12201.875,840.0,-20265.0,1,1,0,1618748425.6
407,2021/4/18 21:20:25.7,-593.53,658.922,276.513,9156.875,-5901.875,-17994.375,1,1,0,1618748425.7
408,2021/4/18 21:20:25.8,-597.739,657.092,299.327,3928.75,-5775.0,-18025.0,1,1,0,1618748425.8
409,2021/4/18 21:20:25.9,-599.63,655.506,310.002,573.125,-10456.25,-17898.125,1,1,0,1618748425.9
410,2021/4/18 21:25:28.0,852.475,2.318,520.513,1535.625,-6168.75,-3530.625,0,0,0,1618748728.0
411,2021/4/18 21:25:28.1,852.475,2.257,520.452,1566.25,-6103.125,-3530.625,0,0,0,1618748728.1
412,2021/4/18 21:25:28.2,852.475,2.196,520.33,1509.375,-6125.0,-3438.75,0,0,0,1618748728.2
413,2021/4/18 21:25:28.3,852.475,2.013,520.33,1631.875,-6133.75,-3548.125,0,0,0,1618748728.3
414,2021/4/18 21:25:28.4,852.597,2.013,520.269,1601.25,-6168.75,-3561.25,0,0,0,1618748728.4
415,2021/4/18 21:25:28.5,852.658,2.013,520.208,1513.75,-6129.375,-3504.375,0,0,0,1618748728.5
416,2021/4/18 21:25:28.6,852.597,2.196,519.964,1548.75,-6164.375,-3381.875,0,0,0,1618748728.6
417,2021/4/18 21:25:28.7,852.597,2.318,519.903,1680.0,-6138.125,-3421.25,0,0,0,1618748728.7
418,2021/4/18 21:25:28.8,852.536,2.44,519.903,1653.75,-6195.0,-3456.25,0,0,0,1618748728.8
419,2021/4/18 21:25:28.9,852.536,2.501,519.964,1662.5,-6221.25,-3500.0,0,0,0,1618748728.9
420,2021/4/18 21:25:29.0,852.475,2.318,520.147,1614.375,-6251.875,-3513.125,0,0,0,1618748729.0
421,2021/4/18 21:25:29.1,852.231,2.379,520.086,1715.0,-6125.0,-3500.0,0,0,0,1618748729.1
422,2021/4/18 21:25:29.2,852.17,2.318,519.964,1671.25,-6090.0,-3377.5,0,0,0,1618748729.2
423,2021/4/18 21:25:29.3,852.231,2.318,520.025,1658.125,-6011.25,-3495.625,0,0,0,1618748729.3
424,2021/4/18 21:25:29.4,852.17,2.379,519.964,1544.375,-6129.375,-3438.75,0,0,0,1618748729.4
425,2021/4/18 21:25:29.5,852.109,2.44,519.964,1610.0,-6055.0,-3491.25,0,0,0,1618748729.5
426,2021/4/18 21:25:29.6,852.109,2.379,520.025,1627.5,-6085.625,-3395.0,0,0,0,1618748729.6
427,2021/4/18 21:25:29.7,852.231,2.257,520.086,1596.875,-6090.0,-3500.0,0,0,0,1618748729.7
428,2021/4/18 21:25:29.8,852.109,2.257,520.147,1583.75,-6216.875,-3517.5,0,0,0,1618748729.8
429,2021/4/18 21:25:29.9,852.048,2.257,520.208,1588.125,-6146.875,-3574.375,0,0,0,1618748729.9
430,2021/4/18 21:25:30.0,851.987,2.318,520.391,1627.5,-6138.125,-3508.75,0,0,0,1618748730.0
431,2021/4/18 21:25:30.1,851.865,2.257,520.452,1592.5,-6208.125,-3535.0,0,0,0,1618748730.1
432,2021/4/18 21:25:30.2,851.743,2.257,520.513,1614.375,-6186.25,-3526.25,0,0,0,1618748730.2
433,2021/4/18 21:25:30.3,851.682,2.196,520.513,1561.875,-6164.375,-3460.625,0,0,0,1618748730.3
434,2021/4/18 21:25:30.4,851.621,2.196,520.574,1618.75,-6304.375,-3556.875,0,0,0,1618748730.4
435,2021/4/18 21:25:30.5,851.621,2.257,520.635,1636.25,-6120.625,-3526.25,0,0,0,1618748730.5
436,2021/4/18 21:25:30.6,851.682,2.196,520.513,1640.625,-6190.625,-3508.75,0,0,0,1618748730.6
437,2021/4/18 21:25:30.7,851.804,2.074,520.391,1548.75,-6024.375,-3473.75,0,0,0,1618748730.7
438,2021/4/18 21:25:30.8,851.865,2.074,520.391,1653.75,-6190.625,-3465.0,0,0,0,1618748730.8
439,2021/4/18 21:25:30.9,851.865,2.074,520.452,1693.125,-6177.5,-3521.875,0,0,0,1618748730.9
440,2021/4/18 21:25:31.0,851.926,2.074,520.391,1671.25,-6230.0,-3574.375,0,0,0,1618748731.0
441,2021/4/18 21:25:31.1,851.987,2.135,520.269,1557.5,-6076.875,-3495.625,0,0,0,1618748731.1
442,2021/4/18 21:25:31.2,852.109,2.257,520.208,1649.375,-6225.625,-3530.625,0,0,0,1618748731.2
443,2021/4/18 21:25:31.3,852.231,2.318,520.269,1601.25,-6164.375,-3513.125,0,0,0,1618748731.3
444,2021/4/18 21:25:31.4,852.17,2.257,520.33,1653.75,-6173.125,-3613.75,0,0,0,1618748731.4
445,2021/4/18 21:25:31.5,851.987,2.196,520.391,1544.375,-6037.5,-3491.25,0,0,0,1618748731.5
446,2021/4/18 21:25:31.6,851.987,2.257,520.33,1588.125,-6098.75,-3456.25,0,0,0,1618748731.6
447,2021/4/18 21:25:31.7,852.109,2.196,520.147,1557.5,-6173.125,-3539.375,0,0,0,1618748731.7
448,2021/4/18 21:25:31.8,852.17,2.135,520.147,1583.75,-6247.5,-3491.25,0,0,0,1618748731.8
449,2021/4/18 21:25:31.9,852.414,2.135,520.147,1640.625,-6164.375,-3443.125,0,0,0,1618748731.9
450,2021/4/18 21:25:32.0,852.353,2.074,520.147,1605.625,-6199.375,-3473.75,0,0,0,1618748732.0
451,2021/4/18 21:25:32.1,852.292,2.074,520.086,1548.75,-6068.125,-3495.625,0,0,0,1618748732.1
452,2021/4/18 21:25:32.2,852.231,2.074,519.964,1566.25,-6055.0,-3543.75,0,0,0,1618748732.2
453,2021/4/18 21:25:32.3,852.109,2.135,519.964,1596.875,-6221.25,-3500.0,0,0,0,1618748732.3
454,2021/4/18 21:25:32.4,852.109,2.257,520.025,1680.0,-6265.0,-3438.75,0,0,0,1618748732.4
455,2021/4/18 21:25:32.5,852.17,2.196,520.208,1592.5,-6155.625,-3456.25,0,0,0,1618748732.5
456,2021/4/18 21:25:32.6,852.231,2.257,520.269,1610.0,-6238.75,-3478.125,0,0,0,1618748732.6
457,2021/4/18 21:25:32.7,852.353,2.257,520.269,1653.75,-6260.625,-3526.25,0,0,0,1618748732.7
458,2021/4/18 21:25:32.8,852.414,2.196,520.269,1684.375,-6094.375,-3408.125,0,0,0,1618748732.8
459,2021/4/18 21:25:32.9,852.353,2.196,520.269,1570.625,-6046.25,-3421.25,0,0,0,1618748732.9
460,2021/4/18 21:25:33.0,852.231,2.257,520.269,1640.625,-6063.75,-3320.625,0,0,0,1618748733.0
461,2021/4/18 21:25:33.1,852.17,2.257,520.269,1610.0,-6155.625,-3386.25,0,0,0,1618748733.1
462,2021/4/18 21:25:33.2,852.231,2.318,520.33,1653.75,-6103.125,-3482.5,0,0,0,1618748733.2
463,2021/4/18 21:25:33.3,852.231,2.318,520.269,1570.625,-6103.125,-3469.375,0,0,0,1618748733.3
464,2021/4/18 21:25:33.4,852.048,2.135,520.269,1561.875,-6216.875,-3517.5,0,0,0,1618748733.4
465,2021/4/18 21:25:33.5,852.048,2.135,520.269,1636.25,-6155.625,-3500.0,0,0,0,1618748733.5
466,2021/4/18 21:25:33.6,852.048,2.257,520.208,1623.125,-6151.25,-3548.125,0,0,0,1618748733.6
467,2021/4/18 21:25:33.7,852.17,2.257,520.269,1570.625,-6142.5,-3500.0,0,0,0,1618748733.7
468,2021/4/18 21:25:33.8,852.231,2.196,520.33,1610.0,-6076.875,-3605.0,0,0,0,1618748733.8
469,2021/4/18 21:25:33.9,852.414,2.196,520.269,1640.625,-6129.375,-3495.625,0,0,0,1618748733.9
470,2021/4/18 21:25:34.0,852.475,2.074,520.208,1614.375,-6146.875,-3495.625,0,0,0,1618748734.0
471,2021/4/18 21:25:34.1,852.597,1.952,520.33,1553.125,-6068.125,-3482.5,0,0,0,1618748734.1
472,2021/4/18 21:25:34.2,852.658,2.013,520.33,1566.25,-6002.5,-3526.25,0,0,0,1618748734.2
473,2021/4/18 21:25:34.3,852.658,2.013,520.33,1596.875,-6142.5,-3465.0,0,0,0,1618748734.3
474,2021/4/18 21:25:34.4,852.78,2.074,520.391,1658.125,-6116.25,-3421.25,0,0,0,1618748734.4
475,2021/4/18 21:25:34.5,852.78,2.135,520.33,1548.75,-6028.75,-3399.375,0,0,0,1618748734.5
476,2021/4/18 21:25:34.6,852.719,2.074,520.391,1614.375,-6028.75,-3434.375,0,0,0,1618748734.6
477,2021/4/18 21:25:34.7,852.658,2.074,520.452,1592.5,-6164.375,-3495.625,0,0,0,1618748734.7
478,2021/4/18 21:25:34.8,852.658,2.135,520.574,1509.375,-6098.75,-3491.25,0,0,0,1618748734.8
479,2021/4/18 21:25:34.9,852.475,2.135,520.452,1570.625,-6251.875,-3460.625,0,0,0,1618748734.9
480,2021/4/18 21:25:35.0,852.353,2.135,520.513,1627.5,-6155.625,-3434.375,0,0,0,1618748735.0
481,2021/4/18 21:25:35.1,852.292,2.074,520.574,1592.5,-6247.5,-3570.0,0,0,0,1618748735.1
482,2021/4/18 21:25:35.2,852.109,2.013,520.574,1623.125,-6190.625,-3521.875,0,0,0,1618748735.2
483,2021/4/18 21:25:35.3,852.048,2.135,520.574,1640.625,-6076.875,-3478.125,0,0,0,1618748735.3
484,2021/4/18 21:25:35.4,852.17,2.135,520.452,1653.75,-6177.5,-3473.75,0,0,0,1618748735.4
485,2021/4/18 21:25:35.5,852.231,2.074,520.391,1614.375,-6190.625,-3543.75,0,0,0,1618748735.5
486,2021/4/18 21:25:35.6,852.17,2.257,520.452,1566.25,-6063.75,-3482.5,0,0,0,1618748735.6
487,2021/4/18 21:25:35.7,852.231,2.196,520.452,1605.625,-6212.5,-3478.125,0,0,0,1618748735.7
488,2021/4/18 21:25:35.8,852.17,2.196,520.452,1636.25,-6033.125,-3465.0,0,0,0,1618748735.8
489,2021/4/18 21:25:35.9,852.353,2.318,520.513,1623.125,-6033.125,-3377.5,0,0,0,1618748735.9
490,2021/4/18 21:30:38.0,-39.894,31.11,995.642,1623.125,-6076.875,-3513.125,0,0,0,1618749038.0
491,2021/4/18 21:30:38.1,-39.833,31.049,995.52,1640.625,-6111.875,-3456.25,0,0,0,1618749038.1
492,2021/4/18 21:30:38.2,-39.772,31.049,995.52,1623.125,-6133.75,-3495.625,0,0,0,1618749038.2
493,2021/4/18 21:30:38.3,-39.65,31.049,995.337,1557.5,-6203.75,-3456.25,0,0,0,1618749038.3
494,2021/4/18 21:30:38.4,-39.589,31.049,995.459,1540.0,-6129.375,-3469.375,0,0,0,1618749038.4
495,2021/4/18 21:30:38.5,-39.528,30.927,995.52,1579.375,-6186.25,-3504.375,0,0,0,1618749038.5
496,2021/4/18 21:30:38.6,-39.528,30.988,995.52,1688.75,-6295.625,-3530.625,0,0,0,1618749038.6
497,2021/4/18 21:30:38.7,-39.223,30.988,995.459,1697.5,-6308.75,-3504.375,0,0,0,1618749038.7
498,2021/4/18 21:30:38.8,-39.101,31.049,995.581,1601.25,-6313.125,-3513.125,0,0,0,1618749038.8
499,2021/4/18 21:30:38.9,-39.162,31.171,995.642,1557.5,-6230.0,-3578.75,0,0,0,1618749038.9
500,2021/4/18 21:30:39.0,-39.345,31.171,995.764,1618.75,-6199.375,-3530.625,0,0,0,1618749039.0
501,2021/4/18 21:30:39.1,-39.345,31.232,995.764,1601.25,-6173.125,-3517.5,0,0,0,1618749039.1
502,2021/4/18 21:30:39.2,-39.223,31.293,995.825,1631.875,-6125.0,-3491.25,0,0,0,1618749039.2
503,2021/4/18 21:30:39.3,-39.101,31.293,995.886,1631.875,-6050.625,-3416.875,0,0,0,1618749039.3
504,2021/4/18 21:30:39.4,-39.345,31.171,995.886,1557.5,-6190.625,-3543.75,0,0,0,1618749039.4
505,2021/4/18 21:30:39.5,-39.406,31.171,995.886,1478.75,-6129.375,-3447.5,0,0,0,1618749039.5
506,2021/4/18 21:30:39.6,-39.467,31.232,995.825,1592.5,-6203.75,-3447.5,0,0,0,1618749039.6
507,2021/4/18 21:30:39.7,-39.345,31.354,995.764,1548.75,-6177.5,-3447.5,0,0,0,1618749039.7
508,2021/4/18 21:30:39.8,-39.406,31.293,995.764,1570.625,-6181.875,-3430.0,0,0,0,1618749039.8
509,2021/4/18 21:30:39.9,-39.406,31.232,995.703,1575.0,-6203.75,-3508.75,0,0,0,1618749039.9
510,2021/4/18 21:30:40.0,-39.406,31.171,995.764,1614.375,-6155.625,-3548.125,0,0,0,1618749040.0
511,2021/4/18 21:30:40.1,-39.345,31.232,995.764,1518.125,-6125.0,-3478.125,0,0,0,1618749040.1
512,2021/4/18 21:30:40.2,-39.284,31.171,995.825,1592.5,-6133.75,-3434.375,0,0,0,1618749040.2
513,2021/4/18 21:30:40.3,-39.406,31.11,995.764,1561.875,-6173.125,-3535.0,0,0,0,1618749040.3
514,2021/4/18 21:30:40.4,-39.467,31.049,995.764,1610.0,-6177.5,-3570.0,0,0,0,1618749040.4
515,2021/4/18 21:30:40.5,-39.406,31.11,995.886,1623.125,-6155.625,-3530.625,0,0,0,1618749040.5
516,2021/4/18 21:30:40.6,-39.528,31.11,995.886,1627.5,-6190.625,-3434.375,0,0,0,1618749040.6
517,2021/4/18 21:30:40.7,-39.589,31.049,996.008,1588.125,-6208.125,-3416.875,0,0,0,1618749040.7
518,2021/4/18 21:30:40.8,-39.528,31.171,996.069,1544.375,-6221.25,-3456.25,0,0,0,1618749040.8
519,2021/4/18 21:30:40.9,-39.65,31.293,995.947,1662.5,-6269.375,-3543.75,0,0,0,1618749040.9
520,2021/4/18 21:30:41.0,-39.772,31.293,996.008,1518.125,-6146.875,-3478.125,0,0,0,1618749041.0
521,2021/4/18 21:30:41.1,-39.772,31.171,995.886,1526.875,-6168.75,-3425.625,0,0,0,1618749041.1
522,2021/4/18 21:30:41.2,-39.772,31.293,996.008,1596.875,-6173.125,-3399.375,0,0,0,1618749041.2
523,2021/4/18 21:30:41.3,-39.772,31.415,995.947,1505.0,-6247.5,-3530.625,0,0,0,1618749041.3
524,2021/4/18 21:30:41.4,-39.833,31.476,995.886,1452.5,-6238.75,-3543.75,0,0,0,1618749041.4
525,2021/4/18 21:30:41.5,-39.833,31.415,995.764,1526.875,-6208.125,-3381.875,0,0,0,1618749041.5
526,2021/4/18 21:30:41.6,-39.833,31.354,995.642,1645.0,-6348.125,-3587.5,0,0,0,1618749041.6
527,2021/4/18 21:30:41.7,-39.65,31.354,995.52,1588.125,-6195.0,-3491.25,0,0,0,1618749041.7
528,2021/4/18 21:30:41.8,-39.528,31.415,995.398,1627.5,-6160.0,-3381.875,0,0,0,1618749041.8
529,2021/4/18 21:30:41.9,-39.406,31.415,995.398,1496.25,-6168.75,-3338.125,0,0,0,1618749041.9
530,2021/4/18 21:30:42.0,-39.406,31.415,995.215,1623.125,-6321.875,-3517.5,0,0,0,1618749042.0
531,2021/4/18 21:30:42.1,-39.406,31.293,995.093,1557.5,-6076.875,-3425.625,0,0,0,1618749042.1
532,2021/4/18 21:30:42.2,-39.406,31.171,995.154,1605.625,-6168.75,-3395.0,0,0,0,1618749042.2
533,2021/4/18 21:30:42.3,-39.345,31.232,995.337,1575.0,-6348.125,-3635.625,0,0,0,1618749042.3
534,2021/4/18 21:30:42.4,-39.284,31.354,995.459,1553.125,-6308.75,-3570.0,0,0,0,1618749042.4
535,2021/4/18 21:30:42.5,-39.223,31.293,995.52,1575.0,-6247.5,-3543.75,0,0,0,1618749042.5
536,2021/4/18 21:30:42.6,-39.04,31.232,995.459,1483.125,-6151.25,-3377.5,0,0,0,1618749042.6
537,2021/4/18 21:30:42.7,-39.223,31.11,995.215,1662.5,-6142.5,-3460.625,0,0,0,1618749042.7
538,2021/4/18 21:30:42.8,-39.345,31.049,995.276,1596.875,-6125.0,-3438.75,0,0,0,1618749042.8
539,2021/4/18 21:30:42.9,-39.284,31.049,995.459,1540.0,-6138.125,-3456.25,0,0,0,1618749042.9
540,2021/4/18 21:30:43.0,-39.406,31.049,995.642,1561.875,-6195.0,-3508.75,0,0,0,1618749043.0
541,2021/4/18 21:30:43.1,-39.345,31.049,995.52,1531.25,-6243.125,-3421.25,0,0,0,1618749043.1
542,2021/4/18 21:30:43.2,-39.345,30.988,995.459,1610.0,-6269.375,-3530.625,0,0,0,1618749043.2
543,2021/4/18 21:30:43.3,-39.345,30.988,995.52,1557.5,-6260.625,-3517.5,0,0,0,1618749043.3
544,2021/4/18 21:30:43.4,-39.162,31.171,995.215,1548.75,-6155.625,-3478.125,0,0,0,1618749043.4
545,2021/4/18 21:30:43.5,-39.101,31.171,995.032,1610.0,-6151.25,-3465.0,0,0,0,1618749043.5
546,2021/4/18 21:30:43.6,-39.101,31.11,994.971,1561.875,-6111.875,-3430.0,0,0,0,1618749043.6
547,2021/4/18 21:30:43.7,-38.979,31.049,995.032,1509.375,-6221.25,-3530.625,0,0,0,1618749043.7
548,2021/4/18 21:30:43.8,-38.857,31.049,995.154,1631.875,-6116.25,-3478.125,0,0,0,1618749043.8
549,2021/4/18 21:30:43.9,-38.674,31.171,995.215,1548.75,-6146.875,-3500.0,0,0,0,1618749043.9
550,2021/4/18 21:30:44.0,-38.674,31.232,995.154,1627.5,-6181.875,-3486.875,0,0,0,1618749044.0
551,2021/4/18 21:30:44.1,-38.918,31.415,995.337,1658.125,-6269.375,-3504.375,0,0,0,1618749044.1
552,2021/4/18 21:30:44.2,-38.979,31.293,995.276,1575.0,-6138.125,-3526.25,0,0,0,1618749044.2
553,2021/4/18 21:30:44.3,-39.04,31.11,995.215,1601.25,-5958.75,-3390.625,0,0,0,1618749044.3
554,2021/4/18 21:30:44.4,-39.101,31.11,995.215,1566.25,-6164.375,-3434.375,0,0,0,1618749044.4
555,2021/4/18 21:30:44.5,-39.162,31.171,995.276,1636.25,-6199.375,-3421.25,0,0,0,1618749044.5
556,2021/4/18 21:30:44.6,-39.162,31.11,995.337,1505.0,-6129.375,-3460.625,0,0,0,1618749044.6
557,2021/4/18 21:30:44.7,-39.162,31.049,995.398,1535.625,-6151.25,-3530.625,0,0,0,1618749044.7
558,2021/4/18 21:30:44.8,-39.162,31.049,995.459,1575.0,-6317.5,-3513.125,0,0,0,1618749044.8
559,2021/4/18 21:30:44.9,-39.284,31.171,995.642,1636.25,-6300.0,-3408.125,0,0,0,1618749044.9
560,2021/4/18 21:30:45.0,-39.223,31.293,995.703,1640.625,-6300.0,-3478.125,0,0,0,1618749045.0
561,2021/4/18 21:30:45.1,-39.345,31.293,995.764,1618.75,-6129.375,-3548.125,0,0,0,1618749045.1
562,2021/4/18 21:30:45.2,-39.467,31.171,995.642,1579.375,-6221.25,-3495.625,0,0,0,1618749045.2
563,2021/4/18 21:30:45.3,-39.467,31.232,995.703,1535.625,-6203.75,-3486.875,0,0,0,1618749045.3
564,2021/4/18 21:30:45.4,-39.406,31.232,995.703,1605.625,-6225.625,-3578.75,0,0,0,1618749045.4
565,2021/4/18 21:30:45.5,-39.284,31.293,995.703,1680.0,-6247.5,-3517.5,0,0,0,1618749045.5
566,2021/4/18 21:30:45.6,-39.589,31.293,995.642,1697.5,-6243.125,-3443.125,0,0,0,1618749045.6
567,2021/4/18 21:30:45.7,-39.589,31.415,995.642,1680.0,-6265.0,-3552.5,0,0,0,1618749045.7
568,2021/4/18 21:30:45.8,-39.467,31.415,995.581,1553.125,-6230.0,-3517.5,0,0,0,1618749045.8
569,2021/4/18 21:30:45.9,-39.345,31.354,995.52,1526.875,-6155.625,-3447.5,0,0,0,1618749045.9
570,2021/4/18 21:35:48.0,-38.918,29.768,994.361,1566.25,-6111.875,-3504.375,0,0,0,1618749348.0
571,2021/4/18 21:35:48.1,-39.04,29.707,994.361,1575.0,-6273.75,-3486.875,0,0,0,1618749348.1
572,2021/4/18 21:35:48.2,-39.04,29.707,994.422,1579.375,-6208.125,-3495.625,0,0,0,1618749348.2
573,2021/4/18 21:35:48.3,-38.918,29.768,994.3,1561.875,-6195.0,-3408.125,0,0,0,1618749348.3
574,2021/4/18 21:35:48.4,-39.101,29.707,994.3,1544.375,-6269.375,-3469.375,0,0,0,1618749348.4
575,2021/4/18 21:35:48.5,-39.162,29.707,994.361,1531.25,-6216.875,-3434.375,0,0,0,1618749348.5
576,2021/4/18 21:35:48.6,-38.979,29.768,994.117,1710.625,-6343.75,-3364.375,0,0,0,1618749348.6
577,2021/4/18 21:35:48.7,-38.857,29.829,993.934,1570.625,-6243.125,-3513.125,0,0,0,1618749348.7
578,2021/4/18 21:35:48.8,-38.674,29.951,993.934,1583.75,-6111.875,-3530.625,0,0,0,1618749348.8
579,2021/4/18 21:35:48.9,-38.796,29.951,994.056,1605.625,-6164.375,-3508.75,0,0,0,1618749348.9
580,2021/4/18 21:35:49.0,-38.735,30.134,994.3,1561.875,-6273.75,-3421.25,0,0,0,1618749349.0
581,2021/4/18 21:35:49.1,-38.857,30.073,994.361,1592.5,-6203.75,-3447.5,0,0,0,1618749349.1
582,2021/4/18 21:35:49.2,-38.918,29.951,994.117,1583.75,-6308.75,-3447.5,0,0,0,1618749349.2
583,2021/4/18 21:35:49.3,-38.857,29.89,993.934,1535.625,-6216.875,-3504.375,0,0,0,1618749349.3
584,2021/4/18 21:35:49.4,-38.735,29.585,994.727,1596.875,-6011.25,-3530.625,0,0,0,1618749349.4
585,2021/4/18 21:35:49.5,-38.674,29.463,994.666,1662.5,-6265.0,-3465.0,0,0,0,1618749349.5
586,2021/4/18 21:35:49.6,-38.613,29.524,994.605,1579.375,-6326.25,-3583.125,0,0,0,1618749349.6
587,2021/4/18 21:35:49.7,-38.552,29.646,994.666,1509.375,-6286.875,-3491.25,0,0,0,1618749349.7
588,2021/4/18 21:35:49.8,-38.735,29.646,994.605,1605.625,-6251.875,-3478.125,0,0,0,1618749349.8
589,2021/4/18 21:35:49.9,-38.613,29.585,994.483,1605.625,-6225.625,-3495.625,0,0,0,1618749349.9
590,2021/4/18 21:35:50.0,-38.613,29.585,994.422,1640.625,-6409.375,-3473.75,0,0,0,1618749350.0
591,2021/4/18 21:35:50.1,-38.857,29.524,994.544,1627.5,-6190.625,-3486.875,0,0,0,1618749350.1
592,2021/4/18 21:35:50.2,-38.918,29.463,994.544,1601.25,-6103.125,-3504.375,0,0,0,1618749350.2
593,2021/4/18 21:35:50.3,-38.796,29.402,994.666,1522.5,-6160.0,-3434.375,0,0,0,1618749350.3
594,2021/4/18 21:35:50.4,-38.735,29.341,994.727,1526.875,-6164.375,-3513.125,0,0,0,1618749350.4
595,2021/4/18 21:35:50.5,-38.613,29.158,994.605,1553.125,-6383.125,-3482.5,0,0,0,1618749350.5
596,2021/4/18 21:35:50.6,-38.674,29.219,994.666,1618.75,-6335.0,-3425.625,0,0,0,1618749350.6
597,2021/4/18 21:35:50.7,-38.857,29.28,994.666,1518.125,-6098.75,-3443.125,0,0,0,1618749350.7
598,2021/4/18 21:35:50.8,-38.918,29.341,994.727,1544.375,-6321.875,-3543.75,0,0,0,1618749350.8
599,2021/4/18 21:35:50.9,-38.857,29.402,994.666,1631.875,-6247.5,-3513.125,0,0,0,1618749350.9
600,2021/4/18 21:35:51.0,-38.979,29.219,994.666,1561.875,-6278.125,-3447.5,0,0,0,1618749351.0
601,2021/4/18 21:35:51.1,-38.979,29.097,994.544,1623.125,-6238.75,-3346.875,0,0,0,1618749351.1
602,2021/4/18 21:35:51.2,-39.101,29.158,994.605,1531.25,-6269.375,-3578.75,0,0,0,1618749351.2
603,2021/4/18 21:35:51.3,-39.04,29.158,994.605,1518.125,-6295.625,-3570.0,0,0,0,1618749351.3
604,2021/4/18 21:35:51.4,-38.979,29.28,994.666,1623.125,-6466.25,-3530.625,0,0,0,1618749351.4
605,2021/4/18 21:35:51.5,-39.04,29.341,994.91,1579.375,-6326.25,-3491.25,0,0,0,1618749351.5
606,2021/4/18 21:35:51.6,-39.223,29.585,995.032,1592.5,-6282.5,-3473.75,0,0,0,1618749351.6
607,2021/4/18 21:35:51.7,-39.162,29.646,995.154,1500.625,-6291.25,-3434.375,0,0,0,1618749351.7
608,2021/4/18 21:35:51.8,-39.04,29.646,995.276,1601.25,-6221.25,-3460.625,0,0,0,1618749351.8
609,2021/4/18 21:35:51.9,-39.04,29.585,995.337,1553.125,-6247.5,-3443.125,0,0,0,1618749351.9
610,2021/4/18 21:35:52.0,-38.979,29.463,995.154,1583.75,-6308.75,-3513.125,0,0,0,1618749352.0
611,2021/4/18 21:35:52.1,-38.857,29.524,995.215,1662.5,-6313.125,-3556.875,0,0,0,1618749352.1
612,2021/4/18 21:35:52.2,-38.735,29.524,995.276,1645.0,-6356.875,-3530.625,0,0,0,1618749352.2
613,2021/4/18 21:35:52.3,-38.735,29.341,995.093,1491.875,-6269.375,-3451.875,0,0,0,1618749352.3
614,2021/4/18 21:35:52.4,-38.674,29.28,994.971,1548.75,-6269.375,-3438.75,0,0,0,1618749352.4
615,2021/4/18 21:35:52.5,-38.613,29.28,994.91,1671.25,-6339.375,-3478.125,0,0,0,1618749352.5
616,2021/4/18 21:35:52.6,-38.613,29.28,994.91,1605.625,-6405.0,-3561.25,0,0,0,1618749352.6
617,2021/4/18 21:35:52.7,-38.552,29.402,994.849,1623.125,-6304.375,-3491.25,0,0,0,1618749352.7
618,2021/4/18 21:35:52.8,-38.552,29.402,994.849,1614.375,-6370.0,-3526.25,0,0,0,1618749352.8
619,2021/4/18 21:35:52.9,-38.735,29.402,994.788,1575.0,-6422.5,-3618.125,0,0,0,1618749352.9
620,2021/4/18 21:35:53.0,-38.796,29.463,994.91,1522.5,-6203.75,-3517.5,0,0,0,1618749353.0
621,2021/4/18 21:35:53.1,-38.796,29.463,994.91,1566.25,-6339.375,-3626.875,0,0,0,1618749353.1
622,2021/4/18 21:35:53.2,-38.735,29.402,994.91,1618.75,-6479.375,-3556.875,0,0,0,1618749353.2
623,2021/4/18 21:35:53.3,-38.796,29.524,995.093,1461.25,-6234.375,-3478.125,0,0,0,1618749353.3
624,2021/4/18 21:35:53.4,-39.101,29.524,995.215,1618.75,-6133.75,-3565.625,0,0,0,1618749353.4
625,2021/4/18 21:35:53.5,-38.857,29.646,995.154,1618.75,-6208.125,-3561.25,0,0,0,1618749353.5
626,2021/4/18 21:35:53.6,-38.674,29.646,995.093,1675.625,-6326.25,-3587.5,0,0,0,1618749353.6
627,2021/4/18 21:35:53.7,-38.796,29.646,994.971,1570.625,-6265.0,-3530.625,0,0,0,1618749353.7
628,2021/4/18 21:35:53.8,-38.735,29.768,994.971,1588.125,-6168.75,-3508.75,0,0,0,1618749353.8
629,2021/4/18 21:35:53.9,-38.735,29.707,994.971,1671.25,-6343.75,-3548.125,0,0,0,1618749353.9
630,2021/4/18 21:35:54.0,-38.735,29.646,994.91,1653.75,-6352.5,-3600.625,0,0,0,1618749354.0
631,2021/4/18 21:35:54.1,-38.735,29.707,994.788,1553.125,-6317.5,-3486.875,0,0,0,1618749354.1
632,2021/4/18 21:35:54.2,-38.857,29.707,994.91,1605.625,-6164.375,-3521.875,0,0,0,1618749354.2
633,2021/4/18 21:35:54.3,-38.918,29.707,994.971,1614.375,-6365.625,-3539.375,0,0,0,1618749354.3
634,2021/4/18 21:35:54.4,-39.101,29.646,994.91,1640.625,-6335.0,-3565.625,0,0,0,1618749354.4
635,2021/4/18 21:35:54.5,-39.101,29.646,994.849,1592.5,-6212.5,-3552.5,0,0,0,1618749354.5
636,2021/4/18 21:35:54.6,-39.101,29.585,994.849,1658.125,-6405.0,-3600.625,0,0,0,1618749354.6
637,2021/4/18 21:35:54.7,-38.979,29.524,994.91,1592.5,-6348.125,-3561.25,0,0,0,1618749354.7
638,2021/4/18 21:35:54.8,-38.979,29.524,994.91,1575.0,-6400.625,-3635.625,0,0,0,1618749354.8
639,2021/4/18 21:35:54.9,-39.04,29.524,994.849,1605.625,-6426.875,-3530.625,0,0,0,1618749354.9
640,2021/4/18 21:35:55.0,-39.101,29.463,994.849,1623.125,-6405.0,-3504.375,0,0,0,1618749355.0
641,2021/4/18 21:35:55.1,-39.223,29.463,994.849,1561.875,-6396.25,-3578.75,0,0,0,1618749355.1
642,2021/4/18 21:35:55.2,-39.345,29.28,994.91,1640.625,-6326.25,-3561.25,0,0,0,1618749355.2
643,2021/4/18 21:35:55.3,-39.223,29.158,994.91,1627.5,-6300.0,-3530.625,0,0,0,1618749355.3
644,2021/4/18 21:35:55.4,-39.223,29.158,994.91,1588.125,-6286.875,-3416.875,0,0,0,1618749355.4
645,2021/4/18 21:35:55.5,-39.284,29.097,994.91,1544.375,-6195.0,-3465.0,0,0,0,1618749355.5
646,2021/4/18 21:35:55.6,-39.101,29.219,994.971,1610.0,-6413.75,-3478.125,0,0,0,1618749355.6
647,2021/4/18 21:35:55.7,-39.223,29.28,995.032,1588.125,-6181.875,-3482.5,0,0,0,1618749355.7
648,2021/4/18 21:35:55.8,-39.284,29.28,994.971,1566.25,-6046.25,-3399.375,0,0,0,1618749355.8
649,2021/4/18 21:35:55.9,-39.162,29.28,994.727,1588.125,-6190.625,-3491.25,0,0,0,1618749355.9
