﻿Count,Time,S_Sensor_Scale,Accel X,Accel Y,Accel Z,Gyro X,Gyro Y,Gyro Z,Accel X(Org),Accel Y(Org),Accel Z(Org),Gyro X(Org),Gyro Y(Org),Gyro Z(Org),Data,書く,集中,楽しさ,科目
0,2021/4/19 11:24:45,0,50.447,-28.853,-100.955,-4698.75,2397.5,3753.75,827,-473,-1655,-1074,548,858,FFF1007D687D60003B0327FE89F9CEFB24025A03,0,0,0,電車
1,2021/4/19 11:24:45,0,73.444,-42.151,-146.217,1360.625,-1185.625,2769.375,1204,-691,-2397,311,-271,633,FFF1017D687D6000B4044DFDA3F63701F1FE7902,0,0,0,電車
2,2021/4/19 11:24:45,0,96.075,-54.595,-188.551,-52.5,-3753.75,2104.375,1575,-895,-3091,-12,-858,481,FFF1027D687D6000270681FCEDF3F4FFA6FCE101,0,0,0,電車
3,2021/4/19 11:24:45,0,137.433,-76.25,-265.289,1623.125,-5145,227.5,2253,-1250,-4349,371,-1176,52,FFF1037D687D6000CD081EFB03EF730168FB3400,0,0,0,電車
4,2021/4/19 11:24:45,0,155.611,-86.559,-300.974,1010.625,-4843.125,-43.75,2551,-1419,-4934,231,-1107,-10,FFF1047D687D6000F70975FABAECE700ADFBF6FF,0,0,0,電車
5,2021/4/19 11:24:46,0,172.691,-95.892,-334.463,590.625,-3902.5,844.375,2831,-1572,-5483,135,-892,193,FFF1057E687D60000F0BDCF995EA870084FCC100,0,0,0,電車
6,2021/4/19 11:24:46,0,188.978,-104.554,-365.817,393.75,-3745,1365,3098,-1714,-5997,90,-856,312,FFF1067E687D60001A0C4EF993E85A00A8FC3801,0,0,0,電車
7,2021/4/19 11:24:46,0,220.027,-122.183,-423.157,621.25,-4011.875,1338.75,3607,-2003,-6937,142,-917,306,FFF1077E687D6000170E2DF8E7E48E006BFC3201,0,0,0,電車
8,2021/4/19 11:24:46,0,233.935,-130.54,-449.265,1421.875,-4278.75,1338.75,3835,-2140,-7365,325,-978,306,FFF1087E687D6000FB0EA4F73BE345012EFC3201,0,0,0,電車
9,2021/4/19 11:24:46,0,246.684,-138.104,-473.482,1321.25,-4974.375,818.125,4044,-2264,-7762,302,-1137,187,FFF1097E687D6000CC0F28F7AEE12E018FFBBB00,0,0,0,電車
10,2021/4/19 11:24:46,0,269.132,-150.548,-515.999,459.375,-4571.875,1028.125,4412,-2468,-8459,105,-1045,235,FFF10A7E687D60003C115CF6F5DE6900EBFBEB00,0,0,0,電車
11,2021/4/19 11:24:46,0,279.624,-155.672,-535.031,612.5,-4392.5,1050,4584,-2552,-8771,140,-1004,240,FFF10B7E687D6000E81108F6BDDD8C0014FCF000,0,0,0,電車
0,2021/4/19 11:24:46,0,289.628,-160.186,-552.904,778.75,-4213.125,1019.375,4748,-2626,-9064,178,-963,233,FFF1007E687D60008C12BEF598DCB2003DFCE900,0,0,0,電車
1,2021/4/19 11:24:46,0,299.205,-164.761,-570.167,1015,-3753.75,1054.375,4905,-2701,-9347,232,-858,241,FFF1017E687D6000291373F57DDBE800A6FCF100,0,0,0,電車
2,2021/4/19 11:24:46,0,315.98,-174.216,-602.009,883.75,-4116.875,905.625,5180,-2856,-9869,202,-941,207,FFF1027E687D60003C14D8F473D9CA0053FCCF00,0,0,0,電車
3,2021/4/19 11:24:47,0,323.788,-178.791,-616.71,818.125,-4510.625,345.625,5308,-2931,-10110,187,-1031,79,FFF1037F687D6000BC148DF482D8BB00F9FB4F00,0,0,0,電車
4,2021/4/19 11:24:47,0,331.352,-183,-630.923,962.5,-4515,183.75,5432,-3000,-10343,220,-1032,42,FFF1047F687D6000381548F499D7DC00F8FB2A00,0,0,0,電車
5,2021/4/19 11:24:47,0,344.711,-190.198,-655.506,1255.625,-4913.125,529.375,5651,-3118,-10746,287,-1123,121,FFF1057F687D60001316D2F306D61F019DFB7900,0,0,0,電車
6,2021/4/19 11:24:47,0,351.665,-192.15,-666.242,1330,-4278.75,380.625,5765,-3150,-10922,304,-978,87,FFF1067F687D60008516B2F356D530012EFC5700,0,0,0,電車
7,2021/4/19 11:24:47,0,357.948,-194.895,-676.551,1281.875,-4799.375,258.125,5868,-3195,-11091,293,-1097,59,FFF1077F687D6000EC1685F3ADD42501B7FB3B00,0,0,0,電車
8,2021/4/19 11:24:47,0,363.133,-197.152,-685.945,1150.625,-4405.625,319.375,5953,-3232,-11245,263,-1007,73,FFF1087F687D6000411760F313D4070111FC4900,0,0,0,電車
9,2021/4/19 11:24:47,0,372.649,-199.653,-701.805,1032.5,-4458.125,201.25,6109,-3273,-11505,236,-1019,46,FFF1097F687D6000DD1737F30FD3EC0005FC2E00,0,0,0,電車
10,2021/4/19 11:24:47,0,377.407,-201.483,-709.552,1207.5,-4991.875,-87.5,6187,-3303,-11632,276,-1141,-20,FFF10A7F687D60002B1819F390D214018BFBECFF,0,0,0,電車
11,2021/4/19 11:24:47,0,382.226,-203.74,-717.482,1185.625,-4593.75,-70,6266,-3340,-11762,271,-1050,-16,FFF10B7F687D60007A18F4F20ED20F01E6FBF0FF,0,0,0,電車
0,2021/4/19 11:24:47,0,386.862,-205.57,-725.168,1417.5,-4414.375,113.75,6342,-3370,-11888,324,-1009,26,FFF1007F687D6000C618D6F290D144010FFC1A00,0,0,0,電車
1,2021/4/19 11:24:48,0,395.097,-208.132,-739.93,980,-3281.25,0,6477,-3412,-12130,224,-750,0,FFF10180687D60004D19ACF29ED0E00012FD0000,0,0,0,電車
2,2021/4/19 11:24:48,0,399.855,-208.681,-746.213,945,-4690,-131.25,6555,-3421,-12233,216,-1072,-30,FFF10280687D60009B19A3F237D0D800D0FBE2FF,0,0,0,電車
3,2021/4/19 11:24:48,0,403.82,-210.633,-752.862,1041.25,-4086.25,17.5,6620,-3453,-12342,238,-934,4,FFF10380687D6000DC1983F2CACFEE005AFC0400,0,0,0,電車
4,2021/4/19 11:24:48,0,409.859,-211.548,-762.378,2191.875,-5280.625,-52.5,6719,-3468,-12498,501,-1207,-12,FFF10480687D60003F1A74F22ECFF50149FBF4FF,0,0,0,電車
5,2021/4/19 11:24:48,0,411.994,-210.999,-764.818,1973.125,-5346.25,-271.25,6754,-3459,-12538,451,-1222,-62,FFF10580687D6000621A7DF206CFC3013AFBC2FF,0,0,0,電車
6,2021/4/19 11:24:48,0,413.458,-211.243,-767.441,1675.625,-4029.375,-153.125,6778,-3463,-12581,383,-921,-35,FFF10680687D60007A1A79F2DBCE7F0167FCDDFF,0,0,0,電車
7,2021/4/19 11:24:48,0,415.166,-211.548,-769.759,1798.125,-4331.25,-17.5,6806,-3468,-12619,411,-990,-4,FFF10780687D6000961A74F2B5CE9B0122FCFCFF,0,0,0,電車
8,2021/4/19 11:24:48,0,420.656,-213.317,-778.848,459.375,-3298.75,-573.125,6896,-3497,-12768,105,-754,-131,FFF10880687D6000F01A57F220CE69000EFD7DFF,0,0,0,電車
9,2021/4/19 11:24:48,0,425.597,-212.463,-782.996,-459.375,-4296.25,-813.75,6977,-3483,-12836,-105,-982,-186,FFF10980687D6000411B65F2DCCD97FF2AFC46FF,0,0,0,電車
10,2021/4/19 11:24:48,0,429.989,-212.402,-787.388,533.75,-3136.875,48.125,7049,-3482,-12908,122,-717,11,FFF10A80687D6000891B66F294CD7A0033FD0B00,0,0,0,電車
11,2021/4/19 11:24:49,0,434.015,-215.94,-792.268,708.75,-3478.125,-420,7115,-3540,-12988,162,-795,-96,FFF10B81687D6000CB1B2CF244CDA200E5FCA0FF,0,0,0,電車
0,2021/4/19 11:24:49,0,438.468,-217.038,-791.902,-756.875,-4169.375,-61.25,7188,-3558,-12982,-173,-953,-14,FFF10081687D6000141C1AF24ACD53FF47FCF2FF,0,0,0,電車
1,2021/4/19 11:24:49,0,440.481,-216.977,-790.499,-3915.625,-5831.875,-1286.25,7221,-3557,-12959,-895,-1333,-294,FFF10181687D6000351C1BF261CD81FCCBFADAFE,0,0,0,電車
2,2021/4/19 11:24:49,0,441.884,-216.794,-789.035,-5390,-10136.875,-2642.5,7244,-3554,-12935,-1232,-2317,-604,FFF10281687D60004C1C1EF279CD30FBF3F6A4FD,0,0,0,電車
3,2021/4/19 11:24:49,0,446.947,-215.757,-793.061,6453.125,2918.125,-2686.25,7327,-3537,-13001,1475,667,-614,FFF10381687D60009F1C2FF237CDC3059B029AFD,0,0,0,電車
4,2021/4/19 11:24:49,0,451.949,-216.733,-796.965,2651.25,-3976.875,-2428.125,7409,-3553,-13065,606,-909,-555,FFF10481687D6000F11C1FF2F7CC5E0273FCD5FD,0,0,0,電車
5,2021/4/19 11:24:49,0,456.89,-217.038,-799.771,1303.75,-1701.875,-721.875,7490,-3558,-13111,298,-389,-165,FFF10581687D6000421D1AF2C9CC2A017BFE5BFF,0,0,0,電車
6,2021/4/19 11:24:49,0,461.77,-217.77,-802.333,826.875,-3272.5,-809.375,7570,-3570,-13153,189,-748,-185,FFF10681687D6000921D0EF29FCCBD0014FD47FF,0,0,0,電車
7,2021/4/19 11:24:49,0,467.626,-219.295,-800.625,-3237.5,-4138.75,1478.75,7666,-3595,-13125,-740,-946,338,FFF10781687D6000F21DF5F1BBCC1CFD4EFC5201,0,0,0,電車
8,2021/4/19 11:24:49,0,470.737,-217.892,-797.453,-4532.5,-5919.375,188.125,7717,-3572,-13073,-1036,-1353,43,FFF10881687D6000251E0CF2EFCCF4FBB7FA2B00,0,0,0,電車
9,2021/4/19 11:24:50,0,474.885,-216.245,-794.83,2590,-3692.5,-2865.625,7785,-3545,-13030,592,-844,-655,FFF10982687D6000691E27F21ACD5002B4FC71FD,0,0,0,電車
10,2021/4/19 11:24:50,0,479.155,-214.659,-793.854,4191.25,-3876.25,-1203.125,7855,-3519,-13014,958,-886,-275,FFF10A82687D6000AF1E41F22ACDBE038AFCEDFE,0,0,0,電車
11,2021/4/19 11:24:50,0,486.048,-214.781,-793.915,1172.5,-6588.75,-3198.125,7968,-3521,-13015,268,-1506,-731,FFF10B82687D6000201F3FF229CD0C011EFA25FD,0,0,0,電車
0,2021/4/19 11:24:50,0,488.854,-214.232,-794.403,3679.375,-2524.375,-61.25,8014,-3512,-13023,841,-577,-14,FFF10082687D60004E1F48F221CD4903BFFDF2FF,0,0,0,電車
1,2021/4/19 11:24:50,0,491.416,-215.147,-795.501,4703.125,1435,-450.625,8056,-3527,-13041,1075,328,-103,FFF10182687D6000781F39F20FCD3304480199FF,0,0,0,電車
2,2021/4/19 11:24:50,0,498.126,-216.977,-793.915,643.125,-3460.625,-266.875,8166,-3557,-13015,147,-791,-61,FFF10282687D6000E61F1BF229CD9300E9FCC3FF,0,0,0,電車
3,2021/4/19 11:24:50,0,500.81,-216.428,-792.695,1421.875,-4116.875,-319.375,8210,-3548,-12995,325,-941,-73,FFF10382687D6000122024F23DCD450153FCB7FF,0,0,0,電車
4,2021/4/19 11:24:50,0,502.701,-216.55,-790.743,1076.25,-6195,-739.375,8241,-3550,-12963,246,-1416,-169,FFF10482687D6000312022F25DCDF60078FA57FF,0,0,0,電車
5,2021/4/19 11:24:50,0,503.799,-218.014,-788.974,-975.625,-8386.875,-3403.75,8259,-3574,-12934,-223,-1917,-778,FFF10582687D600043200AF27ACD21FF83F8F6FC,0,0,0,電車
6,2021/4/19 11:24:50,0,506.788,-216.062,-787.266,43.75,-8028.125,-5346.25,8308,-3542,-12906,10,-1835,-1222,FFF10682687D600074202AF296CD0A00D5F83AFB,0,0,0,電車
7,2021/4/19 11:24:51,0,507.947,-216.672,-787.876,2104.375,-6164.375,-3793.125,8327,-3552,-12916,481,-1409,-867,FFF10783687D6000872020F28CCDE1017FFA9DFC,0,0,0,電車
8,2021/4/19 11:24:51,0,508.374,-219.295,-788.974,-175,-6698.125,-3062.5,8334,-3595,-12934,-40,-1531,-700,FFF10883687D60008E20F5F17ACDD8FF05FA44FD,0,0,0,電車
9,2021/4/19 11:24:51,0,509.533,-219.112,-790.377,1518.125,-1338.75,223.125,8353,-3592,-12957,347,-306,51,FFF10983687D6000A120F8F163CD5B01CEFE3300,0,0,0,電車
10,2021/4/19 11:24:51,0,511.241,-219.173,-790.865,7739.375,6041.875,-1736.875,8381,-3593,-12965,1769,1381,-397,FFF10A83687D6000BD20F7F15BCDE906650573FE,0,0,0,電車
11,2021/4/19 11:24:51,0,512.4,-218.807,-789.218,-8338.75,-3460.625,-4567.5,8400,-3587,-12938,-1906,-791,-1044,FFF10B83687D6000D020FDF176CD8EF8E9FCECFB,0,0,0,電車
0,2021/4/19 11:24:51,0,512.461,-216.489,-785.741,-5175.625,861.875,-1610,8401,-3549,-12881,-1183,197,-368,FFF10083687D6000D12023F2AFCD61FBC50090FE,0,0,0,電車
1,2021/4/19 11:24:51,0,512.522,-211.731,-779.946,879.375,78.75,1190,8402,-3471,-12786,201,18,272,FFF10183687D6000D22071F20ECEC90012001001,0,0,0,電車
2,2021/4/19 11:24:51,0,515.755,-211.243,-778.482,-1968.75,-2940,-1023.75,8455,-3463,-12762,-450,-672,-234,FFF10283687D6000072179F226CE3EFE60FD16FF,0,0,0,電車
3,2021/4/19 11:24:51,0,519.964,-210.023,-778.421,-5744.375,-8251.25,-5941.25,8524,-3443,-12761,-1313,-1886,-1358,FFF10383687D60004C218DF227CEDFFAA2F8B2FA,0,0,0,電車
4,2021/4/19 11:24:51,0,523.99,-208.864,-780.617,-7450.625,-15216.25,-6440,8590,-3424,-12797,-1703,-3478,-1472,FFF10483687D60008E21A0F203CE59F96AF240FA,0,0,0,電車
5,2021/4/19 11:24:52,0,525.088,-208.01,-786.168,2533.125,1566.25,-704.375,8608,-3410,-12888,579,358,-161,FFF10584687D6000A021AEF2A8CD430266015FFF,0,0,0,電車
6,2021/4/19 11:24:52,0,526.613,-208.559,-789.279,-7752.5,-10066.875,-2458.75,8633,-3419,-12939,-1772,-2301,-562,FFF10684687D6000B921A5F275CD14F903F7CEFD,0,0,0,電車
7,2021/4/19 11:24:52,0,525.21,-205.57,-787.51,-2178.75,-8382.5,-551.25,8610,-3370,-12910,-498,-1916,-126,FFF10784687D6000A221D6F292CD0EFE84F882FF,0,0,0,電車
8,2021/4/19 11:24:52,0,524.722,-198.799,-790.072,5145,-1246.875,-1443.75,8602,-3259,-12952,1176,-285,-330,FFF10884687D60009A2145F368CD9804E3FEB6FE,0,0,0,電車
9,2021/4/19 11:24:52,0,523.868,-196.481,-786.29,756.875,-4838.75,-1159.375,8588,-3221,-12890,173,-1106,-265,FFF10984687D60008C216BF3A6CDAD00AEFBF7FE,0,0,0,電車
10,2021/4/19 11:24:52,0,523.746,-196.908,-786.229,1828.75,-3233.125,-1207.5,8586,-3228,-12889,418,-739,-276,FFF10A84687D60008A2164F3A7CDA2011DFDECFE,0,0,0,電車
11,2021/4/19 11:24:52,0,523.746,-198.799,-787.083,1277.5,-4060,-945,8586,-3259,-12903,292,-928,-216,FFF10B84687D60008A2145F399CD240160FC28FF,0,0,0,電車
0,2021/4/19 11:24:52,0,524.539,-199.531,-788.425,144.375,-3548.125,70,8599,-3271,-12925,33,-811,16,FFF10084687D6000972139F383CD2100D5FC1000,0,0,0,電車
1,2021/4/19 11:24:52,0,525.576,-199.897,-789.096,-1675.625,-2174.375,1159.375,8616,-3277,-12936,-383,-497,265,FFF10184687D6000A82133F378CD81FE0FFE0901,0,0,0,電車
2,2021/4/19 11:24:52,0,526.674,-201.849,-790.194,-3176.25,-4790.625,717.5,8634,-3309,-12954,-726,-1095,164,FFF10284687D6000BA2113F366CD2AFDB9FBA400,0,0,0,電車
3,2021/4/19 11:24:53,0,528.138,-202.459,-790.438,-1605.625,-4615.625,-437.5,8658,-3319,-12958,-367,-1055,-100,FFF10385687D6000D22109F362CD91FEE1FB9CFF,0,0,0,電車
4,2021/4/19 11:24:53,0,528.016,-201.3,-788.059,533.75,-4532.5,-1036.875,8656,-3300,-12919,122,-1036,-237,FFF10485687D6000D0211CF389CD7A00F4FB13FF,0,0,0,電車
5,2021/4/19 11:24:53,0,525.881,-202.032,-785.558,144.375,-4300.625,-1295,8621,-3312,-12878,33,-983,-296,FFF10585687D6000AD2110F3B2CD210029FCD8FE,0,0,0,電車
6,2021/4/19 11:24:53,0,523.563,-202.093,-782.752,-153.125,-3058.125,-1347.5,8583,-3313,-12832,-35,-699,-308,FFF10685687D600087210FF3E0CDDDFF45FDCCFE,0,0,0,電車
7,2021/4/19 11:24:53,0,522.892,-204.472,-783.179,-783.125,-4611.25,940.625,8572,-3352,-12839,-179,-1054,215,FFF10785687D60007C21E8F2D9CD4DFFE2FBD700,0,0,0,電車
8,2021/4/19 11:24:53,0,524.112,-204.228,-785.253,-1596.875,-3688.125,2034.375,8592,-3348,-12873,-365,-843,465,FFF10885687D60009021ECF2B7CD93FEB5FCD101,0,0,0,電車
9,2021/4/19 11:24:53,0,526.064,-204.899,-788.547,-1281.875,-2585.625,1505,8624,-3359,-12927,-293,-591,344,FFF10985687D6000B021E1F281CDDBFEB1FD5801,0,0,0,電車
10,2021/4/19 11:24:53,0,526.979,-207.095,-791.17,-560,-3710,1155,8639,-3395,-12970,-128,-848,264,FFF10A85687D6000BF21BDF256CD80FFB0FC0801,0,0,0,電車
11,2021/4/19 11:24:53,0,524.051,-208.498,-788.364,-227.5,-4466.875,-323.75,8591,-3418,-12924,-52,-1021,-74,FFF10B85687D60008F21A6F284CDCCFF03FCB6FF,0,0,0,電車
0,2021/4/19 11:24:53,0,521.428,-208.315,-785.863,-787.5,-3600.625,-4.375,8548,-3415,-12883,-180,-823,-1,FFF10085687D60006421A9F2ADCD4CFFC9FCFFFF,0,0,0,電車
1,2021/4/19 11:24:54,0,519.842,-208.437,-784.033,-1776.25,-3246.25,-249.375,8522,-3417,-12853,-406,-742,-57,FFF10186687D60004A21A7F2CBCD6AFE1AFDC7FF,0,0,0,電車
2,2021/4/19 11:24:54,0,518.866,-209.352,-782.935,-1907.5,-2865.625,-249.375,8506,-3432,-12835,-436,-655,-57,FFF10286687D60003A2198F2DDCD4CFE71FDC7FF,0,0,0,電車
3,2021/4/19 11:24:54,0,520.147,-210.633,-784.765,-1273.125,-3508.75,-153.125,8527,-3453,-12865,-291,-802,-35,FFF10386687D60004F2183F2BFCDDDFEDEFCDDFF,0,0,0,電車
4,2021/4/19 11:24:54,0,521.55,-210.938,-786.534,-984.375,-3430,26.25,8550,-3458,-12894,-225,-784,6,FFF10486687D600066217EF2A2CD1FFFF0FC0600,0,0,0,電車
5,2021/4/19 11:24:54,0,522.77,-211.06,-787.815,-1006.25,-3753.75,96.25,8570,-3460,-12915,-230,-858,22,FFF10586687D60007A217CF28DCD1AFFA6FC1600,0,0,0,電車
6,2021/4/19 11:24:54,0,523.136,-211.06,-787.632,-1618.75,-3176.25,1128.75,8576,-3460,-12912,-370,-726,258,FFF10686687D600080217CF290CD8EFE2AFD0201,0,0,0,電車
7,2021/4/19 11:24:54,0,522.709,-210.572,-785.985,-1916.25,-3736.25,1067.5,8569,-3452,-12885,-438,-854,244,FFF10786687D6000792184F2ABCD4AFEAAFCF400,0,0,0,電車
8,2021/4/19 11:24:54,0,522.831,-209.657,-785.009,-1588.125,-3491.25,770,8571,-3437,-12869,-363,-798,176,FFF10886687D60007B2193F2BBCD95FEE2FCB000,0,0,0,電車
9,2021/4/19 11:24:54,0,523.136,-209.352,-784.948,-1050,-3850,735,8576,-3432,-12868,-240,-880,168,FFF10986687D6000802198F2BCCD10FF90FCA800,0,0,0,電車
10,2021/4/19 11:24:54,0,521.123,-210.999,-783.85,-70,-4213.125,83.125,8543,-3459,-12850,-16,-963,19,FFF10A86687D60005F217DF2CECDF0FF3DFC1300,0,0,0,電車
11,2021/4/19 11:24:55,0,519.842,-212.341,-783.606,-783.125,-3508.75,188.125,8522,-3481,-12846,-179,-802,43,FFF10B87687D60004A2167F2D2CD4DFFDEFC2B00,0,0,0,電車
0,2021/4/19 11:24:55,0,519.415,-212.585,-783.789,-958.125,-3521.875,1242.5,8515,-3485,-12849,-219,-805,284,FFF10087687D6000432163F2CFCD25FFDBFC1C01,0,0,0,電車
1,2021/4/19 11:24:55,0,523.136,-214.415,-788.242,-805,-3526.25,1618.75,8576,-3515,-12922,-184,-806,370,FFF10187687D6000802145F286CD48FFDAFC7201,0,0,0,電車
2,2021/4/19 11:24:55,0,524.722,-215.879,-790.438,188.125,-3863.125,1260,8602,-3539,-12958,43,-883,288,FFF10287687D60009A212DF262CD2B008DFC2001,0,0,0,電車
3,2021/4/19 11:24:55,0,524.6,-216.062,-789.95,271.25,-4348.75,1128.75,8600,-3542,-12950,62,-994,258,FFF10387687D600098212AF26ACD3E001EFC0201,0,0,0,電車
4,2021/4/19 11:24:56,0,522.099,-219.173,-787.022,161.875,-4143.125,1229.375,8559,-3593,-12902,37,-947,281,FFF10488687D60006F21F7F19ACD25004DFC1901,0,0,0,電車
5,2021/4/19 11:24:56,0,73.444,-42.151,-146.217,1360.625,-1185.625,2769.375,1204,-691,-2397,311,-271,633,FFF10588687D6000B4044DFDA3F63701F1FE7902,0,0,0,電車
6,2021/4/19 11:24:56,0,96.075,-54.595,-188.551,-52.5,-3753.75,2104.375,1575,-895,-3091,-12,-858,481,FFF10688687D6000270681FCEDF3F4FFA6FCE101,0,0,0,電車
7,2021/4/19 11:24:56,0,137.433,-76.25,-265.289,1623.125,-5145,227.5,2253,-1250,-4349,371,-1176,52,FFF10788687D6000CD081EFB03EF730168FB3400,0,0,0,電車
8,2021/4/19 11:24:56,0,155.611,-86.559,-300.974,1010.625,-4843.125,-43.75,2551,-1419,-4934,231,-1107,-10,FFF10888687D6000F70975FABAECE700ADFBF6FF,0,0,0,電車
9,2021/4/19 11:24:57,0,517.768,-227.957,-788.059,-844.375,-3408.125,1124.375,8488,-3737,-12919,-193,-779,257,FFF10989687D6000282167F189CD3FFFF5FC0101,0,0,0,電車
10,2021/4/19 11:24:58,0,527.711,-228.811,-780.434,-4038.125,-3176.25,1071.875,8651,-3751,-12794,-923,-726,245,FFF10A8A687D6000CB2159F106CE65FC2AFDF500,0,0,0,電車
11,2021/4/19 11:24:59,0,558.882,-228.567,-754.021,-595,-2747.5,2419.375,9162,-3747,-12361,-136,-628,553,FFF10B8B687D6000CA235DF1B7CF78FF8CFD2902,0,0,0,電車
0,2021/4/19 11:25:00,0,580.171,-229.909,-740.54,1627.5,-5578.125,-1067.5,9511,-3769,-12140,372,-1275,-244,FFF1008C687D6000272547F194D0740105FB0CFF,0,0,0,電車
1,2021/4/19 11:25:01,0,587.674,-228.506,-740.54,-669.375,-3570,1452.5,9634,-3746,-12140,-153,-816,332,FFF1018D687D6000A2255EF194D067FFD0FC4C01,0,0,0,電車
2,2021/4/19 11:25:02,0,584.075,-227.652,-738.1,-398.125,-3346.875,1601.25,9575,-3732,-12100,-91,-765,366,FFF1028E687D600067256CF1BCD0A5FF03FD6E01,0,0,0,電車
3,2021/4/19 11:25:03,0,583.282,-227.164,-741.028,-708.75,-3591.875,682.5,9562,-3724,-12148,-162,-821,156,FFF1038F687D60005A2574F18CD05EFFCBFC9C00,0,0,0,電車
4,2021/4/19 11:25:04,0,585.6,-225.761,-742.858,-192.5,-4366.25,1163.75,9600,-3701,-12178,-44,-998,266,FFF10490687D600080258BF16ED0D4FF1AFC0A01,0,0,0,電車
5,2021/4/19 11:25:05,0,584.258,-225.578,-744.566,-35,-3972.5,1588.125,9578,-3698,-12206,-8,-908,363,FFF10591687D60006A258EF152D0F8FF74FC6B01,0,0,0,電車
6,2021/4/19 11:25:06,0,583.343,-228.506,-743.59,-704.375,-3517.5,1561.875,9563,-3746,-12190,-161,-804,357,FFF10692687D60005B255EF162D05FFFDCFC6501,0,0,0,電車
7,2021/4/19 11:25:07,0,582.977,-228.323,-742.187,-319.375,-3968.125,1461.25,9557,-3743,-12167,-73,-907,334,FFF10793687D6000552561F179D0B7FF75FC4E01,0,0,0,電車
8,2021/4/19 11:25:08,0,582.428,-228.384,-743.468,-218.75,-3548.125,1421.875,9548,-3744,-12188,-50,-811,325,FFF10894687D60004C2560F164D0CEFFD5FC4501,0,0,0,電車
9,2021/4/19 11:25:09,0,581.269,-230.031,-742.675,-625.625,-3640,1155,9529,-3771,-12175,-143,-832,264,FFF10995687D6000392545F171D071FFC0FC0801,0,0,0,電車
10,2021/4/19 11:25:10,0,581.696,-228.628,-742.309,-498.75,-3482.5,1286.25,9536,-3748,-12169,-114,-796,294,FFF10A96687D600040255CF177D08EFFE4FC2601,0,0,0,電車
11,2021/4/19 11:25:11,0,587.674,-230.397,-738.71,-485.625,-3491.25,1299.375,9634,-3777,-12110,-111,-798,297,FFF10B97687D6000A2253FF1B2D091FFE2FC2901,0,0,0,電車
0,2021/4/19 11:25:12,0,598.044,-234.606,-731.329,-573.125,-3591.875,1190,9804,-3846,-11989,-131,-821,272,FFF10098687D60004C26FAF02BD17DFFCBFC1001,0,0,0,電車
1,2021/4/19 11:25:13,0,605.242,-236.68,-724.314,-415.625,-3753.75,1303.75,9922,-3880,-11874,-95,-858,298,FFF10199687D6000C226D8F09ED1A1FFA6FC2A01,0,0,0,電車
2,2021/4/19 11:25:14,0,610.61,-239.12,-720.959,-1281.875,-4239.375,1373.75,10010,-3920,-11819,-293,-969,314,FFF1029A687D60001A27B0F0D5D1DBFE37FC3A01,0,0,0,電車
3,2021/4/19 11:25:15,0,611.342,-238.693,-720.898,-218.75,-4200,1198.75,10022,-3913,-11818,-50,-960,274,FFF1039B687D60002627B7F0D6D1CEFF40FC1201,0,0,0,電車
4,2021/4/19 11:25:16,0,607.682,-236.131,-724.497,-245,-3915.625,1032.5,9962,-3871,-11877,-56,-895,236,FFF1049C687D6000EA26E1F09BD1C8FF81FCEC00,0,0,0,電車
5,2021/4/19 11:25:17,0,598.166,-235.094,-730.78,-183.75,-3876.25,1553.125,9806,-3854,-11980,-42,-886,355,FFF1059D687D60004E26F2F034D1D6FF8AFC6301,0,0,0,電車
6,2021/4/19 11:25:18,0,587.613,-233.081,-738.893,271.25,-4598.125,660.625,9633,-3821,-12113,62,-1051,151,FFF1069E687D6000A12513F1AFD03E00E5FB9700,0,0,0,電車
7,2021/4/19 11:25:19,0,571.204,-228.628,-750.3,-275.625,-3740.625,1338.75,9364,-3748,-12300,-63,-855,306,FFF1079F687D600094245CF1F4CFC1FFA9FC3201,0,0,0,電車
8,2021/4/19 11:25:20,0,560.834,-230.153,-756.949,-402.5,-4265.625,761.25,9194,-3773,-12409,-92,-975,174,FFF108A0687D6000EA2343F187CFA4FF31FCAE00,0,0,0,電車
9,2021/4/19 11:25:21,0,547.719,-231.495,-764.818,-503.125,-3854.375,844.375,8979,-3795,-12538,-115,-881,193,FFF109A1687D600013232DF106CF8DFF8FFCC100,0,0,0,電車
10,2021/4/19 11:25:22,0,534.238,-230.153,-774.029,6440,-476.875,2275,8758,-3773,-12689,1472,-109,520,FFF10AA2687D6000362243F16FCEC00593FF0802,0,0,0,電車
11,2021/4/19 11:25:23,0,521.855,-241.987,-779.824,-91.875,-4860.625,17.5,8555,-3967,-12784,-21,-1111,4,FFF10BA3687D60006B2181F010CEEBFFA9FB0400,0,0,0,電車
0,2021/4/19 11:25:24,0,509.411,-244.366,-786.351,-647.5,-3556.875,1837.5,8351,-4006,-12891,-148,-813,420,FFF100A4687D60009F205AF0A5CD6CFFD3FCA401,0,0,0,電車
1,2021/4/19 11:25:25,0,505.507,-250.344,-786.534,-765.625,-3486.875,1273.125,8287,-4104,-12894,-175,-797,291,FFF101A5687D60005F20F8EFA2CD51FFE3FC2301,0,0,0,電車
2,2021/4/19 11:25:26,0,504.043,-252.54,-787.266,-678.125,-3692.5,1378.125,8263,-4140,-12906,-155,-844,315,FFF102A6687D60004720D4EF96CD65FFB4FC3B01,0,0,0,電車
3,2021/4/19 11:25:27,0,503.677,-252.601,-787.571,-520.625,-3788.75,1474.375,8257,-4141,-12911,-119,-866,337,FFF103A7687D60004120D3EF91CD89FF9EFC5101,0,0,0,電車
4,2021/4/19 11:25:28,0,503.494,-254.187,-787.815,-660.625,-3736.25,1150.625,8254,-4167,-12915,-151,-854,263,FFF104A8687D60003E20B9EF8DCD69FFAAFC0701,0,0,0,電車
5,2021/4/19 11:25:29,0,502.823,-254.431,-787.083,-993.125,-3329.375,1146.25,8243,-4171,-12903,-227,-761,262,FFF105A9687D60003320B5EF99CD1DFF07FD0601,0,0,0,電車
6,2021/4/19 11:25:30,0,503.311,-251.808,-788.181,-306.25,-3788.75,1382.5,8251,-4128,-12921,-70,-866,316,FFF106AA687D60003B20E0EF87CDBAFF9EFC3C01,0,0,0,電車
7,2021/4/19 11:25:31,0,502.823,-253.394,-787.388,-673.75,-3828.125,997.5,8243,-4154,-12908,-154,-875,228,FFF107AB687D60003320C6EF94CD66FF95FCE400,0,0,0,電車
8,2021/4/19 11:25:32,0,502.579,-253.333,-787.571,-634.375,-3714.375,1194.375,8239,-4153,-12911,-145,-849,273,FFF108AC687D60002F20C7EF91CD6FFFAFFC1101,0,0,0,電車
9,2021/4/19 11:25:33,0,503.006,-253.15,-789.34,-586.25,-3780,1146.25,8246,-4150,-12940,-134,-864,262,FFF109AD687D60003620CAEF74CD7AFFA0FC0601,0,0,0,電車
10,2021/4/19 11:25:34,0,503.25,-252.723,-788.791,-599.375,-3710,1229.375,8250,-4143,-12931,-137,-848,281,FFF10AAE687D60003A20D1EF7DCD77FFB0FC1901,0,0,0,電車
11,2021/4/19 11:25:35,0,503.067,-253.455,-788.913,-573.125,-3701.25,1133.125,8247,-4155,-12933,-131,-846,259,FFF10BAF687D60003720C5EF7BCD7DFFB2FC0301,0,0,0,電車
0,2021/4/19 11:25:36,0,503.128,-253.577,-788.669,-678.125,-3723.125,1211.875,8248,-4157,-12929,-155,-851,277,FFF100B0687D60003820C3EF7FCD65FFADFC1501,0,0,0,電車
1,2021/4/19 11:25:37,0,502.457,-254.004,-787.388,-704.375,-3797.5,910,8237,-4164,-12908,-161,-868,208,FFF101B1687D60002D20BCEF94CD5FFF9CFCD000,0,0,0,電車
2,2021/4/19 11:25:38,0,502.518,-253.516,-788.12,-665,-3784.375,1216.25,8238,-4156,-12920,-152,-865,278,FFF102B2687D60002E20C4EF88CD68FF9FFC1601,0,0,0,電車
3,2021/4/19 11:25:39,0,502.64,-252.845,-788.242,-476.875,-3626.875,1190,8240,-4145,-12922,-109,-829,272,FFF103B3687D60003020CFEF86CD93FFC3FC1001,0,0,0,電車
4,2021/4/19 11:25:40,0,502.579,-252.967,-788.181,-345.625,-3801.875,1408.75,8239,-4147,-12921,-79,-869,322,FFF104B4687D60002F20CDEF87CDB1FF9BFC4201,0,0,0,電車
5,2021/4/19 11:25:41,0,502.64,-253.211,-788.425,-625.625,-3714.375,1098.125,8240,-4151,-12925,-143,-849,251,FFF105B5687D60003020C9EF83CD71FFAFFCFB00,0,0,0,電車
6,2021/4/19 11:25:42,0,502.396,-252.601,-787.815,-542.5,-3731.875,1128.75,8236,-4141,-12915,-124,-853,258,FFF106B6687D60002C20D3EF8DCD84FFABFC0201,0,0,0,電車
7,2021/4/19 11:25:43,0,502.091,-252.967,-788.242,-341.25,-3749.375,1491.875,8231,-4147,-12922,-78,-857,341,FFF107B7687D60002720CDEF86CDB2FFA7FC5501,0,0,0,電車
8,2021/4/19 11:25:44,0,502.335,-253.821,-788.73,-686.875,-3661.875,1141.875,8235,-4161,-12930,-157,-837,261,FFF108B8687D60002B20BFEF7ECD63FFBBFC0501,0,0,0,電車
9,2021/4/19 11:25:45,0,502.03,-252.723,-788.974,-476.875,-3705.625,1176.875,8230,-4143,-12934,-109,-847,269,FFF109B9687D60002620D1EF7ACD93FFB1FC0D01,0,0,0,電車
10,2021/4/19 11:25:46,0,502.03,-252.906,-788.791,-323.75,-3758.125,1417.5,8230,-4146,-12931,-74,-859,324,FFF10ABA687D60002620CEEF7DCDB6FFA5FC4401,0,0,0,電車
11,2021/4/19 11:25:47,0,501.664,-254.37,-788.547,-691.25,-3718.75,1198.75,8224,-4170,-12927,-158,-850,274,FFF10BBB687D60002020B6EF81CD62FFAEFC1201,0,0,0,電車
0,2021/4/19 11:25:48,0,502.091,-253.211,-789.218,-529.375,-3661.875,1474.375,8231,-4151,-12938,-121,-837,337,FFF100BC687D60002720C9EF76CD87FFBBFC5101,0,0,0,電車
1,2021/4/19 11:25:49,0,502.396,-252.723,-789.035,-490,-3613.75,1465.625,8236,-4143,-12935,-112,-826,335,FFF101BD687D60002C20D1EF79CD90FFC6FC4F01,0,0,0,電車
2,2021/4/19 11:25:50,0,502.579,-254.065,-788.486,-831.25,-3670.625,1058.75,8239,-4165,-12926,-190,-839,242,FFF102BE687D60002F20BBEF82CD42FFB9FCF200,0,0,0,電車
3,2021/4/19 11:25:51,0,502.396,-253.272,-788.913,-525,-3745,1185.625,8236,-4152,-12933,-120,-856,271,FFF103BF687D60002C20C8EF7BCD88FFA8FC0F01,0,0,0,電車
4,2021/4/19 11:25:52,0,499.834,-252.967,-790.743,175,-4484.375,726.25,8194,-4147,-12963,40,-1025,166,FFF104C0687D60000220CDEF5DCD2800FFFBA600,0,0,0,電車
5,2021/4/19 11:25:53,0,473.36,-249.551,-809.165,-599.375,-4965.625,853.125,7760,-4091,-13265,-137,-1135,195,FFF105C1687D6000501E05F02FCC77FF91FBC300,0,0,0,電車
6,2021/4/19 11:25:54,0,435.235,-246.013,-829.356,3233.125,-2616.25,1719.375,7135,-4033,-13596,739,-598,393,FFF106C2687D6000DF1B3FF0E4CAE302AAFD8901,0,0,0,電車
7,2021/4/19 11:25:55,0,417.057,-259.006,-839.665,-398.125,-3998.75,525,6837,-4246,-13765,-91,-914,120,FFF107C3687D6000B51A6AEF3BCAA5FF6EFC7800,0,0,0,電車
8,2021/4/19 11:25:56,0,404.857,-264.313,-847.412,-179.375,-3810.625,1430.625,6637,-4333,-13892,-41,-871,327,FFF108C4687D6000ED1913EFBCC9D7FF99FC4701,0,0,0,電車
9,2021/4/19 11:25:57,0,399.123,-266.875,-848.205,-437.5,-3867.5,1242.5,6543,-4375,-13905,-100,-884,284,FFF109C5687D60008F19E9EEAFC99CFF8CFC1C01,0,0,0,電車
10,2021/4/19 11:25:58,0,396.622,-268.827,-849.12,179.375,-4081.875,1312.5,6502,-4407,-13920,41,-933,300,FFF10AC6687D60006619C9EEA0C929005BFC2C01,0,0,0,電車
11,2021/4/19 11:25:59,0,395.463,-272.06,-847.595,-603.75,-3806.25,756.875,6483,-4460,-13895,-138,-870,173,FFF10BC7687D6000531994EEB9C976FF9AFCAD00,0,0,0,電車
0,2021/4/19 11:26:00,0,395.036,-272.731,-847.595,-315,-3893.75,945,6476,-4471,-13895,-72,-890,216,FFF100C8687D60004C1989EEB9C9B8FF86FCD800,0,0,0,電車
1,2021/4/19 11:26:01,0,396.195,-271.938,-848.388,-26.25,-3876.25,1098.125,6495,-4458,-13908,-6,-886,251,FFF101C9687D60005F1996EEACC9FAFF8AFCFB00,0,0,0,電車
2,2021/4/19 11:26:02,0,395.097,-272.426,-847.961,-739.375,-3858.75,555.625,6477,-4466,-13901,-169,-882,127,FFF102CA687D60004D198EEEB3C957FF8EFC7F00,0,0,0,電車
3,2021/4/19 11:26:03,0,395.951,-268.583,-848.083,52.5,-3780,853.125,6491,-4403,-13903,12,-864,195,FFF103CB687D60005B19CDEEB1C90C00A0FCC300,0,0,0,電車
4,2021/4/19 11:26:04,0,395.951,-266.326,-848.205,-35,-3902.5,787.5,6491,-4366,-13905,-8,-892,180,FFF104CC687D60005B19F2EEAFC9F8FF84FCB400,0,0,0,電車
5,2021/4/19 11:26:05,0,396.622,-265.655,-849.181,-603.75,-3863.125,533.75,6502,-4355,-13921,-138,-883,122,FFF105CD687D60006619FDEE9FC976FF8DFC7A00,0,0,0,電車
6,2021/4/19 11:26:06,0,398.391,-261.934,-849.73,-660.625,-3876.25,301.875,6531,-4294,-13930,-151,-886,69,FFF106CE687D600083193AEF96C969FF8AFC4500,0,0,0,電車
7,2021/4/19 11:26:07,0,401.38,-256.017,-850.95,-586.25,-3740.625,980,6580,-4197,-13950,-134,-855,224,FFF107CF687D6000B4199BEF82C97AFFA9FCE000,0,0,0,電車
8,2021/4/19 11:26:08,0,401.624,-255.529,-848.51,-923.125,-3045,945,6584,-4189,-13910,-211,-696,216,FFF108D0687D6000B819A3EFAAC92DFF48FDD800,0,0,0,電車
9,2021/4/19 11:26:09,0,403.027,-251.991,-842.837,-595,-3342.5,1045.625,6607,-4131,-13817,-136,-764,239,FFF109D1687D6000CF19DDEF07CA78FF04FDEF00,0,0,0,電車
10,2021/4/19 11:26:10,0,403.637,-248.697,-837.347,-245,-3040.625,1522.5,6617,-4077,-13727,-56,-695,348,FFF10AD2687D6000D91913F061CAC8FF49FD5C01,0,0,0,電車
11,2021/4/19 11:26:11,0,411.506,-251.076,-833.992,-914.375,-3661.875,1155,6746,-4116,-13672,-209,-837,264,FFF10BD3687D60005A1AECEF98CA2FFFBBFC0801,0,0,0,電車
0,2021/4/19 11:26:12,0,421.937,-255.895,-833.931,-463.75,-4243.75,1356.25,6917,-4195,-13671,-106,-970,310,FFF100D4687D6000051B9DEF99CA96FF36FC3601,0,0,0,電車
1,2021/4/19 11:26:13,0,432.734,-257.847,-827.465,-1999.375,-3031.875,2130.625,7094,-4227,-13565,-457,-693,487,FFF101D5687D6000B61B7DEF03CB37FE4BFDE701,0,0,0,電車
2,2021/4/19 11:26:14,0,471.591,-263.276,-800.747,-2279.375,-4519.375,-1697.5,7731,-4316,-13127,-521,-1033,-388,FFF102D6687D6000331E24EFB9CCF7FDF7FB7CFE,0,0,0,電車
3,2021/4/19 11:26:15,0,503.372,-246.745,-787.083,3062.5,-6807.5,-783.125,8252,-4045,-12903,700,-1556,-179,FFF103D7687D60003C2033F099CDBC02ECF94DFF,0,0,0,電車
4,2021/4/19 11:26:16,0,506.849,-230.275,-790.438,1229.375,-4243.75,1623.125,8309,-3775,-12958,281,-970,371,FFF104D8687D6000752041F162CD190136FC7301,0,0,0,電車
5,2021/4/19 11:26:17,0,509.655,-230.763,-797.209,507.5,-4620,791.875,8355,-3783,-13069,116,-1056,181,FFF105D9687D6000A32039F1F3CC7400E0FBB500,0,0,0,電車
6,2021/4/19 11:26:18,0,493.307,-228.933,-817.522,1111.25,-2384.375,2419.375,8087,-3753,-13402,254,-545,553,FFF106DA687D6000971F57F1A6CBFE00DFFD2902,0,0,0,電車
7,2021/4/19 11:26:19,0,468.236,-231.373,-833.992,170.625,-1653.75,3036.25,7676,-3793,-13672,39,-378,694,FFF107DB687D6000FC1D2FF198CA270086FEB602,0,0,0,電車
8,2021/4/19 11:26:20,0,455.243,-235.765,-833.809,1531.25,-4033.75,1675.625,7463,-3865,-13669,350,-922,383,FFF108DC687D6000271DE7F09BCA5E0166FC7F01,0,0,0,電車
9,2021/4/19 11:26:21,0,451.156,-232.471,-834.663,1745.625,-5110,306.25,7396,-3811,-13683,399,-1168,70,FFF109DD687D6000E41C1DF18DCA8F0170FB4600,0,0,0,電車
10,2021/4/19 11:26:22,0,451.827,-228.628,-833.504,1413.125,-4812.5,196.875,7407,-3748,-13664,323,-1100,45,FFF10ADE687D6000EF1C5CF1A0CA4301B4FB2D00,0,0,0,電車
11,2021/4/19 11:26:23,0,455.914,-220.332,-830.393,358.75,-4755.625,-1172.5,7474,-3612,-13613,82,-1087,-268,FFF10BDF687D6000321DE4F1D3CA5200C1FBF4FE,0,0,0,電車
0,2021/4/19 11:26:24,0,462.197,-211.243,-831.796,940.625,-4646.25,-883.75,7577,-3463,-13636,215,-1062,-202,FFF100E0687D6000991D79F2BCCAD700DAFB36FF,0,0,0,電車
1,2021/4/19 11:26:25,0,465.003,-207.217,-829.478,266.875,-3863.125,-1045.625,7623,-3397,-13598,61,-883,-239,FFF101E1687D6000C71DBBF2E2CA3D008DFC11FF,0,0,0,電車
2,2021/4/19 11:26:26,0,485.682,-212.036,-814.777,-3815,-3867.5,-2568.125,7962,-3476,-13357,-872,-884,-587,FFF102E2687D60001A1F6CF2D3CB98FC8CFCB5FD,0,0,0,電車
3,2021/4/19 11:26:27,0,503.555,-215.635,-800.564,-1207.5,-3556.875,-109.375,8255,-3535,-13124,-276,-813,-25,FFF103E3687D60003F2031F2BCCCECFED3FCE7FF,0,0,0,電車
4,2021/4/19 11:26:28,0,508.374,-227.53,-793.732,-1531.25,-3683.75,463.75,8334,-3730,-13012,-350,-842,106,FFF104E4687D60008E206EF12CCDA2FEB6FC6A00,0,0,0,電車
5,2021/4/19 11:26:29,0,508.862,-237.656,-790.438,-525,-3819.375,1360.625,8342,-3896,-12958,-120,-873,311,FFF105E5687D60009620C8F062CD88FF97FC3701,0,0,0,電車
6,2021/4/19 11:26:30,0,507.581,-243.878,-786.839,-634.375,-3692.5,918.75,8321,-3998,-12899,-145,-844,210,FFF106E6687D6000812062F09DCD6FFFB4FCD200,0,0,0,電車
7,2021/4/19 11:26:31,0,507.52,-247.416,-788.12,-153.125,-3906.875,1561.875,8320,-4056,-12920,-35,-893,357,FFF107E7687D6000802028F088CDDDFF83FC6501,0,0,0,電車
8,2021/4/19 11:26:32,0,506.056,-247.538,-785.985,-284.375,-3635.625,1531.25,8296,-4058,-12885,-65,-831,350,FFF108E8687D6000682026F0ABCDBFFFC1FC5E01,0,0,0,電車
9,2021/4/19 11:26:33,0,504.531,-246.623,-781.898,-402.5,-3753.75,1141.875,8271,-4043,-12818,-92,-858,261,FFF109E9687D60004F2035F0EECDA4FFA6FC0501,0,0,0,電車
10,2021/4/19 11:26:34,0,503.616,-249.978,-779.092,-367.5,-3185,1400,8256,-4098,-12772,-84,-728,320,FFF10AEA687D60004020FEEF1CCEACFF28FD4001,0,0,0,電車
11,2021/4/19 11:26:35,0,506.056,-249.124,-780.495,-546.875,-3854.375,1041.25,8296,-4084,-12795,-125,-881,238,FFF10BEB687D600068200CF005CE83FF8FFCEE00,0,0,0,電車
0,2021/4/19 11:26:36,0,506.056,-249.734,-779.092,-721.875,-3416.875,791.875,8296,-4094,-12772,-165,-781,181,FFF100EC687D6000682002F01CCE5BFFF3FCB500,0,0,0,電車
1,2021/4/19 11:26:37,0,507.642,-248.758,-779.214,-205.625,-3434.375,1570.625,8322,-4078,-12774,-47,-785,359,FFF101ED687D6000822012F01ACED1FFEFFC6701,0,0,0,電車
2,2021/4/19 11:26:38,0,508.069,-251.32,-779.275,-735,-3526.25,962.5,8329,-4120,-12775,-168,-806,220,FFF102EE687D60008920E8EF19CE58FFDAFCDC00,0,0,0,電車
3,2021/4/19 11:26:39,0,508.801,-246.318,-777.018,-603.75,-3465,1478.75,8341,-4038,-12738,-138,-792,338,FFF103EF687D600095203AF03ECE76FFE8FC5201,0,0,0,電車
4,2021/4/19 11:26:40,0,511.973,-248.636,-776.835,-1019.375,-2975,1299.375,8393,-4076,-12735,-233,-680,297,FFF104F0687D6000C92014F041CE17FF58FD2901,0,0,0,電車
5,2021/4/19 11:26:41,0,525.332,-251.381,-769.149,-1071.875,-3158.75,1316.875,8612,-4121,-12609,-245,-722,301,FFF105F1687D6000A421E7EFBFCE0BFF2EFD2D01,0,0,0,電車
6,2021/4/19 11:26:42,0,527.894,-249.673,-773.053,-1229.375,-2380,2760.625,8654,-4093,-12673,-281,-544,631,FFF106F2687D6000CE2103F07FCEE7FEE0FD7702,0,0,0,電車
7,2021/4/19 11:26:43,0,522.953,-249.429,-775.798,-1067.5,-3644.375,1413.125,8573,-4089,-12718,-244,-833,323,FFF107F3687D60007D2107F052CE0CFFBFFC4301,0,0,0,電車
8,2021/4/19 11:26:44,0,523.319,-252.967,-785.802,-713.125,-3854.375,1588.125,8579,-4147,-12882,-163,-881,363,FFF108F4687D60008321CDEFAECD5DFF8FFC6B01,0,0,0,電車
9,2021/4/19 11:26:45,0,522.343,-252.845,-792.695,-721.875,-4081.875,1391.25,8563,-4145,-12995,-165,-933,318,FFF109F5687D60007321CFEF3DCD5BFF5BFC3E01,0,0,0,電車
10,2021/4/19 11:26:46,0,522.038,-252.662,-799.283,-866.25,-4449.375,962.5,8558,-4142,-13103,-198,-1017,220,FFF10AF6687D60006E21D2EFD1CC3AFF07FCDC00,0,0,0,電車
11,2021/4/19 11:26:47,0,520.269,-251.198,-801.235,-284.375,-4458.125,1605.625,8529,-4118,-13135,-65,-1019,367,FFF10BF7687D60005121EAEFB1CCBFFF05FC6F01,0,0,0,電車
0,2021/4/19 11:26:48,0,517.219,-248.636,-802.516,-1190,-4217.5,1190,8479,-4076,-13156,-272,-964,272,FFF100F8687D60001F2114F09CCCF0FE3CFC1001,0,0,0,電車
1,2021/4/19 11:26:49,0,513.498,-246.623,-803.797,-332.5,-4046.875,1430.625,8418,-4043,-13177,-76,-925,327,FFF101F9687D6000E22035F087CCB4FF63FC4701,0,0,0,電車
2,2021/4/19 11:26:50,0,506.605,-246.44,-798.978,-787.5,-3876.25,984.375,8305,-4040,-13098,-180,-886,225,FFF102FA687D6000712038F0D6CC4CFF8AFCE100,0,0,0,電車
3,2021/4/19 11:26:51,0,503.921,-244.183,-793.671,-415.625,-3867.5,1312.5,8261,-4003,-13011,-95,-884,300,FFF103FB687D600045205DF02DCDA1FF8CFC2C01,0,0,0,電車
4,2021/4/19 11:26:52,0,502.335,-243.695,-794.403,-1308.125,-2537.5,2397.5,8235,-3995,-13023,-299,-580,548,FFF104FC687D60002B2065F021CDD5FEBCFD2402,0,0,0,電車
5,2021/4/19 11:26:53,0,514.169,-247.294,-772.565,-914.375,-1916.25,2100,8429,-4054,-12665,-209,-438,480,FFF105FD687D6000ED202AF087CE2FFF4AFEE001,0,0,0,電車
6,2021/4/19 11:26:54,0,545.95,-251.015,-741.699,-52.5,-3543.75,931.875,8950,-4115,-12159,-12,-810,213,FFF106FE687D6000F622EDEF81D0F4FFD6FCD500,0,0,0,電車
7,2021/4/19 11:26:55,0,566.934,-253.394,-728.157,-988.75,-3062.5,1557.5,9294,-4154,-11937,-226,-700,356,FFF107FF687D60004E24C6EF5FD11EFF44FD6401,0,0,0,電車
8,2021/4/19 11:26:56,0,582.855,-256.078,-715.652,-3084.375,-2603.125,1408.75,9555,-4198,-11732,-705,-595,322,FFF10800697D600053259AEF2CD23FFDADFD4201,0,0,0,電車
9,2021/4/19 11:26:57,0,589.138,-258.518,-710.955,-3141.25,-2896.25,1531.25,9658,-4238,-11655,-718,-662,350,FFF10901697D6000BA2572EF79D232FD6AFD5E01,0,0,0,電車
10,2021/4/19 11:26:58,0,592.676,-248.636,-713.395,-3202.5,-2187.5,3771.25,9716,-4076,-11695,-732,-500,862,FFF10A02697D6000F42514F051D224FD0CFE5E03,0,0,0,電車
11,2021/4/19 11:26:59,0,597.922,-242.353,-718.153,-2813.125,-1570.625,258.125,9802,-3973,-11773,-643,-359,59,FFF10B03697D60004A267BF003D27DFD99FE3B00,0,0,0,電車
0,2021/4/19 11:27:00,0,598.105,-237.046,-724.131,-2275,-2769.375,2598.75,9805,-3886,-11871,-520,-633,594,FFF10004697D60004D26D2F0A1D1F8FD87FD5202,0,0,0,電車
1,2021/4/19 11:27:01,0,600.728,-228.811,-728.157,-1535.625,-4213.125,2467.5,9848,-3751,-11937,-351,-963,564,FFF10105697D6000782659F15FD1A1FE3DFC3402,0,0,0,電車
2,2021/4/19 11:27:02,0,601.826,-222.406,-732.183,-2349.375,-3150,3128.125,9866,-3646,-12003,-537,-720,715,FFF10206697D60008A26C2F11DD1E7FD30FDCB02,0,0,0,電車
3,2021/4/19 11:27:03,0,603.534,-214.049,-736.819,-1815.625,-3683.75,2384.375,9894,-3509,-12079,-415,-842,545,FFF10307697D6000A6264BF2D1D061FEB6FC2102,0,0,0,電車
4,2021/4/19 11:27:04,0,603.839,-205.57,-744.444,-1360.625,-4108.125,2546.25,9899,-3370,-12204,-311,-939,582,FFF10408697D6000AB26D6F254D0C9FE55FC4602,0,0,0,電車
5,2021/4/19 11:27:05,0,599.752,-201.544,-744.2,-1820,-3154.375,2375.625,9832,-3304,-12200,-416,-721,543,FFF10509697D6000682618F358D060FE2FFD1F02,0,0,0,電車
6,2021/4/19 11:27:06,0,606.462,-196.176,-734.318,-1811.25,-2808.75,2931.25,9942,-3216,-12038,-414,-642,670,FFF1060A697D6000D62670F3FAD062FE7EFD9E02,0,0,0,電車
7,2021/4/19 11:27:07,0,622.017,-192.943,-723.643,-621.25,-3696.875,2865.625,10197,-3163,-11863,-142,-845,655,FFF1070B697D6000D527A5F3A9D172FFB3FC8F02,0,0,0,電車
8,2021/4/19 11:27:08,0,629.581,-193.065,-717.055,-1093.75,-3570,2235.625,10321,-3165,-11755,-250,-816,511,FFF1080C697D60005128A3F315D206FFD0FCFF01,0,0,0,電車
9,2021/4/19 11:27:09,0,629.947,-186.355,-718.031,-1255.625,-3556.875,2209.375,10327,-3055,-11771,-287,-813,505,FFF1090D697D6000572811F405D2E1FED3FCF901,0,0,0,電車
10,2021/4/19 11:27:10,0,623.786,-179.035,-722.484,-459.375,-4449.375,1719.375,10226,-2935,-11844,-105,-1017,393,FFF10A0E697D6000F22789F4BCD197FF07FC8901,0,0,0,電車
11,2021/4/19 11:27:11,0,616.283,-175.924,-728.828,-660.625,-3403.75,2065,10103,-2884,-11948,-151,-778,472,FFF10B0F697D60007727BCF454D169FFF6FCD801,0,0,0,電車
0,2021/4/19 11:27:12,0,611.83,-182.268,-731.878,-65.625,-4025,1920.625,10030,-2988,-11998,-15,-920,439,FFF10010697D60002E2754F422D1F1FF68FCB701,0,0,0,電車
1,2021/4/19 11:27:13,0,607.682,-188.978,-732.488,-441.875,-3941.875,2056.25,9962,-3098,-12008,-101,-901,470,FFF10111697D6000EA26E6F318D19BFF7BFCD601,0,0,0,電車
2,2021/4/19 11:27:14,0,604.083,-199.348,-733.952,-275.625,-3876.25,1732.5,9903,-3268,-12032,-63,-886,396,FFF10212697D6000AF263CF300D1C1FF8AFC8C01,0,0,0,電車
3,2021/4/19 11:27:15,0,600.667,-209.718,-732.854,-476.875,-3670.625,1710.625,9847,-3438,-12014,-109,-839,391,FFF10313697D6000772692F212D193FFB9FC8701,0,0,0,電車
4,2021/4/19 11:27:16,0,598.288,-215.269,-733.342,971.25,-3679.375,2450,9808,-3529,-12022,222,-841,560,FFF10414697D6000502637F20AD1DE00B7FC3002,0,0,0,電車
5,2021/4/19 11:27:17,0,590.48,-220.698,-738.222,-398.125,-4270,783.125,9680,-3618,-12102,-91,-976,179,FFF10515697D6000D025DEF1BAD0A5FF30FCB300,0,0,0,電車
6,2021/4/19 11:27:18,0,584.99,-222.467,-741.699,-840,-3268.125,1356.25,9590,-3647,-12159,-192,-747,310,FFF10616697D60007625C1F181D040FF15FD3601,0,0,0,電車
7,2021/4/19 11:27:19,0,593.469,-222.284,-736.819,-83.125,-3985.625,1054.375,9729,-3644,-12079,-19,-911,241,FFF10717697D60000126C4F1D1D0EDFF71FCF100,0,0,0,電車
8,2021/4/19 11:27:20,0,583.465,-220.088,-743.285,328.125,-4751.25,4.375,9565,-3608,-12185,75,-1086,1,FFF10818697D60005D25E8F167D04B00C2FB0100,0,0,0,電車
9,2021/4/19 11:27:21,0,573.4,-217.404,-752.069,-704.375,-3635.625,1461.25,9400,-3564,-12329,-161,-831,334,FFF10919697D6000B82414F2D7CF5FFFC1FC4E01,0,0,0,電車
10,2021/4/19 11:27:22,0,557.54,-212.829,-762.134,2922.5,-7783.125,-1286.25,9140,-3489,-12494,668,-1779,-294,FFF10A1A697D6000B4235FF232CF9C020DF9DAFE,0,0,0,電車
11,2021/4/19 11:27:23,0,531.676,-225.639,-776.164,-201.25,-4366.25,1592.5,8716,-3699,-12724,-46,-998,364,FFF10B1B697D60000C228DF14CCED2FF1AFC6C01,0,0,0,電車
0,2021/4/19 11:27:24,0,527.528,-239.059,-777.14,-905.625,-4134.375,1526.875,8648,-3919,-12740,-207,-945,349,FFF1001C697D6000C821B1F03CCE31FF4FFC5D01,0,0,0,電車
1,2021/4/19 11:27:25,0,523.258,-244.366,-777.323,-599.375,-3215.625,1732.5,8578,-4006,-12743,-137,-735,396,FFF1011D697D600082215AF039CE77FF21FD8C01,0,0,0,電車
2,2021/4/19 11:27:26,0,522.221,-247.416,-778.116,-656.25,-3561.25,1172.5,8561,-4056,-12756,-150,-814,268,FFF1021E697D6000712128F02CCE6AFFD2FC0C01,0,0,0,電車
3,2021/4/19 11:27:27,0,521.367,-247.599,-777.994,-581.875,-3819.375,1273.125,8547,-4059,-12754,-133,-873,291,FFF1031F697D6000632125F02ECE7BFF97FC2301,0,0,0,電車
4,2021/4/19 11:27:28,0,520.696,-248.148,-777.75,-770,-3661.875,1163.75,8536,-4068,-12750,-176,-837,266,FFF10420697D600058211CF032CE50FFBBFC0A01,0,0,0,電車
5,2021/4/19 11:27:29,0,520.452,-249.002,-777.384,-643.125,-3823.75,1246.875,8532,-4082,-12744,-147,-874,285,FFF10521697D600054210EF038CE6DFF96FC1D01,0,0,0,電車
6,2021/4/19 11:27:30,0,520.757,-248.026,-777.323,-538.125,-3845.625,1211.875,8537,-4066,-12743,-123,-879,277,FFF10622697D600059211EF039CE85FF91FC1501,0,0,0,電車
7,2021/4/19 11:27:31,0,520.757,-249.063,-776.957,-616.875,-4055.625,805,8537,-4083,-12737,-141,-927,184,FFF10723697D600059210DF03FCE73FF61FCB800,0,0,0,電車
8,2021/4/19 11:27:32,0,520.696,-248.453,-776.835,-651.875,-3565.625,1273.125,8536,-4073,-12735,-149,-815,291,FFF10824697D6000582117F041CE6BFFD1FC2301,0,0,0,電車
9,2021/4/19 11:27:33,0,521.672,-247.172,-777.262,-380.625,-3552.5,1426.25,8552,-4052,-12742,-87,-812,326,FFF10925697D600068212CF03ACEA9FFD4FC4601,0,0,0,電車
10,2021/4/19 11:27:34,0,521.733,-247.294,-776.774,-787.5,-3775.625,993.125,8553,-4054,-12734,-180,-863,227,FFF10A26697D600069212AF042CE4CFFA1FCE300,0,0,0,電車
11,2021/4/19 11:27:35,0,522.343,-246.318,-777.079,-446.25,-3819.375,1225,8563,-4038,-12739,-102,-873,280,FFF10B27697D600073213AF03DCE9AFF97FC1801,0,0,0,電車
0,2021/4/19 11:27:36,0,522.221,-246.745,-776.713,-682.5,-3600.625,1653.75,8561,-4045,-12733,-156,-823,378,FFF10028697D6000712133F043CE64FFC9FC7A01,0,0,0,電車
1,2021/4/19 11:27:37,0,521.916,-246.928,-777.018,-656.25,-3675,1076.25,8556,-4048,-12738,-150,-840,246,FFF10129697D60006C2130F03ECE6AFFB8FCF600,0,0,0,電車
2,2021/4/19 11:27:38,0,522.099,-245.037,-778.36,-402.5,-3902.5,1255.625,8559,-4017,-12760,-92,-892,287,FFF1022A697D60006F214FF028CEA4FF84FC1F01,0,0,0,電車
3,2021/4/19 11:27:39,0,522.038,-245.708,-777.628,-686.875,-3539.375,1006.25,8558,-4028,-12748,-157,-809,230,FFF1032B697D60006E2144F034CE63FFD7FCE600,0,0,0,電車
4,2021/4/19 11:27:40,0,522.465,-245.159,-778.177,-542.5,-3644.375,1365,8565,-4019,-12757,-124,-833,312,FFF1042C697D600075214DF02BCE84FFBFFC3801,0,0,0,電車
5,2021/4/19 11:27:41,0,522.709,-244.732,-777.75,-507.5,-3521.875,1264.375,8569,-4012,-12750,-116,-805,289,FFF1052D697D6000792154F032CE8CFFDBFC2101,0,0,0,電車
6,2021/4/19 11:27:42,0,522.099,-246.196,-777.445,105,-4532.5,494.375,8559,-4036,-12745,24,-1036,113,FFF1062E697D60006F213CF037CE1800F4FB7100,0,0,0,電車
7,2021/4/19 11:27:43,0,520.696,-246.623,-778.543,-363.125,-3679.375,1435,8536,-4043,-12763,-83,-841,328,FFF1072F697D6000582135F025CEADFFB7FC4801,0,0,0,電車
8,2021/4/19 11:27:44,0,520.574,-246.318,-778.726,-433.125,-3631.25,1351.875,8534,-4038,-12766,-99,-830,309,FFF10830697D600056213AF022CE9DFFC2FC3501,0,0,0,電車
9,2021/4/19 11:27:45,0,520.452,-247.477,-777.689,-748.125,-3675,1137.5,8532,-4057,-12749,-171,-840,260,FFF10931697D6000542127F033CE55FFB8FC0401,0,0,0,電車
10,2021/4/19 11:27:46,0,520.818,-246.989,-777.262,-673.75,-3902.5,1207.5,8538,-4049,-12742,-154,-892,276,FFF10A32697D60005A212FF03ACE66FF84FC1401,0,0,0,電車
11,2021/4/19 11:27:47,0,521.367,-247.111,-777.14,-503.125,-3714.375,1435,8547,-4051,-12740,-115,-849,328,FFF10B33697D600063212DF03CCE8DFFAFFC4801,0,0,0,電車
0,2021/4/19 11:27:48,0,521.977,-247.843,-777.689,-625.625,-3731.875,1343.125,8557,-4063,-12749,-143,-853,307,FFF10034697D60006D2121F033CE71FFABFC3301,0,0,0,電車
1,2021/4/19 11:27:49,0,521.55,-246.501,-777.75,-656.25,-3696.875,1290.625,8550,-4041,-12750,-150,-845,295,FFF10135697D6000662137F032CE6AFFB3FC2701,0,0,0,電車
2,2021/4/19 11:27:50,0,521.977,-246.745,-777.994,-350,-3797.5,1470,8557,-4045,-12754,-80,-868,336,FFF10236697D60006D2133F02ECEB0FF9CFC5001,0,0,0,電車
3,2021/4/19 11:27:51,0,522.221,-246.013,-777.079,-599.375,-3780,1176.875,8561,-4033,-12739,-137,-864,269,FFF10337697D600071213FF03DCE77FFA0FC0D01,0,0,0,電車
4,2021/4/19 11:27:52,0,522.038,-245.342,-777.994,-450.625,-3526.25,1260,8558,-4022,-12754,-103,-806,288,FFF10438697D60006E214AF02ECE99FFDAFC2001,0,0,0,電車
5,2021/4/19 11:27:53,0,522.77,-244.915,-777.628,-380.625,-3683.75,1400,8570,-4015,-12748,-87,-842,320,FFF10539697D60007A2151F034CEA9FFB6FC4001,0,0,0,電車
6,2021/4/19 11:27:54,0,523.197,-245.708,-777.75,-603.75,-3683.75,1229.375,8577,-4028,-12750,-138,-842,281,FFF1063A697D6000812144F032CE76FFB6FC1901,0,0,0,電車
7,2021/4/19 11:27:55,0,522.709,-245.525,-777.628,-756.875,-3762.5,1373.75,8569,-4025,-12748,-173,-860,314,FFF1073B697D6000792147F034CE53FFA4FC3A01,0,0,0,電車
8,2021/4/19 11:27:56,0,522.587,-245.281,-777.811,-599.375,-3631.25,1115.625,8567,-4021,-12751,-137,-830,255,FFF1083C697D600077214BF031CE77FFC2FCFF00,0,0,0,電車
9,2021/4/19 11:27:57,0,523.319,-244.671,-777.689,-485.625,-3797.5,1255.625,8579,-4011,-12749,-111,-868,287,FFF1093D697D6000832155F033CE91FF9CFC1F01,0,0,0,電車
10,2021/4/19 11:27:58,0,522.953,-244.793,-777.628,-590.625,-3718.75,1443.75,8573,-4013,-12748,-135,-850,330,FFF10A3E697D60007D2153F034CE79FFAEFC4A01,0,0,0,電車
11,2021/4/19 11:27:59,0,523.014,-244.854,-777.445,-673.75,-3941.875,1093.75,8574,-4014,-12745,-154,-901,250,FFF10B3F697D60007E2152F037CE66FF7BFCFA00,0,0,0,電車
0,2021/4/19 11:28:00,0,523.258,-244.061,-778.055,-542.5,-3500,1356.25,8578,-4001,-12755,-124,-800,310,FFF10040697D600082215FF02DCE84FFE0FC3601,0,0,0,電車
1,2021/4/19 11:28:01,0,522.892,-244.122,-777.567,-503.125,-3780,1299.375,8572,-4002,-12747,-115,-864,297,FFF10141697D60007C215EF035CE8DFFA0FC2901,0,0,0,電車
2,2021/4/19 11:28:02,0,522.648,-245.159,-777.323,-441.875,-3780,1080.625,8568,-4019,-12743,-101,-864,247,FFF10242697D600078214DF039CE9BFFA0FCF700,0,0,0,電車
3,2021/4/19 11:28:03,0,522.648,-244.366,-777.445,-621.25,-3548.125,1216.25,8568,-4006,-12745,-142,-811,278,FFF10343697D600078215AF037CE72FFD5FC1601,0,0,0,電車
4,2021/4/19 11:28:04,0,523.136,-244.488,-777.14,-507.5,-3526.25,1295,8576,-4008,-12740,-116,-806,296,FFF10444697D6000802158F03CCE8CFFDAFC2801,0,0,0,電車
5,2021/4/19 11:28:05,0,523.502,-245.22,-777.079,-630,-3775.625,1185.625,8582,-4020,-12739,-144,-863,271,FFF10545697D600086214CF03DCE70FFA1FC0F01,0,0,0,電車
6,2021/4/19 11:28:06,0,523.075,-244.427,-777.14,-476.875,-3740.625,1347.5,8575,-4007,-12740,-109,-855,308,FFF10646697D60007F2159F03CCE93FFA9FC3401,0,0,0,電車
7,2021/4/19 11:28:07,0,522.282,-245.159,-777.018,-603.75,-3644.375,1146.25,8562,-4019,-12738,-138,-833,262,FFF10747697D600072214DF03ECE76FFBFFC0601,0,0,0,電車
8,2021/4/19 11:28:08,0,522.526,-245.159,-777.567,-485.625,-3661.875,1295,8566,-4019,-12747,-111,-837,296,FFF10848697D600076214DF035CE91FFBBFC2801,0,0,0,電車
9,2021/4/19 11:28:09,0,522.343,-244.183,-777.079,-380.625,-3631.25,1395.625,8563,-4003,-12739,-87,-830,319,FFF10949697D600073215DF03DCEA9FFC2FC3F01,0,0,0,電車
10,2021/4/19 11:28:10,0,521.794,-245.281,-776.53,-783.125,-3692.5,1089.375,8554,-4021,-12730,-179,-844,249,FFF10A4A697D60006A214BF046CE4DFFB4FCF900,0,0,0,電車
11,2021/4/19 11:28:11,0,522.648,-244.732,-777.323,-564.375,-3622.5,1343.125,8568,-4012,-12743,-129,-828,307,FFF10B4B697D6000782154F039CE7FFFC4FC3301,0,0,0,電車
0,2021/4/19 11:28:12,0,523.868,-244.793,-776.652,-494.375,-3513.125,1408.75,8588,-4013,-12732,-113,-803,322,FFF1004C697D60008C2153F044CE8FFFDDFC4201,0,0,0,電車
1,2021/4/19 11:28:13,0,523.563,-245.769,-776.591,-686.875,-3613.75,1378.125,8583,-4029,-12731,-157,-826,315,FFF1014D697D6000872143F045CE63FFC6FC3B01,0,0,0,電車
2,2021/4/19 11:28:14,0,524.478,-245.22,-776.286,-603.75,-3758.125,1216.25,8598,-4020,-12726,-138,-859,278,FFF1024E697D600096214CF04ACE76FFA5FC1601,0,0,0,電車
3,2021/4/19 11:28:15,0,525.088,-245.403,-776.164,-420,-3648.75,1238.125,8608,-4023,-12724,-96,-834,283,FFF1034F697D6000A02149F04CCEA0FFBEFC1B01,0,0,0,電車
4,2021/4/19 11:28:16,0,514.901,-243.512,-783.362,450.625,-5149.375,1155,8441,-3992,-12842,103,-1177,264,FFF10450697D6000F92068F0D6CD670067FB0801,0,0,0,電車
5,2021/4/19 11:28:17,0,484.34,-234.423,-806.847,-293.125,-3574.375,-2664.375,7940,-3843,-13227,-67,-817,-609,FFF10551697D6000041FFDF055CCBDFFCFFC9FFD,0,0,0,電車
6,2021/4/19 11:28:18,0,456.646,-227.652,-827.648,669.375,-4567.5,26.25,7486,-3732,-13568,153,-1044,6,FFF10652697D60003E1D6CF100CB9900ECFB0600,0,0,0,電車
7,2021/4/19 11:28:19,0,440.115,-233.081,-836.066,-424.375,-3390.625,1435,7215,-3821,-13706,-97,-775,328,FFF10753697D60002F1C13F176CA9FFFF9FC4801,0,0,0,電車
8,2021/4/19 11:28:20,0,432.978,-236.741,-839.543,-231.875,-3613.75,1680,7098,-3881,-13763,-53,-826,384,FFF10854697D6000BA1BD7F03DCACBFFC6FC8001,0,0,0,電車
9,2021/4/19 11:28:21,0,429.623,-239.669,-839.848,-551.25,-3902.5,1163.75,7043,-3929,-13768,-126,-892,266,FFF10955697D6000831BA7F038CA82FF84FC0A01,0,0,0,電車
10,2021/4/19 11:28:22,0,429.135,-239.852,-840.214,-551.25,-3574.375,1360.625,7035,-3932,-13774,-126,-817,311,FFF10A56697D60007B1BA4F032CA82FFCFFC3701,0,0,0,電車
11,2021/4/19 11:28:23,0,428.891,-240.34,-840.397,-328.125,-3635.625,1483.125,7031,-3940,-13777,-75,-831,339,FFF10B57697D6000771B9CF02FCAB5FFC1FC5301,0,0,0,電車
0,2021/4/19 11:28:24,0,428.891,-241.926,-840.031,-595,-3526.25,1115.625,7031,-3966,-13771,-136,-806,255,FFF10058697D6000771B82F035CA78FFDAFCFF00,0,0,0,電車
1,2021/4/19 11:28:25,0,429.074,-240.157,-839.787,-525,-3351.25,1207.5,7034,-3937,-13767,-120,-766,276,FFF10159697D60007A1B9FF039CA88FF02FD1401,0,0,0,電車
2,2021/4/19 11:28:26,0,426.512,-239.181,-840.885,-153.125,-4086.25,997.5,6992,-3921,-13785,-35,-934,228,FFF1025A697D6000501BAFF027CADDFF5AFCE400,0,0,0,電車
3,2021/4/19 11:28:27,0,425.475,-239.181,-841.556,-577.5,-3622.5,1417.5,6975,-3921,-13796,-132,-828,324,FFF1035B697D60003F1BAFF01CCA7CFFC4FC4401,0,0,0,電車
4,2021/4/19 11:28:28,0,426.024,-240.157,-842.349,-717.5,-3578.75,1268.75,6984,-3937,-13809,-164,-818,290,FFF1045C697D6000481B9FF00FCA5CFFCEFC2201,0,0,0,電車
5,2021/4/19 11:28:29,0,426.817,-240.767,-840.824,-577.5,-3863.125,1089.375,6997,-3947,-13784,-132,-883,249,FFF1055D697D6000551B95F028CA7CFF8DFCF900,0,0,0,電車
6,2021/4/19 11:28:30,0,428.586,-241.133,-839.909,-411.25,-3788.75,1330,7026,-3953,-13769,-94,-866,304,FFF1065E697D6000721B8FF037CAA2FF9EFC3001,0,0,0,電車
7,2021/4/19 11:28:31,0,430.355,-242.353,-842.654,-490,-3692.5,1671.25,7055,-3973,-13814,-112,-844,382,FFF1075F697D60008F1B7BF00ACA90FFB4FC7E01,0,0,0,電車
8,2021/4/19 11:28:32,0,431.88,-244.671,-845.338,-818.125,-4261.25,910,7080,-4011,-13858,-187,-974,208,FFF10860697D6000A81B55F0DEC945FF32FCD000,0,0,0,電車
9,2021/4/19 11:28:33,0,430.294,-243.451,-846.131,-988.75,-4038.125,1089.375,7054,-3991,-13871,-226,-923,249,FFF10961697D60008E1B69F0D1C91EFF65FCF900,0,0,0,電車
10,2021/4/19 11:28:34,0,429.806,-242.231,-847.107,-577.5,-3946.25,1496.25,7046,-3971,-13887,-132,-902,342,FFF10A62697D6000861B7DF0C1C97CFF7AFC5601,0,0,0,電車
11,2021/4/19 11:28:35,0,428.22,-242.17,-852.475,-866.25,-4051.25,1141.875,7020,-3970,-13975,-198,-926,261,FFF10B63697D60006C1B7EF069C93AFF62FC0501,0,0,0,電車
0,2021/4/19 11:28:36,0,426.024,-239.425,-850.462,-450.625,-4204.375,1351.875,6984,-3925,-13942,-103,-961,309,FFF10064697D6000481BABF08AC999FF3FFC3501,0,0,0,電車
1,2021/4/19 11:28:37,0,425.048,-241.194,-850.34,-791.875,-3381.875,1443.75,6968,-3954,-13940,-181,-773,330,FFF10165697D6000381B8EF08CC94BFFFBFC4A01,0,0,0,電車
2,2021/4/19 11:28:38,0,426.878,-240.035,-844.972,-586.25,-3933.125,1093.75,6998,-3935,-13852,-134,-899,250,FFF10266697D6000561BA1F0E4C97AFF7DFCFA00,0,0,0,電車
3,2021/4/19 11:28:39,0,427.793,-240.584,-836.798,-555.625,-3438.75,1190,7013,-3944,-13718,-127,-786,272,FFF10367697D6000651B98F06ACA81FFEEFC1001,0,0,0,電車
4,2021/4/19 11:28:40,0,430.355,-242.475,-824.354,-275.625,-2983.75,1229.375,7055,-3975,-13514,-63,-682,281,FFF10468697D60008F1B79F036CBC1FF56FD1901,0,0,0,電車
5,2021/4/19 11:28:41,0,436.882,-243.878,-818.559,-3600.625,-4252.5,-201.25,7162,-3998,-13419,-823,-972,-46,FFF10569697D6000FA1B62F095CBC9FC34FCD2FF,0,0,0,電車
6,2021/4/19 11:28:42,0,440.725,-239.181,-814.045,-669.375,-3180.625,1645,7225,-3921,-13345,-153,-727,376,FFF1066A697D6000391CAFF0DFCB67FF29FD7801,0,0,0,電車
7,2021/4/19 11:28:43,0,448.533,-242.597,-814.472,-525,-3653.125,809.375,7353,-3977,-13352,-120,-835,185,FFF1076B697D6000B91C77F0D8CB88FFBDFCB900,0,0,0,電車
8,2021/4/19 11:28:44,0,453.352,-242.902,-817.217,-870.625,-3386.25,1233.75,7432,-3982,-13397,-199,-774,282,FFF1086C697D6000081D72F0ABCB39FFFAFC1A01,0,0,0,電車
9,2021/4/19 11:28:45,0,455.731,-243.878,-819.047,-210,-3920,1273.125,7471,-3998,-13427,-48,-896,291,FFF1096D697D60002F1D62F08DCBD0FF80FC2301,0,0,0,電車
10,2021/4/19 11:28:46,0,456.646,-244.366,-819.23,-1010.625,-3346.875,1150.625,7486,-4006,-13430,-231,-765,263,FFF10A6E697D60003E1D5AF08ACB19FF03FD0701,0,0,0,電車
11,2021/4/19 11:28:47,0,454.938,-241.865,-810.995,-573.125,-3482.5,1351.875,7458,-3965,-13295,-131,-796,309,FFF10B6F697D6000221D83F011CC7DFFE4FC3501,0,0,0,電車
0,2021/4/19 11:28:48,0,472.994,-248.88,-801.113,-4182.5,-4733.75,822.5,7754,-4080,-13133,-956,-1082,188,FFF10070697D60004A1E10F0B3CC44FCC6FBBC00,0,0,0,電車
1,2021/4/19 11:28:49,0,497.15,-241.743,-791.963,958.125,-3473.75,888.125,8150,-3963,-12983,219,-794,203,FFF10171697D6000D61F85F049CDDB00E6FCCB00,0,0,0,電車
2,2021/4/19 11:28:50,0,506.605,-231.312,-791.841,-2135,-4589.375,1316.875,8305,-3792,-12981,-488,-1049,301,FFF10272697D6000712030F14BCD18FEE7FB2D01,0,0,0,電車
3,2021/4/19 11:28:51,0,506.239,-223.931,-793.061,-730.625,-3517.5,940.625,8299,-3671,-13001,-167,-804,215,FFF10373697D60006B20A9F137CD59FFDCFCD700,0,0,0,電車
4,2021/4/19 11:28:52,0,506.056,-216.306,-794.037,-726.25,-3364.375,1811.25,8296,-3546,-13017,-166,-769,414,FFF10474697D6000682026F227CD5AFFFFFC9E01,0,0,0,電車
5,2021/4/19 11:28:53,0,505.202,-214.72,-798.368,-336.875,-4493.125,651.875,8282,-3520,-13088,-77,-1027,149,FFF10575697D60005A2040F2E0CCB3FFFDFB9500,0,0,0,電車
6,2021/4/19 11:28:54,0,504.653,-213.378,-798.551,56.875,-4615.625,857.5,8273,-3498,-13091,13,-1055,196,FFF10676697D6000512056F2DDCC0D00E1FBC400,0,0,0,電車
7,2021/4/19 11:28:55,0,502.091,-210.328,-792.756,-1461.25,-1526.875,1951.25,8231,-3448,-12996,-334,-349,446,FFF10777697D6000272088F23CCDB2FEA3FEBE01,0,0,0,電車
8,2021/4/19 11:28:56,0,512.278,-206.18,-776.286,-682.5,-918.75,-398.125,8398,-3380,-12726,-156,-210,-91,FFF10878697D6000CE20CCF24ACE64FF2EFFA5FF,0,0,0,電車
9,2021/4/19 11:28:57,0,520.696,-193.736,-771.772,-2620.625,-2419.375,1273.125,8536,-3176,-12652,-599,-553,291,FFF10979697D6000582198F394CEA9FDD7FD2301,0,0,0,電車
10,2021/4/19 11:28:58,0,530.212,-188.063,-781.776,-253.75,-3460.625,3285.625,8692,-3083,-12816,-58,-791,751,FFF10A7A697D6000F421F5F3F0CDC6FFE9FCEF02,0,0,0,電車
11,2021/4/19 11:28:59,0,522.587,-190.381,-787.815,1163.75,-4900,936.25,8567,-3121,-12915,266,-1120,214,FFF10B7B697D60007721CFF38DCD0A01A0FBD600,0,0,0,電車
0,2021/4/19 11:29:00,0,513.437,-194.956,-792.085,-538.125,-3290,1194.375,8417,-3196,-12985,-123,-752,273,FFF1007C697D6000E12084F347CD85FF10FD1101,0,0,0,電車
1,2021/4/19 11:29:01,0,518.683,-195.932,-790.926,-1631.875,-2139.375,2209.375,8503,-3212,-12966,-373,-489,505,FFF1017D697D6000372174F35ACD8BFE17FEF901,0,0,0,電車
2,2021/4/19 11:29:02,0,513.742,-192.211,-796.904,-1295,-2546.25,2065,8422,-3151,-13064,-296,-582,472,FFF1027E697D6000E620B1F3F8CCD8FEBAFDD801,0,0,0,電車
3,2021/4/19 11:29:03,0,525.759,-196.237,-790.316,371.875,-4948.125,411.25,8619,-3217,-12956,85,-1131,94,FFF1037F697D6000AB216FF364CD550095FB5E00,0,0,0,電車
4,2021/4/19 11:29:04,0,530.7,-194.712,-789.035,-450.625,-3613.75,1286.25,8700,-3192,-12935,-103,-826,294,FFF10480697D6000FC2188F379CD99FFC6FC2601,0,0,0,電車
5,2021/4/19 11:29:05,0,527.528,-192.882,-789.95,52.5,-3806.25,721.875,8648,-3162,-12950,12,-870,165,FFF10581697D6000C821A6F36ACD0C009AFCA500,0,0,0,電車
6,2021/4/19 11:29:06,0,524.661,-189.832,-789.889,1032.5,-5731.25,-1010.625,8601,-3112,-12949,236,-1310,-231,FFF10682697D60009921D8F36BCDEC00E2FA19FF,0,0,0,電車
7,2021/4/19 11:29:07,0,517.036,-189.405,-797.819,-476.875,-5280.625,2139.375,8476,-3105,-13079,-109,-1207,489,FFF10783697D60001C21DFF3E9CC93FF49FBE901,0,0,0,電車
8,2021/4/19 11:29:08,0,510.936,-189.893,-799.527,-1045.625,-3259.375,2043.125,8376,-3113,-13107,-239,-745,467,FFF10884697D6000B820D7F3CDCC11FF17FDD301,0,0,0,電車
9,2021/4/19 11:29:09,0,531.127,-194.163,-785.009,-350,-4038.125,805,8707,-3183,-12869,-80,-923,184,FFF10985697D6000032291F3BBCDB0FF65FCB800,0,0,0,電車
10,2021/4/19 11:29:10,0,563.213,-201.727,-762.744,-586.25,-3920,809.375,9233,-3307,-12504,-134,-896,185,FFF10A86697D6000112415F328CF7AFF80FCB900,0,0,0,電車
11,2021/4/19 11:29:11,0,579.439,-205.387,-752.069,-660.625,-3412.5,975.625,9499,-3367,-12329,-151,-780,223,FFF10B87697D60001B25D9F2D7CF69FFF4FCDF00,0,0,0,電車
0,2021/4/19 11:29:12,0,586.698,-205.692,-746.274,-560,-3710,1216.25,9618,-3372,-12234,-128,-848,278,FFF10088697D60009225D4F236D080FFB0FC1601,0,0,0,電車
1,2021/4/19 11:29:13,0,586.576,-205.265,-742.065,-656.25,-2966.25,1128.75,9616,-3365,-12165,-150,-678,258,FFF10189697D60009025DBF27BD06AFF5AFD0201,0,0,0,電車
2,2021/4/19 11:29:14,0,590.236,-206.18,-740.845,-538.125,-3981.25,542.5,9676,-3380,-12145,-123,-910,124,FFF1028A697D6000CC25CCF28FD085FF72FC7C00,0,0,0,電車
3,2021/4/19 11:29:15,0,590.663,-204.899,-742.248,-861.875,-3543.75,1071.875,9683,-3359,-12168,-197,-810,245,FFF1038B697D6000D325E1F278D03BFFD6FCF500,0,0,0,電車
4,2021/4/19 11:29:16,0,592.737,-199.775,-744.444,-87.5,-3801.875,1653.75,9717,-3275,-12204,-20,-869,378,FFF1048C697D6000F52535F354D0ECFF9BFC7A01,0,0,0,電車
5,2021/4/19 11:29:17,0,590.907,-199.47,-743.041,-735,-3290,1299.375,9687,-3270,-12181,-168,-752,297,FFF1058D697D6000D7253AF36BD058FF10FD2901,0,0,0,電車
6,2021/4/19 11:29:18,0,593.286,-197.518,-742.919,-682.5,-3731.875,1019.375,9726,-3238,-12179,-156,-853,233,FFF1068E697D6000FE255AF36DD064FFABFCE900,0,0,0,電車
7,2021/4/19 11:29:19,0,594.689,-195.383,-744.261,-835.625,-3596.25,1505,9749,-3203,-12201,-191,-822,344,FFF1078F697D600015267DF357D041FFCAFC5801,0,0,0,電車
8,2021/4/19 11:29:20,0,590.053,-195.383,-741.638,-953.75,-3346.875,1203.125,9673,-3203,-12158,-218,-765,275,FFF10890697D6000C9257DF382D026FF03FD1301,0,0,0,電車
9,2021/4/19 11:29:21,0,596.58,-194.407,-742.614,-630,-3806.25,1303.75,9780,-3187,-12174,-144,-870,298,FFF10991697D600034268DF372D070FF9AFC2A01,0,0,0,電車
10,2021/4/19 11:29:22,0,601.643,-197.03,-747.982,-651.875,-3854.375,1351.875,9863,-3230,-12262,-149,-881,309,FFF10A92697D6000872662F31AD06BFF8FFC3501,0,0,0,電車
11,2021/4/19 11:29:23,0,597.007,-194.59,-749.141,-599.375,-4221.875,892.5,9787,-3190,-12281,-137,-965,204,FFF10B93697D60003B268AF307D077FF3BFCCC00,0,0,0,電車
0,2021/4/19 11:29:24,0,590.846,-193.309,-749.385,-350,-3766.875,931.875,9686,-3169,-12285,-80,-861,213,FFF10094697D6000D6259FF303D0B0FFA3FCD500,0,0,0,電車
1,2021/4/19 11:29:25,0,588.467,-193.126,-749.385,-319.375,-3508.75,1233.75,9647,-3166,-12285,-73,-802,282,FFF10195697D6000AF25A2F303D0B7FFDEFC1A01,0,0,0,電車
2,2021/4/19 11:29:26,0,588.101,-193.309,-749.873,-686.875,-3871.875,1076.25,9641,-3169,-12293,-157,-885,246,FFF10296697D6000A9259FF3FBCF63FF8BFCF600,0,0,0,電車
3,2021/4/19 11:29:27,0,587.918,-192.455,-749.141,-564.375,-3583.125,1085,9638,-3155,-12281,-129,-819,248,FFF10397697D6000A625ADF307D07FFFCDFCF800,0,0,0,電車
4,2021/4/19 11:29:28,0,587.308,-193.98,-747.982,-581.875,-3561.25,1211.875,9628,-3180,-12262,-133,-814,277,FFF10498697D60009C2594F31AD07BFFD2FC1501,0,0,0,電車
5,2021/4/19 11:29:29,0,588.284,-194.346,-747.372,-931.875,-3561.25,752.5,9644,-3186,-12252,-213,-814,172,FFF10599697D6000AC258EF324D02BFFD2FCAC00,0,0,0,電車
6,2021/4/19 11:29:30,0,589.138,-191.174,-746.457,-590.625,-3368.75,1321.25,9658,-3134,-12237,-135,-770,302,FFF1069A697D6000BA25C2F333D079FFFEFC2E01,0,0,0,電車
7,2021/4/19 11:29:31,0,590.785,-189.466,-746.396,-507.5,-3867.5,1172.5,9685,-3106,-12236,-116,-884,268,FFF1079B697D6000D525DEF334D08CFF8CFC0C01,0,0,0,電車
8,2021/4/19 11:29:32,0,593.957,-190.442,-744.322,-446.25,-3578.75,927.5,9737,-3122,-12202,-102,-818,212,FFF1089C697D60000926CEF356D09AFFCEFCD400,0,0,0,電車
9,2021/4/19 11:29:33,0,605.303,-192.638,-736.758,-560,-3710,1649.375,9923,-3158,-12078,-128,-848,377,FFF1099D697D6000C326AAF3D2D080FFB0FC7901,0,0,0,電車
10,2021/4/19 11:29:34,0,609.817,-194.712,-731.329,-835.625,-3368.75,1439.375,9997,-3192,-11989,-191,-770,329,FFF10A9E697D60000D2788F32BD141FFFEFC4901,0,0,0,電車
11,2021/4/19 11:29:35,0,606.889,-192.699,-734.318,-520.625,-3316.25,1522.5,9949,-3159,-12038,-119,-758,348,FFF10B9F697D6000DD26A9F3FAD089FF0AFD5C01,0,0,0,電車
0,2021/4/19 11:29:36,0,602.192,-191.784,-737.856,-280,-3758.125,1483.125,9872,-3144,-12096,-64,-859,339,FFF100A0697D60009026B8F3C0D0C0FFA5FC5301,0,0,0,電車
1,2021/4/19 11:29:37,0,599.203,-192.516,-740.357,-577.5,-3915.625,1190,9823,-3156,-12137,-132,-895,272,FFF101A1697D60005F26ACF397D07CFF81FC1001,0,0,0,電車
2,2021/4/19 11:29:38,0,597.373,-191.906,-740.662,-682.5,-3644.375,1211.875,9793,-3146,-12142,-156,-833,277,FFF102A2697D60004126B6F392D064FFBFFC1501,0,0,0,電車
3,2021/4/19 11:29:39,0,597.8,-190.747,-740.601,-293.125,-3841.25,1338.75,9800,-3127,-12141,-67,-878,306,FFF103A3697D60004826C9F393D0BDFF92FC3201,0,0,0,電車
4,2021/4/19 11:29:40,0,591.212,-190.259,-745.237,-752.5,-3644.375,1382.5,9692,-3119,-12217,-172,-833,316,FFF104A4697D6000DC25D1F347D054FFBFFC3C01,0,0,0,電車
5,2021/4/19 11:29:41,0,588.528,-189.771,-747.677,-608.125,-3241.875,1505,9648,-3111,-12257,-139,-741,344,FFF105A5697D6000B025D9F31FD075FF1BFD5801,0,0,0,電車
6,2021/4/19 11:29:42,0,598.532,-193.492,-739.991,-192.5,-3710,1338.75,9812,-3172,-12131,-44,-848,306,FFF106A6697D600054269CF39DD0D4FFB0FC3201,0,0,0,電車
7,2021/4/19 11:29:43,0,561.627,-187.575,-766.221,420,-1220.625,3911.25,9207,-3075,-12561,96,-279,894,FFF107A7697D6000F723FDF3EFCE6000E9FE7E03,0,0,0,電車
8,2021/4/19 11:29:44,0,538.996,-193.309,-779.336,122.5,-4090.625,1203.125,8836,-3169,-12776,28,-935,275,FFF108A8697D600084229FF318CE1C0059FC1301,0,0,0,電車
9,2021/4/19 11:29:45,0,528.443,-199.653,-785.314,-770,-3832.5,840,8663,-3273,-12874,-176,-876,192,FFF109A9697D6000D72137F3B6CD50FF94FCC000,0,0,0,電車
10,2021/4/19 11:29:46,0,523.746,-201.178,-788.974,-577.5,-3596.25,1295,8586,-3298,-12934,-132,-822,296,FFF10AAA697D60008A211EF37ACD7CFFCAFC2801,0,0,0,電車
11,2021/4/19 11:29:47,0,521.733,-201.056,-790.011,-297.5,-3591.875,1614.375,8553,-3296,-12951,-68,-821,369,FFF10BAB697D6000692120F369CDBCFFCBFC7101,0,0,0,電車
0,2021/4/19 11:29:48,0,520.696,-203.313,-790.072,-813.75,-3928.75,923.125,8536,-3333,-12952,-186,-898,211,FFF100AC697D60005821FBF268CD46FF7EFCD300,0,0,0,電車
1,2021/4/19 11:29:49,0,520.208,-203.435,-790.56,-389.375,-3889.375,1347.5,8528,-3335,-12960,-89,-889,308,FFF101AD697D60005021F9F260CDA7FF87FC3401,0,0,0,電車
2,2021/4/19 11:29:50,0,519.293,-204.289,-790.194,-306.25,-3766.875,1461.25,8513,-3349,-12954,-70,-861,334,FFF102AE697D60004121EBF266CDBAFFA3FC4E01,0,0,0,電車
3,2021/4/19 11:29:51,0,519.842,-205.997,-790.987,-721.875,-3530.625,975.625,8522,-3377,-12967,-165,-807,223,FFF103AF697D60004A21CFF259CD5BFFD9FCDF00,0,0,0,電車
4,2021/4/19 11:29:52,0,519.354,-205.021,-790.499,-328.125,-3911.25,1220.625,8514,-3361,-12959,-75,-894,279,FFF104B0697D60004221DFF261CDB5FF82FC1701,0,0,0,電車
5,2021/4/19 11:29:53,0,519.354,-205.875,-791.109,-581.875,-3806.25,1325.625,8514,-3375,-12969,-133,-870,303,FFF105B1697D60004221D1F257CD7BFF9AFC2F01,0,0,0,電車
6,2021/4/19 11:29:54,0,519.354,-205.814,-790.743,-621.25,-3696.875,1089.375,8514,-3374,-12963,-142,-845,249,FFF106B2697D60004221D2F25DCD72FFB3FCF900,0,0,0,電車
7,2021/4/19 11:29:55,0,519.537,-206.302,-790.255,-573.125,-3675,1185.625,8517,-3382,-12955,-131,-840,271,FFF107B3697D60004521CAF265CD7DFFB8FC0F01,0,0,0,電車
8,2021/4/19 11:29:56,0,519.72,-206.607,-789.462,-818.125,-3513.125,945,8520,-3387,-12942,-187,-803,216,FFF108B4697D60004821C5F272CD45FFDDFCD800,0,0,0,電車
9,2021/4/19 11:29:56,0,519.659,-206.546,-789.584,-888.125,-3605,1054.375,8519,-3386,-12944,-203,-824,241,FFF109B4697D60004721C6F270CD35FFC8FCF100,0,0,0,電車
10,2021/4/19 11:29:56,0,519.72,-206.607,-789.767,-1015,-3307.5,1102.5,8520,-3387,-12947,-232,-756,252,FFF10AB4697D60004821C5F26DCD18FF0CFDFC00,0,0,0,電車
11,2021/4/19 11:29:56,0,519.781,-206.424,-789.767,-704.375,-2773.75,940.625,8521,-3384,-12947,-161,-634,215,FFF10BB4697D60004921C8F26DCD5FFF86FDD700,0,0,0,電車
0,2021/4/19 11:29:56,0,519.903,-206.302,-789.279,-691.25,-2646.875,568.75,8523,-3382,-12939,-158,-605,130,FFF100B4697D60004B21CAF275CD62FFA3FD8200,0,0,0,電車
1,2021/4/19 11:29:56,0,520.33,-206.058,-788.547,-756.875,-2953.125,713.125,8530,-3378,-12927,-173,-675,163,FFF101B4697D60005221CEF281CD53FF5DFDA300,0,0,0,電車
2,2021/4/19 11:29:56,0,521.123,-205.448,-787.998,-446.25,-3272.5,822.5,8543,-3368,-12918,-102,-748,188,FFF102B4697D60005F21D8F28ACD9AFF14FDBC00,0,0,0,電車
3,2021/4/19 11:29:56,0,521.367,-205.326,-787.937,-1631.875,-5608.75,1881.25,8547,-3366,-12917,-373,-1282,430,FFF103B4697D60006321DAF28BCD8BFEFEFAAE01,0,0,0,電車
4,2021/4/19 11:29:56,0,521.367,-205.143,-787.51,-590.625,-2905,1360.625,8547,-3363,-12910,-135,-664,311,FFF104B4697D60006321DDF292CD79FF68FD3701,0,0,0,電車
5,2021/4/19 11:29:56,0,522.221,-204.594,-787.083,-494.375,-3543.75,1623.125,8561,-3354,-12903,-113,-810,371,FFF105B4697D60007121E6F299CD8FFFD6FC7301,0,0,0,電車
6,2021/4/19 11:29:57,0,522.648,-204.533,-786.961,-822.5,-4493.125,1421.875,8568,-3353,-12901,-188,-1027,325,FFF106B5697D60007821E7F29BCD44FFFDFB4501,0,0,0,電車
7,2021/4/19 11:29:57,0,522.953,-204.472,-786.961,-538.125,-4130,1378.125,8573,-3352,-12901,-123,-944,315,FFF107B5697D60007D21E8F29BCD85FF50FC3B01,0,0,0,電車
8,2021/4/19 11:29:57,0,522.953,-204.289,-787.022,-870.625,-4760,1671.25,8573,-3349,-12902,-199,-1088,382,FFF108B5697D60007D21EBF29ACD39FFC0FB7E01,0,0,0,電車
9,2021/4/19 11:29:57,0,522.831,-204.716,-787.327,-756.875,-3976.875,1430.625,8571,-3356,-12907,-173,-909,327,FFF109B5697D60007B21E4F295CD53FF73FC4701,0,0,0,電車
10,2021/4/19 11:29:57,0,522.892,-204.777,-787.51,-783.125,-4130,1579.375,8572,-3357,-12910,-179,-944,361,FFF10AB5697D60007C21E3F292CD4DFF50FC6901,0,0,0,電車
11,2021/4/19 11:29:57,0,523.075,-204.716,-787.51,-791.875,-4751.25,1964.375,8575,-3356,-12910,-181,-1086,449,FFF10BB5697D60007F21E4F292CD4BFFC2FBC101,0,0,0,電車
0,2021/4/19 11:29:57,0,523.258,-204.594,-787.571,-691.25,-4637.5,2003.75,8578,-3354,-12911,-158,-1060,458,FFF100B5697D60008221E6F291CD62FFDCFBCA01,0,0,0,電車
1,2021/4/19 11:29:57,0,522.953,-204.716,-787.937,-131.25,-4108.125,1408.75,8573,-3356,-12917,-30,-939,322,FFF101B5697D60007D21E4F28BCDE2FF55FC4201,0,0,0,電車
2,2021/4/19 11:29:57,0,522.831,-204.716,-787.998,-105,-3841.25,1426.25,8571,-3356,-12918,-24,-878,326,FFF102B5697D60007B21E4F28ACDE8FF92FC4601,0,0,0,電車
3,2021/4/19 11:29:57,0,522.709,-204.777,-788.059,-455,-3548.125,1557.5,8569,-3357,-12919,-104,-811,356,FFF103B5697D60007921E3F289CD98FFD5FC6401,0,0,0,電車
4,2021/4/19 11:29:58,0,522.526,-204.96,-788.242,-271.25,-3395,1417.5,8566,-3360,-12922,-62,-776,324,FFF104B6697D60007621E0F286CDC2FFF8FC4401,0,0,0,電車
5,2021/4/19 11:29:58,0,522.465,-205.021,-788.242,-205.625,-3465,1557.5,8565,-3361,-12922,-47,-792,356,FFF105B6697D60007521DFF286CDD1FFE8FC6401,0,0,0,電車
6,2021/4/19 11:29:58,0,522.343,-205.082,-788.303,-240.625,-3451.875,1452.5,8563,-3362,-12923,-55,-789,332,FFF106B6697D60007321DEF285CDC9FFEBFC4C01,0,0,0,電車
7,2021/4/19 11:29:58,0,522.221,-205.265,-788.303,-253.75,-3666.25,1408.75,8561,-3365,-12923,-58,-838,322,FFF107B6697D60007121DBF285CDC6FFBAFC4201,0,0,0,電車
8,2021/4/19 11:29:58,0,521.855,-205.814,-788.425,-791.875,-3740.625,1260,8555,-3374,-12925,-181,-855,288,FFF108B6697D60006B21D2F283CD4BFFA9FC2001,0,0,0,電車
9,2021/4/19 11:29:58,0,521.733,-205.814,-788.303,-678.125,-3701.25,1251.25,8553,-3374,-12923,-155,-846,286,FFF109B6697D60006921D2F285CD65FFB2FC1E01,0,0,0,電車
10,2021/4/19 11:29:58,0,521.672,-205.875,-788.364,-643.125,-3648.75,1238.125,8552,-3375,-12924,-147,-834,283,FFF10AB6697D60006821D1F284CD6DFFBEFC1B01,0,0,0,電車
11,2021/4/19 11:29:58,0,521.55,-206.058,-788.364,-796.25,-3736.25,1238.125,8550,-3378,-12924,-182,-854,283,FFF10BB6697D60006621CEF284CD4AFFAAFC1B01,0,0,0,電車
0,2021/4/19 11:29:58,0,521.611,-206.241,-788.242,-608.125,-3648.75,1071.875,8551,-3381,-12922,-139,-834,245,FFF100B6697D60006721CBF286CD75FFBEFCF500,0,0,0,電車
1,2021/4/19 11:29:58,0,521.733,-206.302,-788.181,-647.5,-3412.5,844.375,8553,-3382,-12921,-148,-780,193,FFF101B6697D60006921CAF287CD6CFFF4FCC100,0,0,0,電車
2,2021/4/19 11:29:59,0,521.855,-206.241,-788.059,-612.5,-3141.25,883.75,8555,-3381,-12919,-140,-718,202,FFF102B7697D60006B21CBF289CD74FF32FDCA00,0,0,0,電車
3,2021/4/19 11:29:59,0,521.977,-206.119,-787.754,-398.125,-2795.625,910,8557,-3379,-12914,-91,-639,208,FFF103B7697D60006D21CDF28ECDA5FF81FDD000,0,0,0,電車
4,2021/4/19 11:29:59,0,522.404,-206.18,-787.937,-831.25,-4331.25,1382.5,8564,-3380,-12917,-190,-990,316,FFF104B7697D60007421CCF28BCD42FF22FC3C01,0,0,0,電車
5,2021/4/19 11:29:59,0,522.77,-206.18,-788.12,-612.5,-5674.375,1684.375,8570,-3380,-12920,-140,-1297,385,FFF105B7697D60007A21CCF288CD74FFEFFA8101,0,0,0,電車
6,2021/4/19 11:29:59,0,522.404,-205.875,-787.998,-761.25,-4488.75,1225,8564,-3375,-12918,-174,-1026,280,FFF106B7697D60007421D1F28ACD52FFFEFB1801,0,0,0,電車
7,2021/4/19 11:29:59,0,522.16,-205.936,-788.425,-490,-3626.875,1312.5,8560,-3376,-12925,-112,-829,300,FFF107B7697D60007021D0F283CD90FFC3FC2C01,0,0,0,電車
8,2021/4/19 11:29:59,0,521.916,-205.936,-788.303,-468.125,-3141.25,1264.375,8556,-3376,-12923,-107,-718,289,FFF108B7697D60006C21D0F285CD95FF32FD2101,0,0,0,電車
9,2021/4/19 11:29:59,0,521.855,-205.814,-788.12,-739.375,-3753.75,1391.25,8555,-3374,-12920,-169,-858,318,FFF109B7697D60006B21D2F288CD57FFA6FC3E01,0,0,0,電車
10,2021/4/19 11:29:59,0,522.038,-205.753,-788.181,-542.5,-4112.5,1041.25,8558,-3373,-12921,-124,-940,238,FFF10AB7697D60006E21D3F287CD84FF54FCEE00,0,0,0,電車
11,2021/4/19 11:29:59,0,521.855,-205.448,-788.181,-476.875,-3613.75,1360.625,8555,-3368,-12921,-109,-826,311,FFF10BB7697D60006B21D8F287CD93FFC6FC3701,0,0,0,電車
0,2021/4/19 11:30:00,0,521.794,-205.326,-788.364,-389.375,-3683.75,1522.5,8554,-3366,-12924,-89,-842,348,FFF100B8697D60006A21DAF284CDA7FFB6FC5C01,0,0,0,電車
1,2021/4/19 11:30:00,0,521.733,-205.265,-788.364,-367.5,-3648.75,1461.25,8553,-3365,-12924,-84,-834,334,FFF101B8697D60006921DBF284CDACFFBEFC4E01,0,0,0,電車
2,2021/4/19 11:30:00,0,521.428,-205.326,-788.303,-227.5,-3705.625,1570.625,8548,-3366,-12923,-52,-847,359,FFF102B8697D60006421DAF285CDCCFFB1FC6701,0,0,0,電車
3,2021/4/19 11:30:00,0,521.306,-205.387,-788.425,-363.125,-3745,1505,8546,-3367,-12925,-83,-856,344,FFF103B8697D60006221D9F283CDADFFA8FC5801,0,0,0,電車
4,2021/4/19 11:30:00,0,521.123,-205.509,-788.608,-415.625,-3683.75,1421.875,8543,-3369,-12928,-95,-842,325,FFF104B8697D60005F21D7F280CDA1FFB6FC4501,0,0,0,電車
5,2021/4/19 11:30:00,0,521.001,-205.692,-788.791,-573.125,-3561.25,1391.25,8541,-3372,-12931,-131,-814,318,FFF105B8697D60005D21D4F27DCD7DFFD2FC3E01,0,0,0,電車
6,2021/4/19 11:30:00,0,520.818,-205.875,-788.913,-533.75,-3753.75,1509.375,8538,-3375,-12933,-122,-858,345,FFF106B8697D60005A21D1F27BCD86FFA6FC5901,0,0,0,電車
7,2021/4/19 11:30:00,0,520.696,-205.997,-788.913,-472.5,-3828.125,1369.375,8536,-3377,-12933,-108,-875,313,FFF107B8697D60005821CFF27BCD94FF95FC3901,0,0,0,電車
8,2021/4/19 11:30:00,0,520.574,-206.18,-788.913,-542.5,-3801.875,1128.75,8534,-3380,-12933,-124,-869,258,FFF108B8697D60005621CCF27BCD84FF9BFC0201,0,0,0,電車
9,2021/4/19 11:30:00,0,520.391,-206.363,-789.035,-643.125,-3570,1111.25,8531,-3383,-12935,-147,-816,254,FFF109B8697D60005321C9F279CD6DFFD0FCFE00,0,0,0,電車
10,2021/4/19 11:30:01,0,520.33,-206.363,-788.913,-673.75,-3657.5,1216.25,8530,-3383,-12933,-154,-836,278,FFF10AB9697D60005221C9F27BCD66FFBCFC1601,0,0,0,電車
11,2021/4/19 11:30:01,0,520.391,-206.363,-788.913,-752.5,-3753.75,953.75,8531,-3383,-12933,-172,-858,218,FFF10BB9697D60005321C9F27BCD54FFA6FCDA00,0,0,0,電車
0,2021/4/19 11:30:01,0,520.33,-206.424,-789.096,-704.375,-3688.125,945,8530,-3384,-12936,-161,-843,216,FFF100B9697D60005221C8F278CD5FFFB5FCD800,0,0,0,電車
1,2021/4/19 11:30:01,0,520.147,-206.546,-789.34,-616.875,-3609.375,1015,8527,-3386,-12940,-141,-825,232,FFF101B9697D60004F21C6F274CD73FFC7FCE800,0,0,0,電車
2,2021/4/19 11:30:01,0,520.208,-206.424,-789.279,-778.75,-3801.875,1137.5,8528,-3384,-12939,-178,-869,260,FFF102B9697D60005021C8F275CD4EFF9BFC0401,0,0,0,電車
3,2021/4/19 11:30:01,0,520.025,-206.363,-789.218,-533.75,-3806.25,931.875,8525,-3383,-12938,-122,-870,213,FFF103B9697D60004D21C9F276CD86FF9AFCD500,0,0,0,電車
4,2021/4/19 11:30:01,0,519.964,-206.363,-789.096,-695.625,-3810.625,1067.5,8524,-3383,-12936,-159,-871,244,FFF104B9697D60004C21C9F278CD61FF99FCF400,0,0,0,電車
5,2021/4/19 11:30:01,0,519.903,-206.363,-788.913,-581.875,-3504.375,1168.125,8523,-3383,-12933,-133,-801,267,FFF105B9697D60004B21C9F27BCD7BFFDFFC0B01,0,0,0,電車
6,2021/4/19 11:30:01,0,519.781,-206.302,-788.852,-638.75,-3596.25,1190,8521,-3382,-12932,-146,-822,272,FFF106B9697D60004921CAF27CCD6EFFCAFC1001,0,0,0,電車
7,2021/4/19 11:30:01,0,519.72,-206.241,-788.852,-621.25,-3640,1115.625,8520,-3381,-12932,-142,-832,255,FFF107B9697D60004821CBF27CCD72FFC0FCFF00,0,0,0,電車
8,2021/4/19 11:30:02,0,519.598,-206.241,-789.34,-669.375,-3613.75,1238.125,8518,-3381,-12940,-153,-826,283,FFF108BA697D60004621CBF274CD67FFC6FC1B01,0,0,0,電車
9,2021/4/19 11:30:02,0,519.476,-206.302,-789.584,-503.125,-3679.375,1290.625,8516,-3382,-12944,-115,-841,295,FFF109BA697D60004421CAF270CD8DFFB7FC2701,0,0,0,電車
10,2021/4/19 11:30:02,0,519.354,-206.18,-789.584,-446.25,-3688.125,1124.375,8514,-3380,-12944,-102,-843,257,FFF10ABA697D60004221CCF270CD9AFFB5FC0101,0,0,0,電車
11,2021/4/19 11:30:02,0,519.293,-205.997,-789.706,-516.25,-3416.875,1120,8513,-3377,-12946,-118,-781,256,FFF10BBA697D60004121CFF26ECD8AFFF3FC0001,0,0,0,電車
0,2021/4/19 11:30:02,0,519.354,-205.814,-789.523,-564.375,-3548.125,1303.75,8514,-3374,-12943,-129,-811,298,FFF100BA697D60004221D2F271CD7FFFD5FC2A01,0,0,0,電車
1,2021/4/19 11:30:02,0,519.415,-205.753,-789.401,-406.875,-3653.125,1225,8515,-3373,-12941,-93,-835,280,FFF101BA697D60004321D3F273CDA3FFBDFC1801,0,0,0,電車
2,2021/4/19 11:30:02,0,519.537,-205.692,-789.34,-560,-3740.625,1190,8517,-3372,-12940,-128,-855,272,FFF102BA697D60004521D4F274CD80FFA9FC1001,0,0,0,電車
3,2021/4/19 11:30:02,0,519.72,-205.509,-789.401,-363.125,-3679.375,1255.625,8520,-3369,-12941,-83,-841,287,FFF103BA697D60004821D7F273CDADFFB7FC1F01,0,0,0,電車
4,2021/4/19 11:30:02,0,519.659,-205.448,-789.34,-188.125,-3583.125,1430.625,8519,-3368,-12940,-43,-819,327,FFF104BA697D60004721D8F274CDD5FFCDFC4701,0,0,0,電車
5,2021/4/19 11:30:02,0,519.659,-205.387,-789.34,-144.375,-3395,1522.5,8519,-3367,-12940,-33,-776,348,FFF105BA697D60004721D9F274CDDFFFF8FC5C01,0,0,0,電車
6,2021/4/19 11:30:03,0,519.659,-205.387,-789.035,485.625,-3255,1680,8519,-3367,-12935,111,-744,384,FFF106BB697D60004721D9F279CD6F0018FD8001,0,0,0,電車
7,2021/4/19 11:30:03,0,519.72,-205.692,-788.791,-380.625,-3552.5,1513.75,8520,-3372,-12931,-87,-812,346,FFF107BB697D60004821D4F27DCDA9FFD4FC5A01,0,0,0,電車
8,2021/4/19 11:30:03,0,519.964,-205.875,-788.852,-533.75,-3823.75,1426.25,8524,-3375,-12932,-122,-874,326,FFF108BB697D60004C21D1F27CCD86FF96FC4601,0,0,0,電車
9,2021/4/19 11:30:03,0,520.208,-206.058,-788.791,-350,-3714.375,1400,8528,-3378,-12931,-80,-849,320,FFF109BB697D60005021CEF27DCDB0FFAFFC4001,0,0,0,電車
10,2021/4/19 11:30:03,0,520.33,-206.18,-788.73,-525,-3788.75,1382.5,8530,-3380,-12930,-120,-866,316,FFF10ABB697D60005221CCF27ECD88FF9EFC3C01,0,0,0,電車
11,2021/4/19 11:30:03,0,520.513,-206.668,-788.791,-643.125,-3723.125,1277.5,8533,-3388,-12931,-147,-851,292,FFF10BBB697D60005521C4F27DCD6DFFADFC2401,0,0,0,電車
0,2021/4/19 11:30:03,0,520.574,-206.729,-788.669,-564.375,-3858.75,1190,8534,-3389,-12929,-129,-882,272,FFF100BB697D60005621C3F27FCD7FFF8EFC1001,0,0,0,電車
1,2021/4/19 11:30:03,0,520.574,-206.79,-788.486,-625.625,-3889.375,1028.125,8534,-3390,-12926,-143,-889,235,FFF101BB697D60005621C2F282CD71FF87FCEB00,0,0,0,電車
2,2021/4/19 11:30:03,0,520.635,-206.973,-788.425,-730.625,-3723.125,1207.5,8535,-3393,-12925,-167,-851,276,FFF102BB697D60005721BFF283CD59FFADFC1401,0,0,0,電車
3,2021/4/19 11:30:03,0,520.879,-206.912,-788.425,-643.125,-3648.75,1076.25,8539,-3392,-12925,-147,-834,246,FFF103BB697D60005B21C0F283CD6DFFBEFCF600,0,0,0,電車
4,2021/4/19 11:30:04,0,521.001,-206.912,-788.608,-678.125,-3644.375,927.5,8541,-3392,-12928,-155,-833,212,FFF104BC697D60005D21C0F280CD65FFBFFCD400,0,0,0,電車
5,2021/4/19 11:30:04,0,521.184,-206.79,-788.669,-634.375,-3675,1115.625,8544,-3390,-12929,-145,-840,255,FFF105BC697D60006021C2F27FCD6FFFB8FCFF00,0,0,0,電車
6,2021/4/19 11:30:04,0,521.306,-206.912,-789.096,-612.5,-3574.375,927.5,8546,-3392,-12936,-140,-817,212,FFF106BC697D60006221C0F278CD74FFCFFCD400,0,0,0,電車
7,2021/4/19 11:30:04,0,521.367,-207.217,-788.913,-765.625,-3574.375,1093.75,8547,-3397,-12933,-175,-817,250,FFF107BC697D60006321BBF27BCD51FFCFFCFA00,0,0,0,電車
8,2021/4/19 11:30:04,0,521.306,-207.095,-788.73,-472.5,-3631.25,1028.125,8546,-3395,-12930,-108,-830,235,FFF108BC697D60006221BDF27ECD94FFC2FCEB00,0,0,0,電車
9,2021/4/19 11:30:04,0,521.123,-206.912,-788.669,-402.5,-3395,914.375,8543,-3392,-12929,-92,-776,209,FFF109BC697D60005F21C0F27FCDA4FFF8FCD100,0,0,0,電車
10,2021/4/19 11:30:04,0,521.245,-206.668,-788.608,-573.125,-3648.75,1356.25,8545,-3388,-12928,-131,-834,310,FFF10ABC697D60006121C4F280CD7DFFBEFC3601,0,0,0,電車
11,2021/4/19 11:30:04,0,521.306,-206.546,-788.669,-494.375,-3583.125,1251.25,8546,-3386,-12929,-113,-819,286,FFF10BBC697D60006221C6F27FCD8FFFCDFC1E01,0,0,0,電車
0,2021/4/19 11:30:04,0,521.184,-206.363,-788.852,-783.125,-3850,1273.125,8544,-3383,-12932,-179,-880,291,FFF100BC697D60006021C9F27CCD4DFF90FC2301,0,0,0,電車
1,2021/4/19 11:30:04,0,521.306,-206.119,-789.279,-551.25,-4060,1194.375,8546,-3379,-12939,-126,-928,273,FFF101BC697D60006221CDF275CD82FF60FC1101,0,0,0,電車
2,2021/4/19 11:30:05,0,521.245,-206.058,-789.34,-498.75,-3753.75,1146.25,8545,-3378,-12940,-114,-858,262,FFF102BD697D60006121CEF274CD8EFFA6FC0601,0,0,0,電車
3,2021/4/19 11:30:05,0,521.245,-205.997,-789.462,-577.5,-3758.125,1246.875,8545,-3377,-12942,-132,-859,285,FFF103BD697D60006121CFF272CD7CFFA5FC1D01,0,0,0,電車
4,2021/4/19 11:30:05,0,521.184,-205.997,-789.584,-463.75,-3591.875,1251.25,8544,-3377,-12944,-106,-821,286,FFF104BD697D60006021CFF270CD96FFCBFC1E01,0,0,0,電車
5,2021/4/19 11:30:05,0,521.001,-205.814,-789.828,-494.375,-3605,1251.25,8541,-3374,-12948,-113,-824,286,FFF105BD697D60005D21D2F26CCD8FFFC8FC1E01,0,0,0,電車
6,2021/4/19 11:30:05,0,521.001,-205.509,-789.95,-358.75,-3613.75,1176.875,8541,-3369,-12950,-82,-826,269,FFF106BD697D60005D21D7F26ACDAEFFC6FC0D01,0,0,0,電車
7,2021/4/19 11:30:05,0,520.757,-205.387,-790.072,-39.375,-3666.25,1246.875,8537,-3367,-12952,-9,-838,285,FFF107BD697D60005921D9F268CDF7FFBAFC1D01,0,0,0,電車
8,2021/4/19 11:30:06,0,520.574,-206.546,-789.279,-406.875,-3946.25,1526.875,8534,-3386,-12939,-93,-902,349,FFF108BE697D60005621C6F275CDA3FF7AFC5D01,0,0,0,電車
9,2021/4/19 11:30:06,0,519.354,-205.875,-791.109,-581.875,-3806.25,1325.625,8514,-3375,-12969,-133,-870,303,FFF109BE697D60004221D1F257CD7BFF9AFC2F01,0,0,0,電車
10,2021/4/19 11:30:06,0,519.354,-205.814,-790.743,-621.25,-3696.875,1089.375,8514,-3374,-12963,-142,-845,249,FFF10ABE697D60004221D2F25DCD72FFB3FCF900,0,0,0,電車
11,2021/4/19 11:30:06,0,519.537,-206.302,-790.255,-573.125,-3675,1185.625,8517,-3382,-12955,-131,-840,271,FFF10BBE697D60004521CAF265CD7DFFB8FC0F01,0,0,0,電車
0,2021/4/19 11:30:06,0,519.72,-206.607,-789.462,-818.125,-3513.125,945,8520,-3387,-12942,-187,-803,216,FFF100BE697D60004821C5F272CD45FFDDFCD800,0,0,0,電車
1,2021/4/19 11:30:06,0,519.659,-206.546,-789.584,-888.125,-3605,1054.375,8519,-3386,-12944,-203,-824,241,FFF101BE697D60004721C6F270CD35FFC8FCF100,0,0,0,電車
2,2021/4/19 11:30:06,0,519.72,-206.607,-789.767,-1015,-3307.5,1102.5,8520,-3387,-12947,-232,-756,252,FFF102BE697D60004821C5F26DCD18FF0CFDFC00,0,0,0,電車
3,2021/4/19 11:30:07,0,521.001,-206.851,-789.462,-341.25,-3688.125,1636.25,8541,-3391,-12942,-78,-843,374,FFF103BF697D60005D21C1F272CDB2FFB5FC7601,0,0,0,電車
4,2021/4/19 11:30:08,0,519.903,-206.546,-789.584,-109.375,-3386.25,1553.125,8523,-3386,-12944,-25,-774,355,FFF104C0697D60004B21C6F270CDE7FFFAFC6301,0,0,0,電車
5,2021/4/19 11:30:09,0,519.293,-208.986,-789.767,-910,-3556.875,1019.375,8513,-3426,-12947,-208,-813,233,FFF105C1697D600041219EF26DCD30FFD3FCE900,0,0,0,電車
6,2021/4/19 11:30:10,0,518.5,-208.681,-789.462,-446.25,-3206.875,1360.625,8500,-3421,-12942,-102,-733,311,FFF106C2697D60003421A3F272CD9AFF23FD3701,0,0,0,電車
7,2021/4/19 11:30:11,0,519.049,-209.108,-789.096,-315,-3775.625,1172.5,8509,-3428,-12936,-72,-863,268,FFF107C3697D60003D219CF278CDB8FFA1FC0C01,0,0,0,電車
8,2021/4/19 11:30:12,0,519.842,-211.426,-788.364,-717.5,-3863.125,1036.875,8522,-3466,-12924,-164,-883,237,FFF108C4697D60004A2176F284CD5CFF8DFCED00,0,0,0,電車
9,2021/4/19 11:30:13,0,520.574,-210.938,-788.303,-525,-3635.625,1264.375,8534,-3458,-12923,-120,-831,289,FFF109C5697D600056217EF285CD88FFC1FC2101,0,0,0,電車
