,Time,Accel X,Accel Y,Accel Z,Gyro X,Gyro Y,Gyro Z,書く,集中,楽しさ,unixtime
0,2021/7/25 17:54:15.0,-449.204,816.18,195.2,21538.125,-20811.875,15907.5,1,0,0,1627203254.0
1,2021/7/25 17:54:15.1,-438.5656101455688,819.5837967538833,192.455002617836,14702.194019258022,-23203.68521898985,3832.949015200138,1,0,0,1627203254.1
2,2021/7/25 17:54:15.2,-427.92719492721557,822.9876016230583,189.70999869108198,7866.246740370989,-25595.501140505075,-8241.630757600069,1,0,0,1627203254.2
3,2021/7/25 17:54:15.3,-417.28880507278444,826.3913983769417,186.96500130891798,1030.3157596290112,-27987.311359494925,-20316.18174239993,1,0,0,1627203254.3
4,2021/7/25 17:54:15.4,-406.6503898544312,829.7952032461166,184.219997382164,-5805.631519258022,-30379.12728101015,-32390.761515200138,1,0,0,1627203254.4
5,2021/7/25 17:54:15.5,-396.012,833.199,181.475,-12641.5625,-32770.9375,-44465.3125,1,0,0,1627203254.5
6,2021/7/25 17:54:15.6,-385.3736101455688,836.6027967538834,178.730002617836,-19477.493480741978,-35162.74771898985,-56539.86348479986,1,0,0,1627203254.6
7,2021/7/25 17:54:15.7,-374.73519492721556,840.0066016230583,175.984998691082,-26313.44075962901,-37554.563640505075,-68614.44325760007,1,0,0,1627203254.7
8,2021/7/25 17:54:15.8,-364.09680507278443,843.4103983769417,173.240001308918,-33149.37174037099,-39946.373859494925,-80688.99424239993,1,0,0,1627203254.8
9,2021/7/25 17:54:15.9,-353.4583898544312,846.8142032461166,170.494997382164,-39985.31901925802,-42338.18978101015,-92763.57401520014,1,0,0,1627203254.9
10,2021/7/25 17:54:16.0,-342.82,850.218,167.75,-46821.25,-44730.0,-104838.125,1,0,0,1627203255.0
11,2021/7/25 17:54:16.1,-353.6169897031784,850.1631000523566,163.91920365333556,-45002.12673485279,-43115.18904000521,-95226.69666618109,1,0,0,1627203255.1
12,2021/7/25 17:54:16.2,-364.4140051484108,850.1081999738216,160.08839817333222,-43182.999132573605,-41500.3742299974,-85615.24541690946,1,0,0,1627203255.2
13,2021/7/25 17:54:16.3,-375.2109948515892,850.0533000261784,156.25760182666778,-41363.875867426395,-39885.5632700026,-76003.81708309054,1,0,0,1627203255.3
14,2021/7/25 17:54:16.4,-386.00801029682157,849.9983999476433,152.42679634666445,-39544.74826514721,-38270.74845999479,-66392.36583381891,1,0,0,1627203255.4
15,2021/7/25 17:54:16.5,-396.805,849.9435,148.596,-37725.625,-36655.9375,-56780.9375,1,0,0,1627203255.5
16,2021/7/25 17:54:16.6,-407.60198970317845,849.8886000523567,144.76520365333556,-35906.50173485279,-35041.12654000521,-47169.50916618109,1,0,0,1627203255.6
17,2021/7/25 17:54:16.7,-418.3990051484108,849.8336999738216,140.93439817333223,-34087.374132573605,-33426.3117299974,-37558.057916909456,1,0,0,1627203255.7
18,2021/7/25 17:54:16.8,-429.1959948515892,849.7788000261784,137.10360182666778,-32268.250867426395,-31811.500770002604,-27946.629583090544,1,0,0,1627203255.8
19,2021/7/25 17:54:16.9,-439.9930102968216,849.7238999476433,133.27279634666445,-30449.12326514721,-30196.685959994793,-18335.178333818913,1,0,0,1627203255.9
20,2021/7/25 17:54:17.0,-450.79,849.669,129.442,-28630.0,-28581.875,-8723.75,1,0,0,1627203256.0
21,2021/7/25 17:54:17.1,-456.2433947992325,849.7299999418259,128.62460077953338,-25268.6907055974,-26915.87658882141,-8009.313181340694,1,0,0,1627203256.1
22,2021/7/25 17:54:17.2,-461.69680260038376,849.7910000290871,127.80719961023331,-21907.3733972013,-25249.874205589294,-7294.874659329653,1,0,0,1627203256.2
23,2021/7/25 17:54:17.3,-467.1501973996163,849.851999970913,126.9898003897667,-18546.0641027987,-23583.875794410706,-6580.437840670347,1,0,0,1627203256.3
24,2021/7/25 17:54:17.4,-472.60360520076756,849.9130000581741,126.17239922046662,-15184.7467944026,-21917.87341117859,-5865.999318659306,1,0,0,1627203256.4
25,2021/7/25 17:54:17.5,-478.057,849.9739999999999,125.355,-11823.4375,-20251.875,-5151.5625,1,0,0,1627203256.5
26,2021/7/25 17:54:17.6,-483.5103947992325,850.0349999418258,124.53760077953339,-8462.1282055974,-18585.87658882141,-4437.125681340694,1,0,0,1627203256.6
27,2021/7/25 17:54:17.7,-488.96380260038376,850.096000029087,123.72019961023331,-5100.8108972013,-16919.874205589294,-3722.687159329653,1,0,0,1627203256.7
28,2021/7/25 17:54:17.8,-494.41719739961627,850.1569999709129,122.9028003897667,-1739.5016027987003,-15253.875794410706,-3008.250340670347,1,0,0,1627203256.8
29,2021/7/25 17:54:17.9,-499.8706052007675,850.2180000581741,122.08539922046661,1621.8157055974007,-13587.873411178589,-2293.8118186593056,1,0,0,1627203256.9
30,2021/7/25 17:54:18.0,-505.324,850.279,121.268,4983.125,-11921.875,-1579.375,1,0,0,1627203257.0
31,2021/7/25 17:54:18.1,-505.4520998778343,849.9862002792358,121.93899936008454,6351.623694896698,-10430.876421928406,-1687.8748965263367,1,0,0,1627203257.1
32,2021/7/25 17:54:18.2,-505.58020006108285,849.6933998603821,122.61000031995773,7720.125652551651,-8939.874289035797,-1796.3750517368317,1,0,0,1627203257.2
33,2021/7/25 17:54:18.3,-505.70829993891715,849.400600139618,123.28099968004227,9088.624347448349,-7448.875710964203,-1904.8749482631683,1,0,0,1627203257.3
34,2021/7/25 17:54:18.4,-505.8364001221657,849.1077997207642,123.95200063991547,10457.126305103302,-5957.873578071594,-2013.3751034736633,1,0,0,1627203257.4
35,2021/7/25 17:54:18.5,-505.96450000000004,848.815,124.62299999999999,11825.625,-4466.875,-2121.875,1,0,0,1627203257.5
36,2021/7/25 17:54:18.6,-506.09259987783435,848.5222002792358,125.29399936008453,13194.123694896698,-2975.8764219284058,-2230.3748965263367,1,0,0,1627203257.6
37,2021/7/25 17:54:18.7,-506.2207000610829,848.229399860382,125.96500031995772,14562.625652551651,-1484.8742890357971,-2338.8750517368317,1,0,0,1627203257.7
38,2021/7/25 17:54:18.8,-506.3487999389172,847.9366001396179,126.63599968004226,15931.124347448349,6.124289035797119,-2447.3749482631683,1,0,0,1627203257.8
39,2021/7/25 17:54:18.9,-506.4769001221657,847.6437997207642,127.30700063991546,17299.626305103302,1497.1264219284058,-2555.8751034736633,1,0,0,1627203257.9
40,2021/7/25 17:54:19.0,-506.605,847.351,127.978,18668.125,2988.125,-2664.375,1,0,0,1627203258.0
41,2021/7/25 17:54:19.1,-503.14630329847336,843.8069033799171,135.35289296674728,20466.24828517437,6151.684482991695,2937.8071573376656,1,0,0,1627203258.1
42,2021/7/25 17:54:19.2,-499.6875983507633,840.2627983100414,142.72780351662635,22264.375857412815,9315.251508504152,8540.002671331167,1,0,0,1627203258.2
43,2021/7/25 17:54:19.3,-496.22890164923666,836.7187016899586,150.10269648337365,24062.499142587185,12478.810991495848,14142.184828668833,1,0,0,1627203258.3
44,2021/7/25 17:54:19.4,-492.77019670152663,833.1745966200829,157.47760703325272,25860.62671482563,15642.378017008305,19744.380342662334,1,0,0,1627203258.4
45,2021/7/25 17:54:19.5,-489.3115,829.6305,164.8525,27658.75,18805.9375,25346.5625,1,0,0,1627203258.5
46,2021/7/25 17:54:19.6,-485.85280329847336,826.0864033799171,172.2273929667473,29456.87328517437,21969.496982991695,30948.744657337666,1,0,0,1627203258.6
47,2021/7/25 17:54:19.7,-482.39409835076333,822.5422983100414,179.60230351662636,31255.000857412815,25133.064008504152,36550.94017133117,1,0,0,1627203258.7
48,2021/7/25 17:54:19.8,-478.93540164923667,818.9982016899586,186.97719648337363,33053.124142587185,28296.623491495848,42153.12232866883,1,0,0,1627203258.8
49,2021/7/25 17:54:19.9,-475.47669670152663,815.4540966200829,194.3521070332527,34851.25171482563,31460.190517008305,47755.317842662334,1,0,0,1627203258.9
50,2021/7/25 17:54:20.0,-472.018,811.91,201.727,36649.375,34623.75,53357.5,1,0,0,1627203259.0
51,2021/7/25 17:54:20.1,-478.9170934205055,813.990098016262,194.230107149601,34141.189891994,29698.817196786404,48295.62982738018,1,0,0,1627203259.1
52,2021/7/25 17:54:20.2,-485.8162032897472,816.070200991869,186.7331964251995,31632.998804003,24773.872651606798,43233.74758630991,1,0,0,1627203259.2
53,2021/7/25 17:54:20.3,-492.71529671025274,818.150299008131,179.2363035748005,29124.813695997,19848.939848393202,38171.87741369009,1,0,0,1627203259.3
54,2021/7/25 17:54:20.4,-499.61440657949447,820.2304019837379,171.739392850399,26616.622608006,14923.995303213596,33109.99517261982,1,0,0,1627203259.4
55,2021/7/25 17:54:20.5,-506.5135,822.3105,164.2425,24108.4375,9999.0625,28048.125,1,0,0,1627203259.5
56,2021/7/25 17:54:20.6,-513.4125934205056,824.3905980162621,156.74560714960097,21600.252391994,5074.129696786404,22986.25482738018,1,0,0,1627203259.6
57,2021/7/25 17:54:20.7,-520.3117032897472,826.470700991869,149.2486964251995,19092.061304003,149.18515160679817,17924.37258630991,1,0,0,1627203259.7
58,2021/7/25 17:54:20.8,-527.2107967102528,828.550799008131,141.75180357480048,16583.876195997,-4775.747651606798,12862.50241369009,1,0,0,1627203259.8
59,2021/7/25 17:54:20.9,-534.1099065794945,830.630901983738,134.25489285039902,14075.685108006,-9700.692196786404,7800.62017261982,1,0,0,1627203259.9
60,2021/7/25 17:54:21.0,-541.009,832.711,126.758,11567.5,-14625.625,2738.75,1,0,0,1627203260.0
61,2021/7/25 17:54:21.1,-542.7108983769417,829.4963030657768,124.29970234441757,12943.873687386513,-13890.188201367855,3876.6864147782326,1,0,0,1627203260.1
62,2021/7/25 17:54:21.2,-544.4128008115292,826.2815984671116,121.84139882779121,14320.250656306744,-13154.749649316072,5014.625542610884,1,0,0,1627203260.2
63,2021/7/25 17:54:21.3,-546.1146991884708,823.0669015328884,119.38310117220878,15696.624343693256,-12419.312850683928,6152.561957389116,1,0,0,1627203260.3
64,2021/7/25 17:54:21.4,-547.8166016230583,819.8521969342231,116.92479765558242,17073.001312613487,-11683.874298632145,7290.501085221767,1,0,0,1627203260.4
65,2021/7/25 17:54:21.5,-549.5185,816.6375,114.4665,18449.375,-10948.4375,8428.4375,1,0,0,1627203260.5
66,2021/7/25 17:54:21.6,-551.2203983769417,813.4228030657769,112.00820234441757,19825.748687386513,-10213.000701367855,9566.373914778233,1,0,0,1627203260.6
67,2021/7/25 17:54:21.7,-552.9223008115292,810.2080984671115,109.54989882779121,21202.125656306744,-9477.562149316072,10704.313042610884,1,0,0,1627203260.7
68,2021/7/25 17:54:21.8,-554.6241991884708,806.9934015328884,107.09160117220878,22578.499343693256,-8742.125350683928,11842.249457389116,1,0,0,1627203260.8
69,2021/7/25 17:54:21.9,-556.3261016230583,803.7786969342231,104.63329765558242,23954.876312613487,-8006.686798632145,12980.188585221767,1,0,0,1627203260.9
70,2021/7/25 17:54:22.0,-558.028,800.564,102.175,25331.25,-7271.25,14118.125,1,0,0,1627203261.0
71,2021/7/25 17:54:22.1,-557.5949004130364,802.5098981442451,104.28559798717498,24946.68786674738,-5894.876312613487,10500.003450512886,1,0,0,1627203261.1
72,2021/7/25 17:54:22.2,-557.1617997934818,804.4558009278774,106.39620100641251,24562.12481662631,-4518.499343693256,6881.873274743557,1,0,0,1627203261.2
73,2021/7/25 17:54:22.3,-556.7287002065182,806.4016990721226,108.5067989935875,24177.56268337369,-3142.1256563067436,3263.751725256443,1,0,0,1627203261.3
74,2021/7/25 17:54:22.4,-556.2955995869637,808.3476018557549,110.61740201282501,23792.99963325262,-1765.7486873865128,-354.37845051288605,1,0,0,1627203261.4
75,2021/7/25 17:54:22.5,-555.8625,810.2935,112.72800000000001,23408.4375,-389.375,-3972.5,1,0,0,1627203261.5
76,2021/7/25 17:54:22.6,-555.4294004130363,812.2393981442451,114.83859798717499,23023.87536674738,986.9986873865128,-7590.621549487114,1,0,0,1627203261.6
77,2021/7/25 17:54:22.7,-554.9962997934819,814.1853009278774,116.94920100641251,22639.31231662631,2363.3756563067436,-11208.751725256443,1,0,0,1627203261.7
78,2021/7/25 17:54:22.8,-554.5632002065182,816.1311990721226,119.05979899358749,22254.75018337369,3739.7493436932564,-14826.873274743557,1,0,0,1627203261.8
79,2021/7/25 17:54:22.9,-554.1300995869636,818.0771018557549,121.17040201282502,21870.18713325262,5116.126312613487,-18445.003450512886,1,0,0,1627203261.9
80,2021/7/25 17:54:23.0,-553.697,820.023,123.281,21485.625,6492.5,-22063.125,1,0,0,1627203262.0
81,2021/7/25 17:54:23.1,-552.8735007853508,822.0420980744362,122.89060037231445,20597.063347399235,5127.938801348209,-18926.25299155712,1,0,0,1627203262.1
82,2021/7/25 17:54:23.2,-552.0499996073246,824.061200962782,122.50019981384278,19708.499576300383,3763.3743493258953,-15789.37350422144,1,0,0,1627203262.2
83,2021/7/25 17:54:23.3,-551.2265003926753,826.0802990372181,122.10980018615723,18819.937923699617,2398.8131506741047,-12652.50149577856,1,0,0,1627203262.3
84,2021/7/25 17:54:23.4,-550.4029992146492,828.0994019255638,121.71939962768555,17931.374152600765,1034.2486986517906,-9515.622008442879,1,0,0,1627203262.4
85,2021/7/25 17:54:23.5,-549.5795,830.1185,121.32900000000001,17042.8125,-330.3125,-6378.75,1,0,0,1627203262.5
86,2021/7/25 17:54:23.6,-548.7560007853508,832.1375980744363,120.93860037231445,16154.250847399235,-1694.8736986517906,-3241.8779915571213,1,0,0,1627203262.6
87,2021/7/25 17:54:23.7,-547.9324996073246,834.156700962782,120.54819981384277,15265.687076300383,-3059.4381506741047,-104.99850422143936,1,0,0,1627203262.7
88,2021/7/25 17:54:23.8,-547.1090003926754,836.1757990372181,120.15780018615722,14377.125423699617,-4423.999349325895,3031.8735042214394,1,0,0,1627203262.8
89,2021/7/25 17:54:23.9,-546.2854992146492,838.1949019255638,119.76739962768555,13488.561652600765,-5788.563801348209,6168.752991557121,1,0,0,1627203262.9
90,2021/7/25 17:54:24.0,-545.462,840.214,119.377,12600.0,-7153.125,9305.625,1,0,0,1627203263.0
91,2021/7/25 17:54:24.1,-545.8340996451378,839.1587010064126,124.26309534025192,13609.749037027359,-10275.559522211552,4735.941857993603,1,0,0,1627203263.1
92,2021/7/25 17:54:24.2,-546.2062001774311,838.1033994967938,129.14920232987404,14619.50048148632,-13398.001488894224,166.24782100319862,1,0,0,1627203263.2
93,2021/7/25 17:54:24.3,-546.5782998225689,837.0481005032062,134.03529767012597,15629.24951851368,-16520.436011105776,-4403.435321003199,1,0,0,1627203263.3
94,2021/7/25 17:54:24.4,-546.9504003548622,835.9927989935875,138.92140465974808,16639.00096297264,-19642.87797778845,-8973.129357993603,1,0,0,1627203263.4
95,2021/7/25 17:54:24.5,-547.3225,834.9375,143.8075,17648.75,-22765.3125,-13542.8125,1,0,0,1627203263.5
96,2021/7/25 17:54:24.6,-547.6945996451378,833.8822010064125,148.69359534025193,18658.49903702736,-25887.74702221155,-18112.495642006397,1,0,0,1627203263.6
97,2021/7/25 17:54:24.7,-548.0667001774311,832.8268994967938,153.57970232987404,19668.25048148632,-29010.188988894224,-22682.1896789968,1,0,0,1627203263.7
98,2021/7/25 17:54:24.8,-548.4387998225689,831.7716005032062,158.46579767012597,20677.99951851368,-32132.623511105776,-27251.8728210032,1,0,0,1627203263.8
99,2021/7/25 17:54:24.9,-548.8109003548622,830.7162989935874,163.35190465974807,21687.75096297264,-35255.06547778845,-31821.566857993603,1,0,0,1627203263.9
100,2021/7/25 17:54:25.0,-549.183,829.661,168.238,22697.5,-38377.5,-36391.25,1,0,0,1627203264.0
101,2021/7/25 17:54:25.1,-547.5848015241623,825.9644035253524,160.19820766735077,22714.124984145164,-47221.99156522751,-25378.510502576828,1,0,0,1627203264.1
102,2021/7/25 17:54:25.2,-545.9865992379189,822.2677982373237,152.15839616632462,22730.750007927418,-56066.504217386246,-14365.744748711586,1,0,0,1627203264.2
103,2021/7/25 17:54:25.3,-544.3884007620811,818.5712017626762,144.1186038336754,22747.374992072582,-64910.995782613754,-3353.005251288414,1,0,0,1627203264.3
104,2021/7/25 17:54:25.4,-542.7901984758377,814.8745964746475,136.07879233264924,22764.000015854836,-73755.50843477249,7659.760502576828,1,0,0,1627203264.4
105,2021/7/25 17:54:25.5,-541.192,811.178,128.039,22780.625,-82600.0,18672.5,1,0,0,1627203264.5
106,2021/7/25 17:54:25.6,-539.5938015241622,807.4814035253524,119.99920766735077,22797.249984145164,-91444.49156522751,29685.239497423172,1,0,0,1627203264.6
107,2021/7/25 17:54:25.7,-537.9955992379189,803.7847982373238,111.95939616632461,22813.875007927418,-100289.00421738625,40698.005251288414,1,0,0,1627203264.7
108,2021/7/25 17:54:25.8,-536.3974007620811,800.0882017626762,103.91960383367538,22830.499992072582,-109133.49578261375,51710.744748711586,1,0,0,1627203264.8
109,2021/7/25 17:54:25.9,-534.7991984758378,796.3915964746476,95.87979233264923,22847.125015854836,-117978.00843477249,62723.51050257683,1,0,0,1627203264.9
110,2021/7/25 17:54:26.0,-533.201,792.695,87.84,22863.75,-126822.5,73736.25,1,0,0,1627203265.0
111,2021/7/25 17:54:26.1,-514.8644174871445,791.426201210022,111.35547757387161,21491.313808858395,-114605.32415121794,64922.383405566216,1,0,0,1627203265.1
112,2021/7/25 17:54:26.2,-496.5277912564278,790.157399394989,134.8710112130642,20118.874345570803,-102388.11917439103,56108.49579721689,1,0,0,1627203265.2
113,2021/7/25 17:54:26.3,-478.19120874357225,788.888600605011,158.38648878693581,18746.438154429197,-90170.94332560897,47294.62920278311,1,0,0,1627203265.3
114,2021/7/25 17:54:26.4,-459.85458251285553,787.6197987899781,181.90202242612838,17373.998691141605,-77953.73834878206,38480.741594433784,1,0,0,1627203265.4
115,2021/7/25 17:54:26.5,-441.51800000000003,786.351,205.41750000000002,16001.5625,-65736.5625,29666.875,1,0,0,1627203265.5
116,2021/7/25 17:54:26.6,-423.1814174871445,785.0822012100219,228.93297757387163,14629.126308858395,-53519.38665121794,20853.008405566216,1,0,0,1627203265.6
117,2021/7/25 17:54:26.7,-404.84479125642775,783.813399394989,252.4485112130642,13256.686845570803,-41302.18167439103,12039.120797216892,1,0,0,1627203265.7
118,2021/7/25 17:54:26.8,-386.50820874357225,782.5446006050109,275.96398878693583,11884.250654429197,-29085.00582560897,3225.2542027831078,1,0,0,1627203265.8
119,2021/7/25 17:54:26.9,-368.1715825128555,781.275798789978,299.47952242612837,10511.811191141605,-16867.800848782063,-5588.6334055662155,1,0,0,1627203265.9
120,2021/7/25 17:54:27.0,-349.835,780.007,322.995,9139.375,-4650.625,-14402.5,1,0,0,1627203266.0
121,2021/7/25 17:54:27.1,-335.5000136709213,783.5205966491699,333.5235899591446,9212.43743032217,-6575.185664594173,-13044.063795506954,1,0,0,1627203266.1
122,2021/7/25 17:54:27.2,-321.16499316453934,787.034201675415,344.0522050204277,9285.500034838915,-8499.750917702913,-11685.624352246523,1,0,0,1627203266.2
123,2021/7/25 17:54:27.3,-306.83000683546067,790.547798324585,354.5807949795723,9358.562465161085,-10424.311582297087,-10327.188147753477,1,0,0,1627203266.3
124,2021/7/25 17:54:27.4,-292.49498632907864,794.06140335083,365.10941004085544,9431.62506967783,-12348.876835405827,-8968.748704493046,1,0,0,1627203266.4
125,2021/7/25 17:54:27.5,-278.15999999999997,797.575,375.63800000000003,9504.6875,-14273.4375,-7610.3125,1,0,0,1627203266.5
126,2021/7/25 17:54:27.6,-263.8250136709213,801.08859664917,386.1665899591446,9577.74993032217,-16197.998164594173,-6251.876295506954,1,0,0,1627203266.6
127,2021/7/25 17:54:27.7,-249.48999316453933,804.602201675415,396.6952050204277,9650.812534838915,-18122.563417702913,-4893.436852246523,1,0,0,1627203266.7
128,2021/7/25 17:54:27.8,-235.15500683546065,808.115798324585,407.2237949795723,9723.874965161085,-20047.124082297087,-3535.000647753477,1,0,0,1627203266.8
129,2021/7/25 17:54:27.9,-220.8199863290787,811.6294033508301,417.7524100408554,9796.93756967783,-21971.689335405827,-2176.561204493046,1,0,0,1627203266.9
130,2021/7/25 17:54:28.0,-206.485,815.143,428.281,9870.0,-23896.25,-818.125,1,0,0,1627203267.0
131,2021/7/25 17:54:28.1,-199.61030655622483,818.7724965386391,432.0690963873863,9801.312565505505,-22549.18878465891,-1173.8121607899666,1,0,0,1627203267.1
132,2021/7/25 17:54:28.2,-192.7355967218876,822.4020017306805,435.8572018063068,9732.624967247248,-21202.124357670546,-1529.5001696050167,1,0,0,1627203267.2
133,2021/7/25 17:54:28.3,-185.86090327811243,826.0314982693195,439.6452981936932,9663.937532752752,-19855.063142329454,-1885.1873303949833,1,0,0,1627203267.3
134,2021/7/25 17:54:28.4,-178.9861934437752,829.6610034613609,443.4334036126137,9595.249934494495,-18507.99871534109,-2240.8753392100334,1,0,0,1627203267.4
135,2021/7/25 17:54:28.5,-172.1115,833.2905000000001,447.2215,9526.5625,-17160.9375,-2596.5625,1,0,0,1627203267.5
136,2021/7/25 17:54:28.6,-165.23680655622482,836.9199965386391,451.0095963873863,9457.875065505505,-15813.876284658909,-2952.2496607899666,1,0,0,1627203267.6
137,2021/7/25 17:54:28.7,-158.36209672188758,840.5495017306805,454.7977018063068,9389.187467247248,-14466.811857670546,-3307.9376696050167,1,0,0,1627203267.7
138,2021/7/25 17:54:28.8,-151.48740327811242,844.1789982693195,458.58579819369317,9320.500032752752,-13119.750642329454,-3663.6248303949833,1,0,0,1627203267.8
139,2021/7/25 17:54:28.9,-144.61269344377519,847.8085034613609,462.3739036126137,9251.812434494495,-11772.686215341091,-4019.3128392100334,1,0,0,1627203267.9
140,2021/7/25 17:54:29.0,-137.738,851.438,466.162,9183.125,-10425.625,-4375.0,1,0,0,1627203268.0
141,2021/7/25 17:54:29.1,-138.55539922046663,852.3285991506576,467.3880988306999,8496.688154637814,-10877.562068998814,-3140.8136770129204,1,0,0,1627203268.1
142,2021/7/25 17:54:29.2,-139.3728003897667,853.2192004246712,468.61420058465,7810.249672681093,-11329.500215500593,-1906.6244114935398,1,0,0,1627203268.2
143,2021/7/25 17:54:29.3,-140.19019961023332,854.1097995753288,469.84029941534993,7123.812827318907,-11781.437284499407,-672.4380885064602,1,0,0,1627203268.3
144,2021/7/25 17:54:29.4,-141.0076007795334,855.0004008493423,471.0664011693001,6437.374345362186,-12233.375431001186,561.7511770129204,1,0,0,1627203268.4
145,2021/7/25 17:54:29.5,-141.825,855.8910000000001,472.2925,5750.9375,-12685.3125,1795.9375,1,0,0,1627203268.5
146,2021/7/25 17:54:29.6,-142.64239922046661,856.7815991506577,473.5185988306999,5064.500654637814,-13137.249568998814,3030.1238229870796,1,0,0,1627203268.6
147,2021/7/25 17:54:29.7,-143.45980038976668,857.6722004246712,474.74470058465005,4378.062172681093,-13589.187715500593,4264.31308850646,1,0,0,1627203268.7
148,2021/7/25 17:54:29.8,-144.2771996102333,858.5627995753289,475.97079941535,3691.625327318907,-14041.124784499407,5498.49941149354,1,0,0,1627203268.8
149,2021/7/25 17:54:29.9,-145.09460077953338,859.4534008493424,477.1969011693001,3005.1868453621864,-14493.062931001186,6732.68867701292,1,0,0,1627203268.9
150,2021/7/25 17:54:30.0,-145.912,860.344,478.423,2318.75,-14945.0,7966.875,1,0,0,1627203269.0
151,2021/7/25 17:54:30.1,-142.81930294942856,860.7648995985985,481.1740973763466,2309.1250091791153,-14941.937502920628,6719.126189947128,1,0,0,1627203269.1
152,2021/7/25 17:54:30.2,-139.72659852528574,861.1858002007008,483.9252013118267,2299.4999954104424,-14938.874998539686,5471.374405026436,1,0,0,1627203269.2
153,2021/7/25 17:54:30.3,-136.6339014747143,861.6066997992992,486.6762986881733,2289.8750045895576,-14935.812501460314,4223.625594973564,1,0,0,1627203269.3
154,2021/7/25 17:54:30.4,-133.54119705057144,862.0276004014015,489.42740262365345,2280.2499908208847,-14932.749997079372,2975.8738100528717,1,0,0,1627203269.4
155,2021/7/25 17:54:30.5,-130.4485,862.4485,492.1785,2270.625,-14929.6875,1728.125,1,0,0,1627203269.5
156,2021/7/25 17:54:30.6,-127.35580294942856,862.8693995985985,494.9295973763466,2261.0000091791153,-14926.625002920628,480.3761899471283,1,0,0,1627203269.6
157,2021/7/25 17:54:30.7,-124.26309852528573,863.2903002007008,497.68070131182674,2251.3749954104424,-14923.562498539686,-767.3755949735641,1,0,0,1627203269.7
158,2021/7/25 17:54:30.8,-121.17040147471428,863.7111997992993,500.43179868817333,2241.7500045895576,-14920.500001460314,-2015.1244050264359,1,0,0,1627203269.8
159,2021/7/25 17:54:30.9,-118.07769705057144,864.1321004014015,503.18290262365343,2232.1249908208847,-14917.437497079372,-3262.8761899471283,1,0,0,1627203269.9
160,2021/7/25 17:54:31.0,-114.985,864.553,505.934,2222.5,-14914.375,-4510.625,1,0,0,1627203270.0
161,2021/7/25 17:54:31.1,-117.14439794063568,862.7718016986847,505.6656002559662,2851.6244000196457,-15573.249371647835,-4211.812784969807,1,0,0,1627203270.1
162,2021/7/25 17:54:31.2,-119.30380102968216,860.9905991506577,505.3971998720169,3480.750299990177,-16232.125314176083,-3912.9998575150967,1,0,0,1627203270.2
163,2021/7/25 17:54:31.3,-121.46319897031785,859.2094008493424,505.1288001279831,4109.874700009823,-16890.999685823917,-3614.1876424849033,1,0,0,1627203270.3
164,2021/7/25 17:54:31.4,-123.62260205936433,857.4281983013153,504.8603997440338,4739.000599980354,-17549.875628352165,-3315.3747150301933,1,0,0,1627203270.4
165,2021/7/25 17:54:31.5,-125.78200000000001,855.6469999999999,504.592,5368.125,-18208.75,-3016.5625,1,0,0,1627203270.5
166,2021/7/25 17:54:31.6,-127.94139794063568,853.8658016986847,504.3236002559662,5997.249400019646,-18867.624371647835,-2717.7502849698067,1,0,0,1627203270.6
167,2021/7/25 17:54:31.7,-130.10080102968217,852.0845991506576,504.05519987201694,6626.375299990177,-19526.500314176083,-2418.9373575150967,1,0,0,1627203270.7
168,2021/7/25 17:54:31.8,-132.26019897031784,850.3034008493423,503.7868001279831,7255.499700009823,-20185.374685823917,-2120.1251424849033,1,0,0,1627203270.8
169,2021/7/25 17:54:31.9,-134.41960205936434,848.5221983013153,503.51839974403384,7884.625599980354,-20844.250628352165,-1821.3122150301933,1,0,0,1627203270.9
170,2021/7/25 17:54:32.0,-136.579,846.741,503.25,8513.75,-21503.125,-1522.5,1,0,0,1627203271.0
171,2021/7/25 17:54:32.1,-130.96090535783767,848.0768987259864,501.1821019721031,8235.500265359879,-20751.500716805458,-2509.061559140682,1,0,0,1627203271.1
172,2021/7/25 17:54:32.2,-125.34279732108116,849.4128006370067,499.11419901394845,7957.249867320061,-19999.87464159727,-3495.625470429659,1,0,0,1627203271.2
173,2021/7/25 17:54:32.3,-119.72470267891885,850.7486993629932,497.04630098605156,7679.000132679939,-19248.25035840273,-4482.187029570341,1,0,0,1627203271.3
174,2021/7/25 17:54:32.4,-114.10659464216232,852.0846012740135,494.9783980278969,7400.7497346401215,-18496.624283194542,-5468.750940859318,1,0,0,1627203271.4
175,2021/7/25 17:54:32.5,-108.4885,853.4205,492.9105,7122.5,-17745.0,-6455.3125,1,0,0,1627203271.5
176,2021/7/25 17:54:32.6,-102.87040535783768,854.7563987259865,490.8426019721031,6844.2502653598785,-16993.375716805458,-7441.874059140682,1,0,0,1627203271.6
177,2021/7/25 17:54:32.7,-97.25229732108116,856.0923006370068,488.77469901394846,6565.999867320061,-16241.749641597271,-8428.437970429659,1,0,0,1627203271.7
178,2021/7/25 17:54:32.8,-91.63420267891884,857.4281993629933,486.7068009860516,6287.750132679939,-15490.125358402729,-9414.999529570341,1,0,0,1627203271.8
179,2021/7/25 17:54:32.9,-86.01609464216233,858.7641012740136,484.6388980278969,6009.4997346401215,-14738.499283194542,-10401.563440859318,1,0,0,1627203271.9
180,2021/7/25 17:54:33.0,-80.398,860.1,482.571,5731.25,-13986.875,-11388.125,1,0,0,1627203272.0
181,2021/7/25 17:54:33.1,-79.25730108785629,858.1541018557549,485.2000974926949,5540.937681496143,-13596.625372171402,-10466.313379108906,1,0,0,1627203272.1
182,2021/7/25 17:54:33.2,-78.11659945607185,856.2081990721226,487.8292012536526,5350.624909251928,-13206.374813914299,-9544.499560445547,1,0,0,1627203272.2
183,2021/7/25 17:54:33.3,-76.97590054392815,854.2623009278774,490.45829874634745,5160.312590748072,-12816.125186085701,-8622.687939554453,1,0,0,1627203272.3
184,2021/7/25 17:54:33.4,-75.83519891214371,852.3163981442451,493.08740250730517,4969.999818503857,-12425.874627828598,-7700.874120891094,1,0,0,1627203272.4
185,2021/7/25 17:54:33.5,-74.6945,850.3705,495.7165,4779.6875,-12035.625,-6779.0625,1,0,0,1627203272.5
186,2021/7/25 17:54:33.6,-73.55380108785629,848.4246018557549,498.3455974926949,4589.375181496143,-11645.375372171402,-5857.250879108906,1,0,0,1627203272.6
187,2021/7/25 17:54:33.7,-72.41309945607185,846.4786990721226,500.9747012536526,4399.062409251928,-11255.124813914299,-4935.437060445547,1,0,0,1627203272.7
188,2021/7/25 17:54:33.8,-71.27240054392814,844.5328009278774,503.6037987463475,4208.750090748072,-10864.875186085701,-4013.625439554453,1,0,0,1627203272.8
189,2021/7/25 17:54:33.9,-70.1316989121437,842.5868981442451,506.2329025073052,4018.4373185038567,-10474.624627828598,-3091.811620891094,1,0,0,1627203272.9
190,2021/7/25 17:54:34.0,-68.991,840.641,508.862,3828.125,-10084.375,-2170.0,1,0,0,1627203273.0
191,2021/7/25 17:54:34.1,-70.74779832458496,840.0554005584717,508.6424002094269,2875.2509087324142,-12451.68524235487,-2943.4992623329163,1,0,0,1627203273.1
192,2021/7/25 17:54:34.2,-72.50460083770751,839.4697997207642,508.4227998952866,1922.3745456337929,-14819.001128822565,-3717.000368833542,1,0,0,1627203273.2
193,2021/7/25 17:54:34.3,-74.26139916229248,838.8842002792358,508.20320010471346,969.5004543662071,-17186.311371177435,-4490.499631166458,1,0,0,1627203273.3
194,2021/7/25 17:54:34.4,-76.01820167541504,838.2985994415283,507.9835997905731,16.624091267585754,-19553.62725764513,-5264.000737667084,1,0,0,1627203273.4
195,2021/7/25 17:54:34.5,-77.775,837.713,507.764,-936.25,-21920.9375,-6037.5,1,0,0,1627203273.5
196,2021/7/25 17:54:34.6,-79.53179832458495,837.1274005584717,507.5444002094269,-1889.1240912675858,-24288.24774235487,-6810.999262332916,1,0,0,1627203273.6
197,2021/7/25 17:54:34.7,-81.28860083770752,836.5417997207642,507.32479989528656,-2842.000454366207,-26655.563628822565,-7584.500368833542,1,0,0,1627203273.7
198,2021/7/25 17:54:34.8,-83.04539916229248,835.9562002792358,507.10520010471345,-3794.874545633793,-29022.873871177435,-8357.999631166458,1,0,0,1627203273.8
199,2021/7/25 17:54:34.9,-84.80220167541503,835.3705994415283,506.8855997905731,-4747.750908732414,-31390.18975764513,-9131.500737667084,1,0,0,1627203273.9
200,2021/7/25 17:54:35.0,-86.559,834.785,506.666,-5700.625,-33757.5,-9905.0,1,0,0,1627203274.0
201,2021/7/25 17:54:35.1,-87.76069885396957,833.9615007853507,508.77659798717497,-7473.373309373856,-32107.25157380104,-6031.816193759441,1,0,0,1627203274.1
202,2021/7/25 17:54:35.2,-88.96240057301522,833.1379996073246,510.8872010064125,-9246.125845313072,-30456.99921309948,-2158.6231531202793,1,0,0,1627203274.2
203,2021/7/25 17:54:35.3,-90.16409942698478,832.3145003926753,512.9977989935875,-11018.874154686928,-28806.75078690052,1714.5606531202793,1,0,0,1627203274.3
204,2021/7/25 17:54:35.4,-91.36580114603042,831.4909992146492,515.1084020128251,-12791.626690626144,-27156.49842619896,5587.753693759441,1,0,0,1627203274.4
205,2021/7/25 17:54:35.5,-92.5675,830.6675,517.219,-14564.375,-25506.25,9460.9375,1,0,0,1627203274.5
206,2021/7/25 17:54:35.6,-93.76919885396957,829.8440007853508,519.329597987175,-16337.123309373856,-23856.00157380104,13334.121306240559,1,0,0,1627203274.6
207,2021/7/25 17:54:35.7,-94.9709005730152,829.0204996073246,521.4402010064125,-18109.875845313072,-22205.74921309948,17207.31434687972,1,0,0,1627203274.7
208,2021/7/25 17:54:35.8,-96.17259942698479,828.1970003926754,523.5507989935875,-19882.624154686928,-20555.50078690052,21080.49815312028,1,0,0,1627203274.8
209,2021/7/25 17:54:35.9,-97.37430114603042,827.3734992146492,525.6614020128251,-21655.376690626144,-18905.24842619896,24953.69119375944,1,0,0,1627203274.9
210,2021/7/25 17:54:36.0,-98.576,826.55,527.772,-23428.125,-17255.0,28826.875,1,0,0,1627203275.0
211,2021/7/25 17:54:36.1,-95.01970339155197,831.2042955613135,516.718810541153,-20721.31508141756,-17751.12452685833,26384.314829409122,1,0,0,1627203275.1
212,2021/7/25 17:54:36.2,-91.46339830422401,835.8586022193431,505.66559472942356,-18014.49870929122,-18247.250236570835,23941.74883529544,1,0,0,1627203275.2
213,2021/7/25 17:54:36.3,-87.90710169577598,840.5128977806568,494.6124052705765,-15307.68879070878,-18743.374763429165,21499.18866470456,1,0,0,1627203275.3
214,2021/7/25 17:54:36.4,-84.35079660844802,845.1672044386863,483.5591894588471,-12600.87241858244,-19239.50047314167,19056.622670590878,1,0,0,1627203275.4
215,2021/7/25 17:54:36.5,-80.7945,849.8215,472.50600000000003,-9894.0625,-19735.625,16614.0625,1,0,0,1627203275.5
216,2021/7/25 17:54:36.6,-77.23820339155196,854.4757955613136,461.452810541153,-7187.252581417561,-20231.74952685833,14171.502329409122,1,0,0,1627203275.6
217,2021/7/25 17:54:36.7,-73.681898304224,859.1301022193431,450.39959472942354,-4480.43620929122,-20727.875236570835,11728.936335295439,1,0,0,1627203275.7
218,2021/7/25 17:54:36.8,-70.12560169577598,863.7843977806567,439.3464052705765,-1773.6262907087803,-21223.999763429165,9286.376164704561,1,0,0,1627203275.8
219,2021/7/25 17:54:36.9,-66.56929660844803,868.4387044386863,428.29318945884705,933.1900814175606,-21720.12547314167,6843.8101705908775,1,0,0,1627203275.9
220,2021/7/25 17:54:37.0,-63.013,873.093,417.24,3640.0,-22216.25,4401.25,1,0,0,1627203276.0
221,2021/7/25 17:54:37.1,-66.82549636411667,876.472396777153,413.61050346136096,3333.7502920627594,-21994.000211954117,4182.500208616257,1,0,0,1627203276.1
222,2021/7/25 17:54:37.2,-70.63800181794167,879.8518016114234,409.9809982693195,3027.4998539686203,-21771.74989402294,3963.7498956918716,1,0,0,1627203276.2
223,2021/7/25 17:54:37.3,-74.45049818205834,883.2311983885764,406.35150173068047,2721.2501460313797,-21549.50010597706,3745.0001043081284,1,0,0,1627203276.3
224,2021/7/25 17:54:37.4,-78.26300363588334,886.610603222847,402.7219965386391,2414.9997079372406,-21327.249788045883,3526.2497913837433,1,0,0,1627203276.4
225,2021/7/25 17:54:37.5,-82.0755,889.99,399.0925,2108.75,-21105.0,3307.5,1,0,0,1627203276.5
226,2021/7/25 17:54:37.6,-85.88799636411667,893.3693967771529,395.4630034613609,1802.5002920627594,-20882.750211954117,3088.7502086162567,1,0,0,1627203276.6
227,2021/7/25 17:54:37.7,-89.70050181794167,896.7488016114235,391.83349826931953,1496.2498539686203,-20660.49989402294,2869.9998956918716,1,0,0,1627203276.7
228,2021/7/25 17:54:37.8,-93.51299818205834,900.1281983885765,388.2040017306805,1190.0001460313797,-20438.25010597706,2651.2501043081284,1,0,0,1627203276.8
229,2021/7/25 17:54:37.9,-97.32550363588334,903.5076032228469,384.57449653863904,883.7497079372406,-20215.999788045883,2432.4997913837433,1,0,0,1627203276.9
230,2021/7/25 17:54:38.0,-101.138,906.887,380.945,577.5,-19993.75,2213.75,1,0,0,1627203277.0
231,2021/7/25 17:54:38.1,-97.52680344390869,904.8069019837379,386.434994764328,3144.3100520968437,-18232.3766797781,297.0643278956413,1,0,0,1627203277.1
232,2021/7/25 17:54:38.2,-93.91559827804566,902.726799008131,391.925002617836,5711.126223951578,-16470.99916011095,-1619.6259139478207,1,0,0,1627203277.2
233,2021/7/25 17:54:38.3,-90.30440172195435,900.6467009918689,397.414997382164,8277.936276048422,-14709.62583988905,-3536.3115860521793,1,0,0,1627203277.3
234,2021/7/25 17:54:38.4,-86.69319655609131,898.566598016262,402.905005235672,10844.752447903156,-12948.248320221901,-5453.001827895641,1,0,0,1627203277.4
235,2021/7/25 17:54:38.5,-83.082,896.4865,408.395,13411.5625,-11186.875,-7369.6875,1,0,0,1627203277.5
236,2021/7/25 17:54:38.6,-79.4708034439087,894.406401983738,413.884994764328,15978.372552096844,-9425.501679778099,-9286.373172104359,1,0,0,1627203277.6
237,2021/7/25 17:54:38.7,-75.85959827804565,892.3262990081311,419.375002617836,18545.188723951578,-7664.1241601109505,-11203.06341394782,1,0,0,1627203277.7
238,2021/7/25 17:54:38.8,-72.24840172195434,890.2462009918689,424.864997382164,21111.998776048422,-5902.7508398890495,-13119.74908605218,1,0,0,1627203277.8
239,2021/7/25 17:54:38.9,-68.63719655609131,888.166098016262,430.355005235672,23678.814947903156,-4141.373320221901,-15036.439327895641,1,0,0,1627203277.9
240,2021/7/25 17:54:39.0,-65.026,886.086,435.845,26245.625,-2380.0,-16953.125,1,0,0,1627203278.0
241,2021/7/25 17:54:39.1,-70.41839485740661,883.310502646923,442.6159935426712,24733.1889423728,-3474.6239560842514,-15470.438914000988,1,0,0,1627203278.1
242,2021/7/25 17:54:39.2,-75.81080257129669,880.5349986765385,449.3870032286644,23220.7492788136,-4569.250521957874,-13987.749292999506,1,0,0,1627203278.2
243,2021/7/25 17:54:39.3,-81.2031974287033,877.7595013234616,456.1579967713356,21708.3132211864,-5663.874478042126,-12505.063207000494,1,0,0,1627203278.3
244,2021/7/25 17:54:39.4,-86.59560514259339,874.9839973530769,462.9290064573288,20195.8735576272,-6758.501043915749,-11022.373585999012,1,0,0,1627203278.4
245,2021/7/25 17:54:39.5,-91.988,872.2085,469.70000000000005,18683.4375,-7853.125,-9539.6875,1,0,0,1627203278.5
246,2021/7/25 17:54:39.6,-97.38039485740661,869.4330026469231,476.47099354267124,17171.0014423728,-8947.748956084251,-8057.001414000988,1,0,0,1627203278.6
247,2021/7/25 17:54:39.7,-102.7728025712967,866.6574986765385,483.24200322866443,15658.5617788136,-10042.375521957874,-6574.311792999506,1,0,0,1627203278.7
248,2021/7/25 17:54:39.8,-108.16519742870331,863.8820013234615,490.0129967713356,14146.1257211864,-11136.999478042126,-5091.625707000494,1,0,0,1627203278.8
249,2021/7/25 17:54:39.9,-113.55760514259339,861.106497353077,496.7840064573288,12633.686057627201,-12231.626043915749,-3608.936085999012,1,0,0,1627203278.9
250,2021/7/25 17:54:40.0,-118.95,858.331,503.555,11121.25,-13326.25,-2126.25,1,0,0,1627203279.0
251,2021/7/25 17:54:40.1,-119.78569920301437,865.0531935892105,498.26020504951475,8416.19007974863,-14752.936139404774,-2729.561924636364,1,0,0,1627203279.1
252,2021/7/25 17:54:40.2,-120.62140039849281,871.7754032053948,492.96539747524264,5711.123710125685,-16179.625680297613,-3332.875287681818,1,0,0,1627203279.2
253,2021/7/25 17:54:40.3,-121.4570996015072,878.4975967946052,487.6706025247574,3006.0637898743153,-17606.311819702387,-3936.187212318182,1,0,0,1627203279.3
254,2021/7/25 17:54:40.4,-122.29280079698563,885.2198064107895,482.3757949504852,300.9974202513695,-19033.001360595226,-4539.500575363636,1,0,0,1627203279.4
255,2021/7/25 17:54:40.5,-123.1285,891.942,477.081,-2404.0625,-20459.6875,-5142.8125,1,0,0,1627203279.5
256,2021/7/25 17:54:40.6,-123.96419920301437,898.6641935892105,471.7862050495148,-5109.1224202513695,-21886.373639404774,-5746.124424636364,1,0,0,1627203279.6
257,2021/7/25 17:54:40.7,-124.79990039849281,905.3864032053948,466.49139747524265,-7814.188789874315,-23313.063180297613,-6349.437787681818,1,0,0,1627203279.7
258,2021/7/25 17:54:40.8,-125.6355996015072,912.1085967946052,461.1966025247574,-10519.248710125685,-24739.749319702387,-6952.749712318182,1,0,0,1627203279.8
259,2021/7/25 17:54:40.9,-126.47130079698563,918.8308064107895,455.9017949504853,-13224.31507974863,-26166.438860595226,-7556.063075363636,1,0,0,1627203279.9
260,2021/7/25 17:54:41.0,-127.307,925.553,450.607,-15929.375,-27593.125,-8159.375,1,0,0,1627203280.0
261,2021/7/25 17:54:41.1,-128.65509871435165,921.7649036126137,451.8513988132477,-14413.001446127892,-25563.126935958862,-5810.002240538597,1,0,0,1627203280.1
262,2021/7/25 17:54:41.2,-130.00320064282417,917.9767981936932,453.09580059337617,-12896.624276936054,-23533.12403202057,-3460.6238797307014,1,0,0,1627203280.2
263,2021/7/25 17:54:41.3,-131.35129935717583,914.1887018063069,454.34019940662387,-11380.250723063946,-21503.12596797943,-1111.2511202692986,1,0,0,1627203280.3
264,2021/7/25 17:54:41.4,-132.69940128564835,910.4005963873864,455.5846011867523,-9863.873553872108,-19473.123064041138,1238.127240538597,1,0,0,1627203280.4
265,2021/7/25 17:54:41.5,-134.0475,906.6125,456.829,-8347.5,-17443.125,3587.5,1,0,0,1627203280.5
266,2021/7/25 17:54:41.6,-135.39559871435165,902.8244036126137,458.0733988132477,-6831.1264461278915,-15413.126935958862,5936.872759461403,1,0,0,1627203280.6
267,2021/7/25 17:54:41.7,-136.7437006428242,899.0362981936931,459.31780059337615,-5314.749276936054,-13383.124032020569,8286.251120269299,1,0,0,1627203280.7
268,2021/7/25 17:54:41.8,-138.09179935717583,895.2482018063068,460.56219940662385,-3798.3757230639458,-11353.125967979431,10635.623879730701,1,0,0,1627203280.8
269,2021/7/25 17:54:41.9,-139.43990128564835,891.4600963873863,461.8066011867523,-2281.9985538721085,-9323.123064041138,12985.002240538597,1,0,0,1627203280.9
270,2021/7/25 17:54:42.0,-140.788,887.672,463.051,-765.625,-7293.125,15334.375,1,0,0,1627203281.0
271,2021/7/25 17:54:42.1,-134.70630579996111,891.3075965328217,460.867202082634,730.6235730648041,-6898.937875926495,13021.314705908298,1,0,0,1627203281.1
272,2021/7/25 17:54:42.2,-128.62459710001946,894.9432017335891,458.68339895868303,2226.875713467598,-6504.749812036753,10708.24889704585,1,0,0,1627203281.2
273,2021/7/25 17:54:42.3,-122.54290289998056,898.5787982664109,456.49960104131696,3723.124286532402,-6110.562687963247,8395.18860295415,1,0,0,1627203281.3
274,2021/7/25 17:54:42.4,-116.46119420003892,902.2144034671784,454.315797917366,5219.376426935196,-5716.374624073505,6082.1227940917015,1,0,0,1627203281.4
275,2021/7/25 17:54:42.5,-110.37950000000001,905.85,452.132,6715.625,-5322.1875,3769.0625,1,0,0,1627203281.5
276,2021/7/25 17:54:42.6,-104.2978057999611,909.4855965328217,449.948202082634,8211.873573064804,-4928.000375926495,1456.0022059082985,1,0,0,1627203281.6
277,2021/7/25 17:54:42.7,-98.21609710001945,913.1212017335891,447.76439895868305,9708.125713467598,-4533.812312036753,-857.0636029541492,1,0,0,1627203281.7
278,2021/7/25 17:54:42.8,-92.13440289998056,916.7567982664109,445.580601041317,11204.374286532402,-4139.625187963247,-3170.1238970458508,1,0,0,1627203281.8
279,2021/7/25 17:54:42.9,-86.05269420003891,920.3924034671784,443.39679791736603,12700.626426935196,-3745.4371240735054,-5483.1897059082985,1,0,0,1627203281.9
280,2021/7/25 17:54:43.0,-79.971,924.028,441.213,14196.875,-3351.25,-7796.25,1,0,0,1627203282.0
281,2021/7/25 17:54:43.1,-81.38009865617752,922.4725014834404,441.87179937171936,13412.438248097897,-4000.49938082695,-7118.563146293163,1,0,0,1627203282.1
282,2021/7/25 17:54:43.2,-82.78920067191125,920.9169992582798,442.5306003141403,12627.999625951052,-4649.750309586525,-6440.874676853418,1,0,0,1627203282.2
283,2021/7/25 17:54:43.3,-84.19829932808877,919.3615007417202,443.1893996858597,11843.562874048948,-5298.999690413475,-5763.187823146582,1,0,0,1627203282.3
284,2021/7/25 17:54:43.4,-85.60740134382247,917.8059985165596,443.84820062828067,11059.124251902103,-5948.25061917305,-5085.499353706837,1,0,0,1627203282.4
285,2021/7/25 17:54:43.5,-87.01650000000001,916.2505,444.507,10274.6875,-6597.5,-4407.8125,1,0,0,1627203282.5
286,2021/7/25 17:54:43.6,-88.42559865617753,914.6950014834404,445.16579937171934,9490.250748097897,-7246.74938082695,-3730.1256462931633,1,0,0,1627203282.6
287,2021/7/25 17:54:43.7,-89.83470067191124,913.1394992582798,445.8246003141403,8705.812125951052,-7896.000309586525,-3052.4371768534184,1,0,0,1627203282.7
288,2021/7/25 17:54:43.8,-91.24379932808876,911.5840007417202,446.4833996858597,7921.375374048948,-8545.249690413475,-2374.7503231465816,1,0,0,1627203282.8
289,2021/7/25 17:54:43.9,-92.65290134382248,910.0284985165596,447.14220062828065,7136.936751902103,-9194.50061917305,-1697.0618537068367,1,0,0,1627203282.9
290,2021/7/25 17:54:44.0,-94.062,908.473,447.801,6352.5,-9843.75,-1019.375,1,0,0,1627203283.0
291,2021/7/25 17:54:44.1,-90.60940329265594,904.7215035777092,450.9851969633102,4314.18944388628,-11504.060916602612,-1472.1870681643486,1,0,0,1627203283.1
292,2021/7/25 17:54:44.2,-87.15679835367203,900.9699982111454,454.16940151834484,2275.87402805686,-13164.375791698694,-1925.0002159178257,1,0,0,1627203283.2
293,2021/7/25 17:54:44.3,-83.70420164632797,897.2185017888546,457.3535984816551,237.56347194314003,-14824.686708301306,-2377.8122840821743,1,0,0,1627203283.3
294,2021/7/25 17:54:44.4,-80.25159670734405,893.4669964222908,460.53780303668975,-1800.75194388628,-16485.00158339739,-2830.6254318356514,1,0,0,1627203283.4
295,2021/7/25 17:54:44.5,-76.799,889.7155,463.722,-3839.0625,-18145.3125,-3283.4375,1,0,0,1627203283.5
296,2021/7/25 17:54:44.6,-73.34640329265595,885.9640035777091,466.9061969633102,-5877.37305611372,-19805.62341660261,-3736.2495681643486,1,0,0,1627203283.6
297,2021/7/25 17:54:44.7,-69.89379835367203,882.2124982111453,470.09040151834483,-7915.68847194314,-21465.938291698694,-4189.062715917826,1,0,0,1627203283.7
298,2021/7/25 17:54:44.8,-66.44120164632797,878.4610017888546,473.2745984816551,-9953.99902805686,-23126.249208301306,-4641.874784082174,1,0,0,1627203283.8
299,2021/7/25 17:54:44.9,-62.98859670734406,874.7094964222907,476.45880303668974,-11992.31444388628,-24786.56408339739,-5094.687931835651,1,0,0,1627203283.9
300,2021/7/25 17:54:45.0,-59.536,870.958,479.643,-14030.625,-26446.875,-5547.5,1,0,0,1627203284.0
301,2021/7/25 17:54:45.1,-45.64631324625016,861.8507086853981,483.86419597434997,-11641.002278923988,-23891.87743663788,-5369.437669813633,1,0,0,1627203284.1
302,2021/7/25 17:54:45.2,-31.75659337687493,852.7433956573009,488.085402012825,-9251.373860538006,-21336.87378168106,-5191.3749150931835,1,0,0,1627203284.2
303,2021/7/25 17:54:45.3,-17.866906623125082,843.636104342699,492.306597987175,-6861.751139461994,-18781.87621831894,-5013.3125849068165,1,0,0,1627203284.3
304,2021/7/25 17:54:45.4,-3.977186753749855,834.5287913146019,496.52780402565,-4472.122721076012,-16226.872563362122,-4835.249830186367,1,0,0,1627203284.4
305,2021/7/25 17:54:45.5,9.912499999999994,825.4214999999999,500.749,-2082.5,-13671.875,-4657.1875,1,0,0,1627203284.5
306,2021/7/25 17:54:45.6,23.802186753749837,816.3142086853981,504.97019597434996,307.12272107601166,-11116.877436637878,-4479.125169813633,1,0,0,1627203284.6
307,2021/7/25 17:54:45.7,37.691906623125064,807.206895657301,509.191402012825,2696.751139461994,-8561.87378168106,-4301.0624150931835,1,0,0,1627203284.7
308,2021/7/25 17:54:45.8,51.58159337687492,798.0996043426991,513.412597987175,5086.373860538006,-6006.876218318939,-4123.0000849068165,1,0,0,1627203284.8
309,2021/7/25 17:54:45.9,65.47131324625015,788.9922913146019,517.6338040256501,7476.002278923988,-3451.8725633621216,-3944.937330186367,1,0,0,1627203284.9
310,2021/7/25 17:54:46.0,79.361,779.885,521.855,9865.625,-896.875,-3766.875,1,0,0,1627203285.0
311,2021/7/25 17:54:46.1,96.7947833738327,767.1787121176719,535.4213870620728,9627.18772739172,-1390.8120289444923,-3891.124881505966,1,0,0,1627203285.1
312,2021/7/25 17:54:46.2,114.22860831308365,754.472393941164,548.9878064689636,9388.74988630414,-1884.7502355277538,-4015.375059247017,1,0,0,1627203285.2
313,2021/7/25 17:54:46.3,131.66239168691635,741.7661060588359,562.5541935310364,9150.31261369586,-2378.687264472246,-4139.624940752983,1,0,0,1627203285.3
314,2021/7/25 17:54:46.4,149.0962166261673,729.059787882328,576.1206129379273,8911.87477260828,-2872.6254710555077,-4263.875118494034,1,0,0,1627203285.4
315,2021/7/25 17:54:46.5,166.53000000000003,716.3534999999999,589.687,8673.4375,-3366.5625,-4388.125,1,0,0,1627203285.5
316,2021/7/25 17:54:46.6,183.9637833738327,703.647212117672,603.2533870620728,8435.00022739172,-3860.4995289444923,-4512.374881505966,1,0,0,1627203285.6
317,2021/7/25 17:54:46.7,201.39760831308365,690.9408939411641,616.8198064689636,8196.56238630414,-4354.437735527754,-4636.625059247017,1,0,0,1627203285.7
318,2021/7/25 17:54:46.8,218.8313916869164,678.234606058836,630.3861935310364,7958.12511369586,-4848.374764472246,-4760.874940752983,1,0,0,1627203285.8
319,2021/7/25 17:54:46.9,236.26521662616733,665.5282878823281,643.9526129379273,7719.68727260828,-5342.312971055508,-4885.125118494034,1,0,0,1627203285.9
320,2021/7/25 17:54:47.0,253.699,652.822,657.519,7481.25,-5836.25,-5009.375,1,0,0,1627203286.0
321,2021/7/25 17:54:47.1,261.64729241991046,648.3385042757988,662.2098955264091,7685.999804735184,-6061.562285125256,-4806.375193595886,1,0,0,1627203286.1
322,2021/7/25 17:54:47.2,269.5956037900448,643.8549978621006,666.9008022367955,7890.750097632408,-6286.875107437372,-4603.374903202057,1,0,0,1627203286.2
323,2021/7/25 17:54:47.3,277.5438962099552,639.3715021378994,671.5916977632046,8095.499902367592,-6512.187392562628,-4400.375096797943,1,0,0,1627203286.3
324,2021/7/25 17:54:47.4,285.4922075800896,634.8879957242012,676.2826044735908,8300.250195264816,-6737.500214874744,-4197.374806404114,1,0,0,1627203286.4
325,2021/7/25 17:54:47.5,293.44050000000004,630.4045,680.9735000000001,8505.0,-6962.8125,-3994.375,1,0,0,1627203286.5
326,2021/7/25 17:54:47.6,301.38879241991043,625.9210042757987,685.6643955264092,8709.749804735184,-7188.124785125256,-3791.3751935958862,1,0,0,1627203286.6
327,2021/7/25 17:54:47.7,309.3371037900448,621.4374978621006,690.3553022367954,8914.500097632408,-7413.437607437372,-3588.374903202057,1,0,0,1627203286.7
328,2021/7/25 17:54:47.8,317.28539620995525,616.9540021378994,695.0461977632045,9119.249902367592,-7638.749892562628,-3385.375096797943,1,0,0,1627203286.8
329,2021/7/25 17:54:47.9,325.2337075800896,612.4704957242012,699.7371044735909,9324.000195264816,-7864.062714874744,-3182.3748064041138,1,0,0,1627203286.9
330,2021/7/25 17:54:48.0,333.182,607.987,704.428,9528.75,-8089.375,-2979.375,1,0,0,1627203287.0
331,2021/7/25 17:54:48.1,336.2563970680237,604.4307033915519,709.429995229721,11366.248247623444,5452.987084984779,-6853.871304988861,1,0,0,1627203287.1
332,2021/7/25 17:54:48.2,339.33080146598815,600.874398304224,714.4320023851394,13203.750876188278,18995.38145750761,-10728.37684750557,1,0,0,1627203287.2
333,2021/7/25 17:54:48.3,342.40519853401184,597.3181016957759,719.4339976148606,15041.249123811722,32537.74354249239,-14602.87315249443,1,0,0,1627203287.3
334,2021/7/25 17:54:48.4,345.47960293197633,593.761796608448,724.4360047702789,16878.751752376556,46080.13791501522,-18477.37869501114,1,0,0,1627203287.4
335,2021/7/25 17:54:48.5,348.554,590.2055,729.438,18716.25,59622.5,-22351.875,1,0,0,1627203287.5
336,2021/7/25 17:54:48.6,351.6283970680237,586.649203391552,734.439995229721,20553.748247623444,73164.86208498478,-26226.37130498886,1,0,0,1627203287.6
337,2021/7/25 17:54:48.7,354.70280146598816,583.092898304224,739.4420023851394,22391.25087618828,86707.25645750761,-30100.87684750557,1,0,0,1627203287.7
338,2021/7/25 17:54:48.8,357.77719853401186,579.536601695776,744.4439976148606,24228.74912381172,100249.61854249239,-33975.37315249443,1,0,0,1627203287.8
339,2021/7/25 17:54:48.9,360.8516029319763,575.980296608448,749.4460047702789,26066.251752376556,113792.01291501522,-37849.87869501114,1,0,0,1627203287.9
340,2021/7/25 17:54:49.0,363.926,572.424,754.448,27903.75,127334.375,-41724.375,1,0,0,1627203288.0
341,2021/7/25 17:54:49.1,343.1128198490143,590.2298830189704,751.9043024258614,28494.374436736107,115448.82383495569,-39842.25179493427,1,0,0,1627203288.1
342,2021/7/25 17:54:49.2,322.29959007549286,608.0358084905147,749.3605987870693,29085.000281631947,103563.24433252215,-37960.12410253286,1,0,0,1627203288.2
343,2021/7/25 17:54:49.3,301.48640992450714,625.8416915094853,746.8169012129307,29675.624718368053,91677.69316747785,-36078.00089746714,1,0,0,1627203288.3
344,2021/7/25 17:54:49.4,280.67318015098573,643.6476169810295,744.2731975741386,30266.250563263893,79792.11366504431,-34195.87320506573,1,0,0,1627203288.4
345,2021/7/25 17:54:49.5,259.86,661.4535,741.7294999999999,30856.875,67906.5625,-32313.75,1,0,0,1627203288.5
346,2021/7/25 17:54:49.6,239.0468198490143,679.2593830189704,739.1858024258613,31447.499436736107,56021.01133495569,-30431.626794934273,1,0,0,1627203288.6
347,2021/7/25 17:54:49.7,218.23359007549286,697.0653084905147,736.6420987870692,32038.125281631947,44135.431832522154,-28549.499102532864,1,0,0,1627203288.7
348,2021/7/25 17:54:49.8,197.42040992450714,714.8711915094852,734.0984012129306,32628.749718368053,32249.880667477846,-26667.375897467136,1,0,0,1627203288.8
349,2021/7/25 17:54:49.9,176.60718015098573,732.6771169810295,731.5546975741386,33219.37556326389,20364.301165044308,-24785.248205065727,1,0,0,1627203288.9
350,2021/7/25 17:54:50.0,155.794,750.483,729.011,33810.0,8478.75,-22903.125,1,0,0,1627203289.0
351,2021/7/25 17:54:50.1,141.3431137814522,756.9367938451767,713.8403144679069,24841.696052849293,3927.0043408870697,-16013.381570577621,1,0,0,1627203289.1
352,2021/7/25 17:54:50.2,126.89219310927392,763.3906030774116,698.6695927660464,15873.370723575354,-624.7521704435349,-9123.62171471119,1,0,0,1627203289.2
353,2021/7/25 17:54:50.3,112.4413068907261,769.8443969225883,683.4989072339534,6905.066776424646,-5176.497829556465,-2233.8782852888107,1,0,0,1627203289.3
354,2021/7/25 17:54:50.4,97.99038621854783,776.2982061548232,668.328185532093,-2063.2585528492928,-9728.25434088707,4655.8815705776215,1,0,0,1627203289.4
355,2021/7/25 17:54:50.5,83.5395,782.752,653.1575,-11031.5625,-14280.0,11545.625,1,0,0,1627203289.5
356,2021/7/25 17:54:50.6,69.08861378145218,789.2057938451767,637.9868144679069,-19999.866447150707,-18831.74565911293,18435.36842942238,1,0,0,1627203289.6
357,2021/7/25 17:54:50.7,54.63769310927391,795.6596030774116,622.8160927660465,-28968.191776424646,-23383.502170443535,25325.12828528881,1,0,0,1627203289.7
358,2021/7/25 17:54:50.8,40.18680689072609,802.1133969225883,607.6454072339534,-37936.49572357535,-27935.247829556465,32214.87171471119,1,0,0,1627203289.8
359,2021/7/25 17:54:50.9,25.73588621854782,808.5672061548232,592.474685532093,-46904.82105284929,-32487.00434088707,39104.63157057762,1,0,0,1627203289.9
360,2021/7/25 17:54:51.0,11.285,815.021,577.304,-55873.125,-37038.75,45994.375,1,0,0,1627203290.0
361,2021/7/25 17:54:51.1,8.936502239704133,816.2287988481521,573.6257035079002,-48661.38187766075,-33832.75305747986,39765.255940556526,1,0,0,1627203290.1
362,2021/7/25 17:54:51.2,6.587998880147934,817.4366005759239,569.9473982460498,-41449.621561169624,-30626.74847126007,33536.12202972174,1,0,0,1627203290.2
363,2021/7/25 17:54:51.3,4.239501119852067,818.644399424076,566.26910175395,-34237.878438830376,-27420.75152873993,27307.002970278263,1,0,0,1627203290.3
364,2021/7/25 17:54:51.4,1.8909977602958676,819.8522011518478,562.5907964920997,-27026.11812233925,-24214.74694252014,21077.869059443474,1,0,0,1627203290.4
365,2021/7/25 17:54:51.5,-0.4574999999999996,821.06,558.9124999999999,-19814.375,-21008.75,14848.75,1,0,0,1627203290.5
366,2021/7/25 17:54:51.6,-2.805997760295867,822.2677988481522,555.2342035079002,-12602.631877660751,-17802.75305747986,8619.630940556526,1,0,0,1627203290.6
367,2021/7/25 17:54:51.7,-5.154501119852064,823.475600575924,551.5558982460499,-5390.871561169624,-14596.74847126007,2390.497029721737,1,0,0,1627203290.7
368,2021/7/25 17:54:51.8,-7.502998880147935,824.6833994240761,547.8776017539501,1820.8715611696243,-11390.75152873993,-3838.622029721737,1,0,0,1627203290.8
369,2021/7/25 17:54:51.9,-9.851502239704132,825.8912011518479,544.1992964920997,9032.631877660751,-8184.746942520142,-10067.755940556526,1,0,0,1627203290.9
370,2021/7/25 17:54:52.0,-12.2,827.099,540.521,16244.375,-4978.75,-16296.875,1,0,0,1627203291.0
371,2021/7/25 17:54:52.1,-25.65048717260361,818.5651081385613,529.6996103200912,21787.494713664055,-15992.364496588707,-332.95272439718246,1,0,0,1627203291.1
372,2021/7/25 17:54:52.2,-39.1010064136982,810.0311959307194,518.8781948399544,27330.627643167973,-27006.005251705647,15631.007612198591,1,0,0,1627203291.2
373,2021/7/25 17:54:52.3,-52.55149358630182,801.4973040692806,508.0568051600456,32873.74735683203,-38019.61974829435,31594.92988780141,1,0,0,1627203291.3
374,2021/7/25 17:54:52.4,-66.0020128273964,792.9633918614388,497.23538967990874,38416.880286335945,-49033.26050341129,47558.89022439718,1,0,0,1627203291.4
375,2021/7/25 17:54:52.5,-79.45250000000001,784.4295,486.414,43960.0,-60046.875,63522.8125,1,0,0,1627203291.5
376,2021/7/25 17:54:52.6,-92.90298717260363,775.8956081385612,475.59261032009124,49503.119713664055,-71060.4894965887,79486.73477560282,1,0,0,1627203291.6
377,2021/7/25 17:54:52.7,-106.35350641369821,767.3616959307194,464.7711948399544,55046.25264316797,-82074.13025170565,95450.69511219859,1,0,0,1627203291.7
378,2021/7/25 17:54:52.8,-119.80399358630183,758.8278040692807,453.9498051600456,60589.37235683203,-93087.74474829435,111414.61738780141,1,0,0,1627203291.8
379,2021/7/25 17:54:52.9,-133.2545128273964,750.2938918614387,443.12838967990876,66132.50528633595,-104101.3855034113,127378.57772439718,1,0,0,1627203291.9
380,2021/7/25 17:54:53.0,-146.705,741.76,432.307,71675.625,-115115.0,143342.5,1,0,0,1627203292.0
381,2021/7/25 17:54:53.1,-111.58123349666596,729.157412018776,437.32119521808625,63417.82037526369,-105715.75896382332,129231.82595700026,1,0,0,1627203292.1
382,2021/7/25 17:54:53.2,-76.45738325166704,716.554793990612,442.3354023909569,55159.996062368155,-96316.49551808834,115121.11827149987,1,0,0,1627203292.2
383,2021/7/25 17:54:53.3,-41.333616748332986,703.952206009388,447.34959760904314,46902.191437631845,-86917.25448191166,101010.44422850013,1,0,0,1627203292.3
384,2021/7/25 17:54:53.4,-6.209766503334066,691.3495879812241,452.36380478191376,38644.36712473631,-77517.99103617668,86899.73654299974,1,0,0,1627203292.4
385,2021/7/25 17:54:53.5,28.913999999999987,678.7470000000001,457.37800000000004,30386.5625,-68118.75,72789.0625,1,0,0,1627203292.5
386,2021/7/25 17:54:53.6,64.03776650333404,666.1444120187759,462.3921952180863,22128.75787526369,-58719.50896382332,58678.388457000256,1,0,0,1627203292.6
387,2021/7/25 17:54:53.7,99.16161674833296,653.5417939906121,467.4064023909569,13870.933562368155,-49320.24551808834,44567.68077149987,1,0,0,1627203292.7
388,2021/7/25 17:54:53.8,134.285383251667,640.939206009388,472.4205976090431,5613.1289376318455,-39921.00448191166,30457.006728500128,1,0,0,1627203292.8
389,2021/7/25 17:54:53.9,169.40923349666596,628.336587981224,477.4348047819138,-2644.695375263691,-30521.74103617668,16346.299042999744,1,0,0,1627203292.9
390,2021/7/25 17:54:54.0,204.533,615.734,482.449,-10902.5,-21122.5,2235.625,1,0,0,1627203293.0
391,2021/7/25 17:54:54.1,188.13621563720702,615.7766999592782,491.9222909655571,-6040.129637122154,-11732.008955478668,2401.874841451645,1,0,0,1627203293.1
392,2021/7/25 17:54:54.2,171.73939218139648,615.819400020361,501.39560451722144,-1177.7476814389229,-2341.495522260666,2568.1250792741776,1,0,0,1627203293.2
393,2021/7/25 17:54:54.3,155.3426078186035,615.8620999796391,510.86889548277856,3684.622681438923,7048.995522260666,2734.3749207258224,1,0,0,1627203293.3
394,2021/7/25 17:54:54.4,138.94578436279295,615.9048000407219,520.3422090344429,8547.004637122154,16439.50895547867,2900.625158548355,1,0,0,1627203293.4
395,2021/7/25 17:54:54.5,122.54899999999999,615.9475,529.8155,13409.375,25830.0,3066.875,1,0,0,1627203293.5
396,2021/7/25 17:54:54.6,106.15221563720702,615.9901999592781,539.2887909655572,18271.745362877846,35220.49104452133,3233.124841451645,1,0,0,1627203293.6
397,2021/7/25 17:54:54.7,89.75539218139647,616.0329000203609,548.7621045172215,23134.127318561077,44611.004477739334,3399.3750792741776,1,0,0,1627203293.7
398,2021/7/25 17:54:54.8,73.3586078186035,616.075599979639,558.2353954827786,27996.497681438923,54001.495522260666,3565.6249207258224,1,0,0,1627203293.8
399,2021/7/25 17:54:54.9,56.96178436279297,616.1183000407218,567.7087090344429,32858.879637122154,63392.00895547867,3731.875158548355,1,0,0,1627203293.9
400,2021/7/25 17:54:55.0,40.565,616.161,577.182,37721.25,72782.5,3898.125,1,0,0,1627203294.0
401,2021/7/25 17:54:55.1,3.9284349393844593,621.0958952937126,567.0194096918107,34531.440542042255,64270.070618093014,2285.939037501812,1,0,0,1627203294.1
402,2021/7/25 17:54:55.2,-32.70821746969223,626.0308023531436,556.8567951540947,31341.623478978872,55757.62094095349,673.749231249094,1,0,0,1627203294.2
403,2021/7/25 17:54:55.3,-69.34478253030777,630.9656976468563,546.6942048459053,28151.814021021128,47245.19155904651,-938.436731249094,1,0,0,1627203294.3
404,2021/7/25 17:54:55.4,-105.98143493938446,635.9006047062874,536.5315903081894,24961.996957957745,38732.741881906986,-2550.626537501812,1,0,0,1627203294.4
405,2021/7/25 17:54:55.5,-142.618,640.8354999999999,526.369,21772.1875,30220.3125,-4162.8125,1,0,0,1627203294.5
406,2021/7/25 17:54:55.6,-179.25456506061553,645.7703952937126,516.2064096918106,18582.378042042255,21707.883118093014,-5774.998462498188,1,0,0,1627203294.6
407,2021/7/25 17:54:55.7,-215.8912174696922,650.7053023531437,506.0437951540947,15392.560978978872,13195.433440953493,-7387.188268750906,1,0,0,1627203294.7
408,2021/7/25 17:54:55.8,-252.52778253030777,655.6401976468563,495.8812048459053,12202.751521021128,4683.004059046507,-8999.374231249094,1,0,0,1627203294.8
409,2021/7/25 17:54:55.9,-289.1644349393845,660.5751047062873,485.7185903081894,9012.934457957745,-3829.4456180930138,-10611.564037501812,1,0,0,1627203294.9
410,2021/7/25 17:54:56.0,-325.801,665.51,475.556,5823.125,-12341.875,-12223.75,1,0,0,1627203295.0
411,2021/7/25 17:54:56.1,-346.2969804534912,667.0776985049248,464.38081065750123,5455.625350475311,-12243.000094294548,-11394.250791072845,1,0,0,1627203295.1
412,2021/7/25 17:54:56.2,-366.79300977325437,668.6454007475376,453.2055946712494,5088.124824762344,-12144.124952852726,-10564.749604463577,1,0,0,1627203295.2
413,2021/7/25 17:54:56.3,-387.28899022674557,670.2130992524624,442.0304053287506,4720.625175237656,-12045.250047147274,-9735.250395536423,1,0,0,1627203295.3
414,2021/7/25 17:54:56.4,-407.78501954650875,671.7808014950753,430.85518934249876,4353.124649524689,-11946.374905705452,-8905.749208927155,1,0,0,1627203295.4
415,2021/7/25 17:54:56.5,-428.28099999999995,673.3485000000001,419.67999999999995,3985.625,-11847.5,-8076.25,1,0,0,1627203295.5
416,2021/7/25 17:54:56.6,-448.7769804534912,674.9161985049248,408.5048106575012,3618.1253504753113,-11748.625094294548,-7246.7507910728455,1,0,0,1627203295.6
417,2021/7/25 17:54:56.7,-469.27300977325433,676.4839007475376,397.32959467124937,3250.6248247623444,-11649.749952852726,-6417.249604463577,1,0,0,1627203295.7
418,2021/7/25 17:54:56.8,-489.7689902267456,678.0515992524624,386.1544053287506,2883.1251752376556,-11550.875047147274,-5587.750395536423,1,0,0,1627203295.8
419,2021/7/25 17:54:56.9,-510.26501954650877,679.6193014950752,374.9791893424988,2515.6246495246887,-11451.999905705452,-4758.2492089271545,1,0,0,1627203295.9
420,2021/7/25 17:54:57.0,-530.761,681.187,363.804,2148.125,-11353.125,-3928.75,1,0,0,1627203296.0
421,2021/7/25 17:54:57.1,-540.4660907444953,680.1866009540558,360.18670344972605,2614.062055647373,-11336.500015854836,-3724.0001952648163,1,0,0,1627203296.1
422,2021/7/25 17:54:57.2,-550.1712046277523,679.1861995229721,356.5693982751369,3080.0002221763134,-11319.874992072582,-3519.249902367592,1,0,0,1627203296.2
423,2021/7/25 17:54:57.3,-559.8762953722477,678.1858004770279,352.95210172486304,3545.9372778236866,-11303.250007927418,-3314.500097632408,1,0,0,1627203296.3
424,2021/7/25 17:54:57.4,-569.5814092555046,677.1853990459442,349.3347965502739,4011.875444352627,-11286.624984145164,-3109.7498047351837,1,0,0,1627203296.4
425,2021/7/25 17:54:57.5,-579.2864999999999,676.185,345.7175,4477.8125,-11270.0,-2905.0,1,0,0,1627203296.5
426,2021/7/25 17:54:57.6,-588.9915907444954,675.1846009540558,342.10020344972605,4943.749555647373,-11253.375015854836,-2700.2501952648163,1,0,0,1627203296.6
427,2021/7/25 17:54:57.7,-598.6967046277523,674.1841995229721,338.4828982751369,5409.687722176313,-11236.749992072582,-2495.499902367592,1,0,0,1627203296.7
428,2021/7/25 17:54:57.8,-608.4017953722478,673.183800477028,334.86560172486304,5875.624777823687,-11220.125007927418,-2290.750097632408,1,0,0,1627203296.8
429,2021/7/25 17:54:57.9,-618.1069092555047,672.1833990459442,331.2482965502739,6341.562944352627,-11203.499984145164,-2085.9998047351837,1,0,0,1627203296.9
430,2021/7/25 17:54:58.0,-627.812,671.183,327.631,6807.5,-11186.875,-1881.25,1,0,0,1627203297.0
431,2021/7/25 17:54:58.1,-631.7891962070465,670.4510006980896,326.5696010122299,6842.937466204166,-11091.06259137392,-2003.7498831748962,1,0,0,1627203297.1
432,2021/7/25 17:54:58.2,-635.7664018964767,669.7189996509552,325.508199493885,6878.375016897917,-10995.24995431304,-2126.250058412552,1,0,0,1627203297.2
433,2021/7/25 17:54:58.3,-639.7435981035233,668.9870003490448,324.4468005061149,6913.812483102083,-10899.43754568696,-2248.749941587448,1,0,0,1627203297.3
434,2021/7/25 17:54:58.4,-643.7208037929535,668.2549993019104,323.3853989877701,6949.250033795834,-10803.62490862608,-2371.2501168251038,1,0,0,1627203297.4
435,2021/7/25 17:54:58.5,-647.698,667.523,322.32399999999996,6984.6875,-10707.8125,-2493.75,1,0,0,1627203297.5
436,2021/7/25 17:54:58.6,-651.6751962070465,666.7910006980896,321.2626010122299,7020.124966204166,-10612.00009137392,-2616.2498831748962,1,0,0,1627203297.6
437,2021/7/25 17:54:58.7,-655.6524018964767,666.0589996509552,320.20119949388504,7055.562516897917,-10516.18745431304,-2738.750058412552,1,0,0,1627203297.7
438,2021/7/25 17:54:58.8,-659.6295981035232,665.3270003490449,319.13980050611497,7090.999983102083,-10420.37504568696,-2861.249941587448,1,0,0,1627203297.8
439,2021/7/25 17:54:58.9,-663.6068037929534,664.5949993019104,318.0783989877701,7126.437533795834,-10324.56240862608,-2983.7501168251038,1,0,0,1627203297.9
